digraph graph_name {
  graph [
    charset = "UTF-8";
    label = "sample graph",
    labelloc = "t",
    labeljust = "c",
    bgcolor = "#ffffff",
    fontcolor = white,
    fontsize = 18,
    style = "filled",
    rankdir = TB,
    margin = 0.2,
    splines = spline,
    ranksep = 1.0,
    nodesep = 0.9
  ];

  node [
    colorscheme = "rdylgn11"
    style = "solid,filled",
    fontsize = 16,
    fontcolor = 6,
    fontname = "Migu 1M",
    color = 5,
    fillcolor = 11,
    fixedsize = true,
    height = 1.0,
    width = 1.0
  ];

  edge [
    style = solid,
    fontsize = 14,
    fontcolor = black,
    fontname = "Migu 1M",
    color = black,
    labelfloat = true,
    labeldistance = 2.5,
    labelangle = 70
  ];
  0 [label="", shape = square, fillcolor="#639c00"]
1 [label="", shape = square, fillcolor="#847b00"]
2 [label="", shape = square, fillcolor="#916e00"]
3 [label="", shape = square, fillcolor="#8b7400"]
4 [label="", shape = square, fillcolor="#43bc00"]
5 [label="", shape = square, fillcolor="#788700"]
6 [label="", shape = square, fillcolor="#699600"]
7 [label="", shape = square, fillcolor="#768900"]
8 [label="", shape = square, fillcolor="#47b800"]
9 [label="", shape = square, fillcolor="#897600"]
10 [label="", shape = square, fillcolor="#7a8500"]
11 [label="", shape = square, fillcolor="#837c00"]
12 [label="", shape = square, fillcolor="#0ff00"]
13 [label="", shape = square, fillcolor="#7c8300"]
14 [label="", shape = square, fillcolor="#996600"]
15 [label="", shape = square, fillcolor="#39c600"]
16 [label="", shape = square, fillcolor="#3ac500"]
17 [label="", shape = square, fillcolor="#5da200"]
18 [label="", shape = square, fillcolor="#0ff00"]
19 [label="", shape = square, fillcolor="#0ff00"]
20 [label="", shape = square, fillcolor="#807f00"]
21 [label="", shape = square, fillcolor="#3dc200"]
22 [label="", shape = square, fillcolor="#758a00"]
23 [label="", shape = square, fillcolor="#788700"]
24 [label="", shape = square, fillcolor="#6a9500"]
25 [label="", shape = square, fillcolor="#0ff00"]
26 [label="", shape = square, fillcolor="#956a00"]
27 [label="", shape = square, fillcolor="#7b8400"]
28 [label="", shape = square, fillcolor="#867900"]
29 [label="", shape = square, fillcolor="#7b8400"]
30 [label="", shape = square, fillcolor="#708f00"]
31 [label="", shape = square, fillcolor="#d62900"]
32 [label="", shape = square, fillcolor="#0000ff"]
33 [label="", shape = square, fillcolor="#0ff00"]
34 [label="", shape = square, fillcolor="#0ff00"]
35 [label="", shape = square, fillcolor="#0ff00"]
36 [label="", shape = square, fillcolor="#0ff00"]
37 [label="", shape = square, fillcolor="#0ff00"]
38 [label="", shape = square, fillcolor="#0ff00"]
0 -> 4
0 -> 33
0 -> 1
0 -> 29
0 -> 5
0 -> 3
0 -> 18
1 -> 2
1 -> 6
1 -> 7
1 -> 4
1 -> 3
2 -> 3
2 -> 1
2 -> 0
2 -> 14
3 -> 1
3 -> 0
3 -> 14
3 -> 2
3 -> 22
4 -> 0
4 -> 33
4 -> 1
4 -> 30
4 -> 5
4 -> 21
5 -> 4
5 -> 7
5 -> 23
5 -> 1
5 -> 13
6 -> 7
6 -> 1
6 -> 16
6 -> 10
6 -> 21
6 -> 0
6 -> 35
6 -> 12
7 -> 8
7 -> 16
7 -> 10
7 -> 1
7 -> 11
7 -> 6
7 -> 18
7 -> 9
8 -> 7
8 -> 35
8 -> 10
8 -> 1
9 -> 10
9 -> 7
9 -> 1
10 -> 9
10 -> 8
10 -> 11
10 -> 16
10 -> 1
10 -> 7
10 -> 27
11 -> 10
11 -> 16
11 -> 1
11 -> 13
11 -> 28
11 -> 7
11 -> 6
11 -> 2
12 -> 34
12 -> 35
12 -> 16
13 -> 1
13 -> 15
13 -> 24
13 -> 0
14 -> 3
14 -> 2
15 -> 25
15 -> 1
15 -> 0
16 -> 35
16 -> 34
16 -> 11
16 -> 1
17 -> 6
17 -> 7
17 -> 19
18 -> 36
19 -> 12
19 -> 35
20 -> 1
20 -> 0
21 -> 22
21 -> 4
21 -> 33
22 -> 23
22 -> 21
22 -> 0
22 -> 3
23 -> 10
23 -> 1
23 -> 4
24 -> 13
24 -> 0
24 -> 15
25 -> 37
25 -> 38
26 -> 1
26 -> 2
27 -> 1
27 -> 0
28 -> 7
28 -> 1
28 -> 6
28 -> 10
28 -> 3
28 -> 11
29 -> 1
29 -> 0
30 -> 1
30 -> 4
32 -> 1
32 -> 0
33 -> 21
34 -> 35
34 -> 16
36 -> 1
}