digraph graph_name {
  graph [
    charset = "UTF-8";
    label = "sample graph",
    labelloc = "t",
    labeljust = "c",
    bgcolor = "#ffffff",
    fontcolor = white,
    fontsize = 18,
    style = "filled",
    rankdir = TB,
    margin = 0.2,
    splines = spline,
    ranksep = 1.0,
    nodesep = 0.9
  ];

  node [
    colorscheme = "rdylgn11"
    style = "solid,filled",
    fontsize = 16,
    fontcolor = 6,
    fontname = "Migu 1M",
    color = 5,
    fillcolor = 11,
    fixedsize = true,
    height = 1.0,
    width = 1.0
  ];

  edge [
    style = solid,
    fontsize = 14,
    fontcolor = black,
    fontname = "Migu 1M",
    color = black,
    labelfloat = true,
    labeldistance = 2.5,
    labelangle = 70
  ];
  start [label="", shape = square, fillcolor="#0000ff"]
WLR [label="", shape = square, fillcolor="#5ca300"]
WNbLR [label="", shape = square, fillcolor="#52ad00"]
WNbLlR [label="", shape = square, fillcolor="#3dc200"]
WNbLllR [label="", shape = square, fillcolor="#619e00"]
WNbLlrR [label="", shape = square, fillcolor="#ff00ff"]
l [label="", shape = square, fillcolor="#778800"]
lr [label="", shape = square, fillcolor="#728d00"]
WLRlr [label="", shape = square, fillcolor="#659a00"]
WLlrR [label="", shape = square, fillcolor="#4eb100"]
WNbLrR [label="", shape = square, fillcolor="#43bc00"]
WNbLrRWLR [label="", shape = square, fillcolor="#649b00"]
WNrLR [label="", shape = square, fillcolor="#758a00"]
WNrLsR [label="", shape = square, fillcolor="#788700"]
WNrLrR [label="", shape = square, fillcolor="#6c9300"]
WLrR [label="", shape = square, fillcolor="#56a900"]
WkLR [label="", shape = square, fillcolor="#51ae00"]
WkLlR [label="", shape = square, fillcolor="#3fc000"]
WkLlrR [label="", shape = square, fillcolor="#ff00ff"]
WLrlR [label="", shape = square, fillcolor="#48b700"]
WNbLrlR [label="", shape = square, fillcolor="#ff00ff"]
r [label="", shape = square, fillcolor="#817e00"]
WbLR [label="", shape = square, fillcolor="#639c00"]
WyLR [label="", shape = square, fillcolor="#ac5300"]
WyLrR [label="", shape = square, fillcolor="#a85700"]
WyLrlR [label="", shape = square, fillcolor="#ac5300"]
WyLrfR [label="", shape = square, fillcolor="#996600"]
WyLrflR [label="", shape = square, fillcolor="#956a00"]
WLrflR [label="", shape = square, fillcolor="#906f00"]
rl [label="", shape = square, fillcolor="#807f00"]
rlr [label="", shape = square, fillcolor="#7e8100"]
WNkLrlR [label="", shape = square, fillcolor="#52ad00"]
WNrLrlR [label="", shape = square, fillcolor="#6e9100"]
WrLrlR [label="", shape = square, fillcolor="#699600"]
WLfR [label="", shape = square, fillcolor="#5fa000"]
WbLlR [label="", shape = square, fillcolor="#52ad00"]
WbLlrR [label="", shape = square, fillcolor="#4fb000"]
WNbLsR [label="", shape = square, fillcolor="#57a800"]
WLlR [label="", shape = square, fillcolor="#57a800"]
lrWLR [label="", shape = square, fillcolor="#758a00"]
rWLR [label="", shape = square, fillcolor="#847b00"]
ll [label="", shape = square, fillcolor="#798600"]
llr [label="", shape = square, fillcolor="#738c00"]
WLllrR [label="", shape = square, fillcolor="#669900"]
WLllR [label="", shape = square, fillcolor="#619e00"]
WNgLR [label="", shape = square, fillcolor="#52ad00"]
WNbLlRr [label="", shape = square, fillcolor="#42bd00"]
WLlfR [label="", shape = square, fillcolor="#5ca300"]
WNgLlR [label="", shape = square, fillcolor="#46b900"]
WNgLlrR [label="", shape = square, fillcolor="#41be00"]
WgLlrR [label="", shape = square, fillcolor="#46b900"]
WbLrR [label="", shape = square, fillcolor="#6f9000"]
WbLrlR [label="", shape = square, fillcolor="#50af00"]
WNkLR [label="", shape = square, fillcolor="#5fa000"]
WNkLrR [label="", shape = square, fillcolor="#6b9400"]
WNkLrRWLR [label="", shape = square, fillcolor="#768900"]
WNkLrRWLlR [label="", shape = square, fillcolor="#7b8400"]
WNyLR [label="", shape = square, fillcolor="#619e00"]
WLsR [label="", shape = square, fillcolor="#619e00"]
WLRrl [label="", shape = square, fillcolor="#6c9300"]
WLRr [label="", shape = square, fillcolor="#619e00"]
WLlRr [label="", shape = square, fillcolor="#5ca300"]
rlWLR [label="", shape = square, fillcolor="#768900"]
WNbLfR [label="", shape = square, fillcolor="#49b600"]
WNbLrfR [label="", shape = square, fillcolor="#48b700"]
WkLrlR [label="", shape = square, fillcolor="#ff00ff"]
WNbLflR [label="", shape = square, fillcolor="#32cd00"]
WrLR [label="", shape = square, fillcolor="#738c00"]
WrLrR [label="", shape = square, fillcolor="#788700"]
WrLrRl [label="", shape = square, fillcolor="#887700"]
WrLRl [label="", shape = square, fillcolor="#7d8200"]
WrLRlr [label="", shape = square, fillcolor="#7d8200"]
WrLlrR [label="", shape = square, fillcolor="#50af00"]
lWLR [label="", shape = square, fillcolor="#8e7100"]
lWLRWLR [label="", shape = square, fillcolor="#926d00"]
lWLWLRR [label="", shape = square, fillcolor="#926d00"]
lWNbLR [label="", shape = square, fillcolor="#837c00"]
WkLrR [label="", shape = square, fillcolor="#659a00"]
WkLfR [label="", shape = square, fillcolor="#708f00"]
WkLrfR [label="", shape = square, fillcolor="#758a00"]
rWNbLR [label="", shape = square, fillcolor="#7b8400"]
rWNbLfR [label="", shape = square, fillcolor="#9c6300"]
rWNbLlR [label="", shape = square, fillcolor="#976800"]
rWLlR [label="", shape = square, fillcolor="#906f00"]
rWgLR [label="", shape = square, fillcolor="#996600"]
rWgLlR [label="", shape = square, fillcolor="#956a00"]
rWNkLR [label="", shape = square, fillcolor="#a95600"]
rWNkLrR [label="", shape = square, fillcolor="#ad5200"]
rWNkLlR [label="", shape = square, fillcolor="#9c6300"]
rWNrLR [label="", shape = square, fillcolor="#916e00"]
rWNrLrR [label="", shape = square, fillcolor="#966900"]
rWrLR [label="", shape = square, fillcolor="#897600"]
rWrLlR [label="", shape = square, fillcolor="#897600"]
rWbLlR [label="", shape = square, fillcolor="#9c6300"]
rWNrLlR [label="", shape = square, fillcolor="#9d6200"]
rWNyLlR [label="", shape = square, fillcolor="#996600"]
rWyLlR [label="", shape = square, fillcolor="#956a00"]
s [label="", shape = square, fillcolor="#7a8500"]
WLlRWLR [label="", shape = square, fillcolor="#6d9200"]
WNkLlRWLR [label="", shape = square, fillcolor="#689700"]
WNkLlR [label="", shape = square, fillcolor="#5ba400"]
WNkLlRr [label="", shape = square, fillcolor="#609f00"]
WNkLlRWNkLR [label="", shape = square, fillcolor="#6b9400"]
WLrrR [label="", shape = square, fillcolor="#5ba400"]
WNkLlrR [label="", shape = square, fillcolor="#42bd00"]
WNrLlrR [label="", shape = square, fillcolor="#4cb300"]
WLrlrlrR [label="", shape = square, fillcolor="#4cb300"]
WNbLrlrlrR [label="", shape = square, fillcolor="#47b800"]
WNkLrlrlrR [label="", shape = square, fillcolor="#4cb300"]
WNkLllR [label="", shape = square, fillcolor="#639c00"]
WkLllR [label="", shape = square, fillcolor="#609f00"]
WNyLrR [label="", shape = square, fillcolor="#a55a00"]
WNyLsrR [label="", shape = square, fillcolor="#a15e00"]
WNyLsR [label="", shape = square, fillcolor="#9c6300"]
WNyLsfR [label="", shape = square, fillcolor="#986700"]
WyLsfR [label="", shape = square, fillcolor="#936c00"]
WbLsfR [label="", shape = square, fillcolor="#8f7000"]
WLsfR [label="", shape = square, fillcolor="#8a7500"]
WNbLsfR [label="", shape = square, fillcolor="#867900"]
WNbLRlr [label="", shape = square, fillcolor="#5ca300"]
WkLlRWLR [label="", shape = square, fillcolor="#798600"]
WkLlRWNbLR [label="", shape = square, fillcolor="#877800"]
WkLlRWbLR [label="", shape = square, fillcolor="#837c00"]
WkLlRWkLR [label="", shape = square, fillcolor="#7e8100"]
WbLRrl [label="", shape = square, fillcolor="#6d9200"]
WbLrRl [label="", shape = square, fillcolor="#867900"]
WbLRl [label="", shape = square, fillcolor="#718e00"]
WbLRlr [label="", shape = square, fillcolor="#6c9300"]
lrWNbLR [label="", shape = square, fillcolor="#7c8300"]
lrWbLR [label="", shape = square, fillcolor="#778800"]
lrl [label="", shape = square, fillcolor="#758a00"]
lrr [label="", shape = square, fillcolor="#778800"]
rr [label="", shape = square, fillcolor="#8f7000"]
rrWLR [label="", shape = square, fillcolor="#7e8100"]
rrWNbLR [label="", shape = square, fillcolor="#7a8500"]
rrWbLR [label="", shape = square, fillcolor="#758a00"]
rrWgLR [label="", shape = square, fillcolor="#7a8500"]
WbLrrR [label="", shape = square, fillcolor="#738c00"]
WNbLrrR [label="", shape = square, fillcolor="#609f00"]
WNrLlR [label="", shape = square, fillcolor="#639c00"]
WNrLlRr [label="", shape = square, fillcolor="#708f00"]
WrLlRr [label="", shape = square, fillcolor="#6b9400"]
rrWrLlR [label="", shape = square, fillcolor="#906f00"]
WrLlR [label="", shape = square, fillcolor="#8b7400"]
f [label="", shape = square, fillcolor="#619e00"]
WNbLfrR [label="", shape = square, fillcolor="#5ca300"]
lWbLrR [label="", shape = square, fillcolor="#708f00"]
lWkLrR [label="", shape = square, fillcolor="#6b9400"]
WLlRf [label="", shape = square, fillcolor="#59a600"]
WLlrRf [label="", shape = square, fillcolor="#53ac00"]
WNyLrlR [label="", shape = square, fillcolor="#57a800"]
WbLllR [label="", shape = square, fillcolor="#679800"]
WyLllR [label="", shape = square, fillcolor="#659a00"]
WNrLrsR [label="", shape = square, fillcolor="#718e00"]
llWLR [label="", shape = square, fillcolor="#7f8000"]
sWLR [label="", shape = square, fillcolor="#807f00"]
WgLR [label="", shape = square, fillcolor="#689700"]
lWNbLlR [label="", shape = square, fillcolor="#857a00"]
lWLlR [label="", shape = square, fillcolor="#807f00"]
WLrRl [label="", shape = square, fillcolor="#8c7300"]
WNrLrRl [label="", shape = square, fillcolor="#857a00"]
WNgLrRl [label="", shape = square, fillcolor="#7d8200"]
WNgLrR [label="", shape = square, fillcolor="#649b00"]
WNgLrlR [label="", shape = square, fillcolor="#6b9400"]
lWNbLrR [label="", shape = square, fillcolor="#7e8100"]
lWNgLrR [label="", shape = square, fillcolor="#837c00"]
WNbLrWLRR [label="", shape = square, fillcolor="#48b700"]
WNbLrRWLlR [label="", shape = square, fillcolor="#699600"]
WLrRWLR [label="", shape = square, fillcolor="#5ba400"]
WbLrRWLR [label="", shape = square, fillcolor="#748b00"]
WNbLrRl [label="", shape = square, fillcolor="#8d7200"]
WkLrRl [label="", shape = square, fillcolor="#857a00"]
WNkLrRl [label="", shape = square, fillcolor="#8f7000"]
WNyLrRl [label="", shape = square, fillcolor="#8a7500"]
WgLrRl [label="", shape = square, fillcolor="#8c7300"]
WyLrRl [label="", shape = square, fillcolor="#8a7500"]
WNbLlRWLR [label="", shape = square, fillcolor="#4db200"]
WNbLRWLR [label="", shape = square, fillcolor="#52ad00"]
WkLrRWLR [label="", shape = square, fillcolor="#6e9100"]
WkLRWLR [label="", shape = square, fillcolor="#738c00"]
WrLrrR [label="", shape = square, fillcolor="#7d8200"]
WNkLfR [label="", shape = square, fillcolor="#669900"]
start -> WLR
WLR -> WNbLR
WNbLR -> WNbLlR
WNbLR -> WNbLrR
WNbLlR -> WNbLlrR
WNbLllR -> WNbLlR
WNbLllR -> WNkLllR
WNbLllR -> WbLllR
WNbLllR -> WLR
WNbLlrR -> WbLlrR
WNbLlrR -> WNkLlrR
l -> lr
lr -> WLRlr
lr -> lrWLR
WLRlr -> WLR
WLRlr -> WNbLRlr
WLlrR -> WLR
WLlrR -> WNbLlrR
WNbLrR -> WNbLrlR
WNbLrRWLR -> WNbLrR
WNbLrRWLR -> WNbLrRWLlR
WNbLrRWLR -> WLrRWLR
WNbLrRWLR -> WbLrRWLR
WNrLR -> WNrLsR
WNrLR -> WNrLrR
WNrLR -> WNrLlR
WNrLsR -> WNrLR
WNrLsR -> WNrLrsR
WNrLrR -> WLrR
WNrLrR -> WrLrR
WLrR -> WLrlR
WkLR -> WkLlR
WkLR -> WkLrR
WkLlR -> WkLlrR
WLrlR -> WNbLrlR
WNbLrlR -> WNkLrlR
WNbLrlR -> WbLrlR
r -> rl
WbLR -> WkLR
WyLR -> WyLrR
WyLrR -> WyLrlR
WyLrR -> WyLrfR
WyLrR -> WNyLrR
WyLrlR -> WyLrR
WyLrfR -> WyLrflR
WyLrflR -> WLrflR
WLrflR -> r
rl -> rlr
rl -> r
rlr -> rl
WNkLrlR -> WNrLrlR
WNkLrlR -> WNkLrR
WNkLrlR -> WkLrlR
WNrLrlR -> WrLrlR
WrLrlR -> WLrlR
WrLrlR -> r
WrLrlR -> WrLrR
WLfR -> WLR
WLfR -> WNbLfR
WLfR -> WNkLfR
WbLlR -> WbLlrR
WbLlR -> WNbLlR
WbLlrR -> WNbLlrR
WbLlrR -> WbLR
WNbLsR -> WNbLR
WLlR -> WLlrR
WLlR -> WLR
ll -> llr
ll -> llWLR
llr -> WLR
WLllrR -> WLllR
WLllR -> WLlR
WLllR -> WNbLllR
WNgLR -> WLR
WNgLR -> WNgLlR
WNbLlRr -> WNbLlR
WLlfR -> WLlR
WNgLlR -> WNgLlrR
WNgLlrR -> WgLlrR
WNgLlrR -> WNbLlrR
WNgLlrR -> WLlrR
WgLlrR -> WNgLlrR
WbLrR -> WbLrlR
WbLrR -> WkLrR
WbLrlR -> WNbLrlR
WbLrlR -> WbLR
WNkLR -> WNkLrR
WNkLR -> WkLR
WNkLR -> WNkLlR
WNkLrR -> WNkLrRWLR
WNkLrRWLR -> WNkLrRWLlR
WNkLrRWLR -> WNkLrR
WNkLrRWLR -> WkLrRWLR
WNkLrRWLlR -> WNkLrRWLR
WNyLR -> WLR
WLsR -> WLR
WLRrl -> WLR
WLRr -> WLlRr
WLlRr -> WLlR
rlWLR -> r
rlWLR -> WLrlR
rlWLR -> rl
WNbLfR -> WNbLrfR
WNbLfR -> WNbLflR
WNbLfR -> WNbLR
WNbLrfR -> WNbLrR
WNbLflR -> WNbLrlR
WrLR -> WrLrR
WrLR -> WLR
WrLrR -> WrLrRl
WrLrR -> WNrLrR
WrLrRl -> WrLRl
WrLRl -> WrLRlr
WrLRl -> WrLR
WrLRlr -> WrLR
WrLlrR -> WgLlrR
WrLlrR -> WNrLlrR
WrLlrR -> WbLlrR
lWLR -> lWNbLR
lWLRWLR -> lWLR
lWLWLRR -> lWLR
lWNbLR -> l
lWNbLR -> lWNbLlR
lWNbLR -> lWNbLrR
WkLfR -> WkLrfR
WkLfR -> WLR
WkLrfR -> WkLfR
rWNbLR -> rWNbLfR
rWNbLR -> WNbLR
rWNbLfR -> rWNbLlR
rWNbLlR -> rWLlR
rWLlR -> rWNbLlR
rWLlR -> r
rWgLR -> rWgLlR
rWgLlR -> rWLlR
rWNkLR -> rWNkLrR
rWNkLR -> rWNkLlR
rWNkLrR -> rWNkLR
rWNkLlR -> rWNbLlR
rWNrLR -> rWNrLrR
rWNrLR -> rWLR
rWNrLrR -> rWNrLR
rWrLR -> rWrLlR
rWrLR -> l
rWrLlR -> rWbLlR
rWrLlR -> r
rWrLlR -> f
rWbLlR -> rWNbLlR
rWNrLlR -> rWNyLlR
rWNyLlR -> rWyLlR
rWyLlR -> rWLlR
s -> WLR
s -> l
s -> r
s -> sWLR
WLlRWLR -> WNkLlRWLR
WNkLlRWLR -> WNkLlR
WNkLlRWLR -> WNkLlRWNkLR
WNkLlRr -> WNkLlR
WNkLlRWNkLR -> WLR
WLrrR -> WLrR
WNkLlrR -> WNrLlrR
WNkLlrR -> WkLlrR
WNrLlrR -> WLlrR
WNrLlrR -> WrLlrR
WNrLlrR -> WNbLlrR
WLrlrlrR -> WNbLrlrlrR
WNbLrlrlrR -> WNkLrlrlrR
WNbLrlrlrR -> WNbLrlR
WNkLrlrlrR -> WNbLrlrlrR
WNkLllR -> WkLllR
WNkLllR -> WNkLlR
WNkLllR -> WNbLllR
WkLllR -> WNkLllR
WkLllR -> WLllR
WkLllR -> WLR
WkLllR -> WkLlR
WNyLrR -> WNyLsrR
WNyLsrR -> WNyLsR
WNyLsR -> WNyLsfR
WNyLsfR -> WyLsfR
WyLsfR -> WbLsfR
WbLsfR -> WLsfR
WLsfR -> WNbLsfR
WNbLsfR -> l
WNbLRlr -> WNbLR
WkLlRWLR -> WkLlRWNbLR
WkLlRWLR -> WLR
WkLlRWNbLR -> WkLlRWbLR
WkLlRWbLR -> WkLlRWkLR
WkLlRWkLR -> WkLlRWLR
WbLRrl -> WbLR
WbLrRl -> WbLRl
WbLrRl -> WkLrRl
WbLrRl -> WgLrRl
WbLRl -> WbLRlr
WbLRlr -> WbLR
WbLRlr -> WLR
lrWNbLR -> lrWbLR
lrWbLR -> lr
lrl -> WLR
lrl -> lr
lrl -> ll
lrr -> lr
rr -> rrWLR
rr -> rrWrLlR
rrWLR -> rrWNbLR
rrWNbLR -> rrWbLR
rrWbLR -> rrWgLR
rrWbLR -> WLR
rrWgLR -> rrWbLR
WbLrrR -> WNbLrrR
WbLrrR -> WrLrrR
WNbLrrR -> WNbLrR
WNbLrrR -> WbLrrR
WNrLlR -> WNrLlrR
WNrLlR -> WNrLlRr
WNrLlRr -> WrLlRr
WrLlRr -> WLR
rrWrLlR -> r
WrLlR -> r
f -> WLR
WNbLfrR -> WNbLR
lWbLrR -> lWkLrR
lWkLrR -> WLR
WLlRf -> WLlrRf
WLlrRf -> WLlrR
WNyLrlR -> WNkLrlR
WbLllR -> WyLllR
WbLllR -> WkLllR
WyLllR -> WkLllR
WNrLrsR -> WNrLrR
llWLR -> ll
llWLR -> l
sWLR -> l
WgLR -> WbLR
lWNbLlR -> lWLlR
lWLlR -> l
WLrRl -> WrLrRl
WNrLrRl -> WNgLrRl
WNrLrRl -> WrLrRl
WNgLrRl -> WNgLrR
WNgLrRl -> WNbLrRl
WNgLrR -> WNgLrlR
WNgLrR -> WNgLR
WNgLrlR -> WrLrlR
WNgLrlR -> WNgLrR
lWNbLrR -> lWNgLrR
lWNbLrR -> lWbLrR
lWNgLrR -> lWNbLrR
WNbLrWLRR -> WNbLrR
WNbLrRWLlR -> WNbLrRWLR
WLrRWLR -> WLrR
WbLrRWLR -> WbLrR
WNbLrRl -> WNrLrRl
WNbLrRl -> WNkLrRl
WNbLrRl -> WbLrRl
WkLrRl -> WkLrR
WkLrRl -> WNkLrRl
WNkLrRl -> WNbLrRl
WNkLrRl -> WNyLrRl
WNkLrRl -> r
WNyLrRl -> WNrLrRl
WgLrRl -> WrLrRl
WyLrRl -> WkLrRl
WNbLlRWLR -> WNbLRWLR
WNbLlRWLR -> WNbLlR
WNbLRWLR -> WNbLlRWLR
WkLrRWLR -> WkLRWLR
WkLrRWLR -> WkLrR
WkLRWLR -> WkLrRWLR
WrLrrR -> WrLR
WNkLfR -> WLR
}