digraph graph_name {
  graph [
    charset = "UTF-8";
    label = "sample graph",
    labelloc = "t",
    labeljust = "c",
    bgcolor = "#ffffff",
    fontcolor = white,
    fontsize = 18,
    style = "filled",
    rankdir = TB,
    margin = 0.2,
    splines = spline,
    ranksep = 1.0,
    nodesep = 0.9
  ];

  node [
    colorscheme = "rdylgn11"
    style = "solid,filled",
    fontsize = 16,
    fontcolor = 6,
    fontname = "Migu 1M",
    color = 5,
    fillcolor = 11,
    fixedsize = true,
    height = 1.0,
    width = 1.0
  ];

  edge [
    style = solid,
    fontsize = 14,
    fontcolor = black,
    fontname = "Migu 1M",
    color = black,
    labelfloat = true,
    labeldistance = 2.5,
    labelangle = 70
  ];
  start [label="", shape = square, fillcolor="#0000ff"]
R5LrRR10LlR [label="", shape = square, fillcolor="#9f600"]
WLR [label="", shape = square, fillcolor="#0ff00"]
WNbLR [label="", shape = square, fillcolor="#0ff00"]
WNbLILROLRR [label="", shape = square, fillcolor="#0ff00"]
WNbLIx_EQ_1LROLRR [label="", shape = square, fillcolor="#0ff00"]
WNbLIx_EQ_1LR5LrRROLRR [label="", shape = square, fillcolor="#0ff00"]
WNbLIx_EQ_1LR5LrRROLR5LlRRR [label="", shape = square, fillcolor="#ff00ff"]
R2LR [label="", shape = square, fillcolor="#ae5100"]
R4LR [label="", shape = square, fillcolor="#b54a00"]
R4LrR [label="", shape = square, fillcolor="#b14e00"]
R5LrR [label="", shape = square, fillcolor="#ad5200"]
R5LR [label="", shape = square, fillcolor="#8e7100"]
R5LILROLRR [label="", shape = square, fillcolor="#a65900"]
R5LILR2LRROLRR [label="", shape = square, fillcolor="#a25d00"]
ILR2LRROLRR5LR [label="", shape = square, fillcolor="#30cf00"]
ILR2LRROLR [label="", shape = square, fillcolor="#2ad500"]
ILROLR [label="", shape = square, fillcolor="#25da00"]
ILROLR2LRR [label="", shape = square, fillcolor="#19e600"]
ILR5LRROLR2LRR [label="", shape = square, fillcolor="#14eb00"]
WLRILR5LRROLR2LRR [label="", shape = square, fillcolor="#ef100"]
WLILR5LRROLR2LRRR [label="", shape = square, fillcolor="#0ff00"]
WLILR5LrRROLR2LRRR [label="", shape = square, fillcolor="#0ff00"]
WLILR5LrRROLR2LlRRR [label="", shape = square, fillcolor="#0ff00"]
WLILR5LrRROLR5LlRRR [label="", shape = square, fillcolor="#0ff00"]
WNbLILR5LrRROLR5LlRRR [label="", shape = square, fillcolor="#0ff00"]
WkLILILsROLrRRR [label="", shape = square, fillcolor="#857a00"]
WLILILsROLrRRR [label="", shape = square, fillcolor="#817e00"]
r [label="", shape = square, fillcolor="#b74800"]
R2LRr [label="", shape = square, fillcolor="#b34c00"]
R2LrR [label="", shape = square, fillcolor="#b54a00"]
R9LrR [label="", shape = square, fillcolor="#b14e00"]
R5LrlR [label="", shape = square, fillcolor="#b14e00"]
R5LrRl [label="", shape = square, fillcolor="#d52a00"]
R5LrRR2LRl [label="", shape = square, fillcolor="#d12e00"]
R5LrRR2LR [label="", shape = square, fillcolor="#ce3100"]
R5LrRR2LlR [label="", shape = square, fillcolor="#ca3500"]
R5LrRR5LlR [label="", shape = square, fillcolor="#c63900"]
R2LRR5LrRR5LlR [label="", shape = square, fillcolor="#c23d00"]
R2LR5LrRR5LlRR [label="", shape = square, fillcolor="#857a00"]
R8LR5LrRR5LlRR [label="", shape = square, fillcolor="#817e00"]
WNbLWLRR [label="", shape = square, fillcolor="#0ff00"]
WNbLILRR [label="", shape = square, fillcolor="#36c900"]
WNbLIx_EQ_1LRR [label="", shape = square, fillcolor="#30cf00"]
WNbLIx_EQ_1LWLRRR [label="", shape = square, fillcolor="#2bd400"]
WNbLIx_EQ_1LWx_EQ_1LRRR [label="", shape = square, fillcolor="#25da00"]
WNbLIx_EQ_1LWx_LT_1LRRR [label="", shape = square, fillcolor="#20df00"]
WNbLIx_EQ_1LWx_LT__EQ_1LRRR [label="", shape = square, fillcolor="#1ae500"]
WNbLIx_EQ_1LWx_LT__EQ_5LRRR [label="", shape = square, fillcolor="#15ea00"]
WNbLIx_EQ_1LWx_LT__EQ_5LrRRR [label="", shape = square, fillcolor="#ff000"]
WNbLILWx_LT__EQ_5LrRROLRR [label="", shape = square, fillcolor="#0ff00"]
WNbLILWx_LT__EQ_5LrRROLWLRRR [label="", shape = square, fillcolor="#0ff00"]
WNbLILWx_LT__EQ_5LrRROLWx_EQ_1LRRR [label="", shape = square, fillcolor="#0ff00"]
WNbLILWx_LT__EQ_5LrRROLWx_GT__EQ_1LRRR [label="", shape = square, fillcolor="#0ff00"]
WNbLILWx_LT__EQ_5LrRROLWx_GT__EQ_2LRRR [label="", shape = square, fillcolor="#0ff00"]
WNbLILWx_LT__EQ_5LrRROLWx_GT__EQ_2LlRRR [label="", shape = square, fillcolor="#0ff00"]
WNbLIx_EQ_1LWx_LT__EQ_5LrRROLWx_GT__EQ_2LlRRR [label="", shape = square, fillcolor="#ff00ff"]
Ix_EQ_1LROLR [label="", shape = square, fillcolor="#25da00"]
Ix_EQ_1LWLRROLR [label="", shape = square, fillcolor="#20df00"]
Ix_EQ_1LWx_EQ_1LRROLR [label="", shape = square, fillcolor="#1ae500"]
Ix_EQ_1LWx_EQ_5LRROLR [label="", shape = square, fillcolor="#14eb00"]
Ix_EQ_1LWxN_EQ_5LRROLR [label="", shape = square, fillcolor="#ff000"]
WLRIx_EQ_1LWxN_EQ_5LRROLR [label="", shape = square, fillcolor="#9f600"]
WLIx_EQ_1LWxN_EQ_5LRROLRR [label="", shape = square, fillcolor="#0ff00"]
WNbLIx_EQ_1LWxN_EQ_5LRROLRR [label="", shape = square, fillcolor="#0ff00"]
WNbLIx_EQ_1LWxN_EQ_5LrRROLRR [label="", shape = square, fillcolor="#0ff00"]
WNbLIx_EQ_1LWxN_EQ_5LrRROLILRRR [label="", shape = square, fillcolor="#0ff00"]
WNbLIx_EQ_1LWxN_EQ_5LrRROLIx_EQ_1LRRR [label="", shape = square, fillcolor="#3fc00"]
WNbLIx_EQ_1LWxN_EQ_5LrRROLIxN_EQ_1LRRR [label="", shape = square, fillcolor="#0ff00"]
WNbLIx_EQ_1LWxN_EQ_5LrRROLWLRRR [label="", shape = square, fillcolor="#0ff00"]
WNbLIx_EQ_1LWxN_EQ_5LrRROLWxN_EQ_1LRRR [label="", shape = square, fillcolor="#0ff00"]
WNbLIx_EQ_1LWxN_EQ_5LrRROLWxN_EQ_1LlRRR [label="", shape = square, fillcolor="#0ff00"]
WNbLIx_EQ_1LWx_LT__EQ_5LrRROLWxN_EQ_1LlRRR [label="", shape = square, fillcolor="#ff00ff"]
R5LrRR10LlR -> WLR
WLR -> WNbLR
WLR -> WLILR5LRROLR2LRRR
WLR -> WLIx_EQ_1LWxN_EQ_5LRROLRR
WNbLR -> WNbLILROLRR
WNbLR -> WNbLWLRR
WNbLR -> WNbLILRR
WNbLILROLRR -> WNbLIx_EQ_1LROLRR
WNbLILROLRR -> WNbLILWx_LT__EQ_5LrRROLRR
WNbLIx_EQ_1LROLRR -> WNbLIx_EQ_1LR5LrRROLRR
WNbLIx_EQ_1LR5LrRROLRR -> WNbLIx_EQ_1LR5LrRROLR5LlRRR
R2LR -> R4LR
R2LR -> R2LrR
R2LR -> R2LR5LrRR5LlRR
R4LR -> R4LrR
R4LrR -> R5LrR
R5LrR -> R5LR
R5LrR -> R5LrlR
R5LrR -> R5LrRl
R5LR -> R5LrR
R5LR -> R5LILROLRR
R5LR -> ILR2LRROLRR5LR
R5LILROLRR -> R5LILR2LRROLRR
R5LILR2LRROLRR -> R5LR
ILR2LRROLRR5LR -> ILR2LRROLR
ILR2LRROLR -> ILROLR
ILROLR -> ILROLR2LRR
ILROLR -> Ix_EQ_1LROLR
ILROLR2LRR -> ILR5LRROLR2LRR
ILR5LRROLR2LRR -> WLRILR5LRROLR2LRR
WLRILR5LRROLR2LRR -> WLR
WLILR5LRROLR2LRRR -> WLILR5LrRROLR2LRRR
WLILR5LrRROLR2LRRR -> WLILR5LrRROLR2LlRRR
WLILR5LrRROLR2LlRRR -> WLILR5LrRROLR5LlRRR
WLILR5LrRROLR5LlRRR -> WNbLILR5LrRROLR5LlRRR
WNbLILR5LrRROLR5LlRRR -> WNbLIx_EQ_1LR5LrRROLR5LlRRR
WkLILILsROLrRRR -> WLILILsROLrRRR
r -> R2LRr
R2LRr -> R2LR
R2LrR -> R9LrR
R9LrR -> R5LrR
R5LrlR -> R5LrR
R5LrRl -> R5LrRR2LRl
R5LrRR2LRl -> R5LrRR2LR
R5LrRR2LR -> R5LrRR2LlR
R5LrRR2LlR -> R5LrRR5LlR
R5LrRR5LlR -> R2LRR5LrRR5LlR
R2LRR5LrRR5LlR -> R2LR
R2LR5LrRR5LlRR -> R8LR5LrRR5LlRR
WNbLWLRR -> WNbLR
WNbLILRR -> WNbLIx_EQ_1LRR
WNbLIx_EQ_1LRR -> WNbLIx_EQ_1LWLRRR
WNbLIx_EQ_1LWLRRR -> WNbLIx_EQ_1LWx_EQ_1LRRR
WNbLIx_EQ_1LWx_EQ_1LRRR -> WNbLIx_EQ_1LWx_LT_1LRRR
WNbLIx_EQ_1LWx_LT_1LRRR -> WNbLIx_EQ_1LWx_LT__EQ_1LRRR
WNbLIx_EQ_1LWx_LT__EQ_1LRRR -> WNbLIx_EQ_1LWx_LT__EQ_5LRRR
WNbLIx_EQ_1LWx_LT__EQ_5LRRR -> WNbLIx_EQ_1LWx_LT__EQ_5LrRRR
WNbLIx_EQ_1LWx_LT__EQ_5LrRRR -> WNbLR
WNbLILWx_LT__EQ_5LrRROLRR -> WNbLILWx_LT__EQ_5LrRROLWLRRR
WNbLILWx_LT__EQ_5LrRROLWLRRR -> WNbLILWx_LT__EQ_5LrRROLWx_EQ_1LRRR
WNbLILWx_LT__EQ_5LrRROLWx_EQ_1LRRR -> WNbLILWx_LT__EQ_5LrRROLWx_GT__EQ_1LRRR
WNbLILWx_LT__EQ_5LrRROLWx_GT__EQ_1LRRR -> WNbLILWx_LT__EQ_5LrRROLWx_GT__EQ_2LRRR
WNbLILWx_LT__EQ_5LrRROLWx_GT__EQ_2LRRR -> WNbLILWx_LT__EQ_5LrRROLWx_GT__EQ_2LlRRR
WNbLILWx_LT__EQ_5LrRROLWx_GT__EQ_2LlRRR -> WNbLIx_EQ_1LWx_LT__EQ_5LrRROLWx_GT__EQ_2LlRRR
Ix_EQ_1LROLR -> Ix_EQ_1LWLRROLR
Ix_EQ_1LWLRROLR -> Ix_EQ_1LWx_EQ_1LRROLR
Ix_EQ_1LWx_EQ_1LRROLR -> Ix_EQ_1LWx_EQ_5LRROLR
Ix_EQ_1LWx_EQ_5LRROLR -> Ix_EQ_1LWxN_EQ_5LRROLR
Ix_EQ_1LWxN_EQ_5LRROLR -> WLRIx_EQ_1LWxN_EQ_5LRROLR
WLRIx_EQ_1LWxN_EQ_5LRROLR -> WLR
WLIx_EQ_1LWxN_EQ_5LRROLRR -> WNbLIx_EQ_1LWxN_EQ_5LRROLRR
WNbLIx_EQ_1LWxN_EQ_5LRROLRR -> WNbLIx_EQ_1LWxN_EQ_5LrRROLRR
WNbLIx_EQ_1LWxN_EQ_5LrRROLRR -> WNbLIx_EQ_1LWxN_EQ_5LrRROLILRRR
WNbLIx_EQ_1LWxN_EQ_5LrRROLRR -> WNbLIx_EQ_1LWxN_EQ_5LrRROLWLRRR
WNbLIx_EQ_1LWxN_EQ_5LrRROLILRRR -> WNbLIx_EQ_1LWxN_EQ_5LrRROLIx_EQ_1LRRR
WNbLIx_EQ_1LWxN_EQ_5LrRROLILRRR -> WNbLIx_EQ_1LWxN_EQ_5LrRROLRR
WNbLIx_EQ_1LWxN_EQ_5LrRROLIx_EQ_1LRRR -> WNbLIx_EQ_1LWxN_EQ_5LrRROLIxN_EQ_1LRRR
WNbLIx_EQ_1LWxN_EQ_5LrRROLIxN_EQ_1LRRR -> WNbLIx_EQ_1LWxN_EQ_5LrRROLILRRR
WNbLIx_EQ_1LWxN_EQ_5LrRROLWLRRR -> WNbLIx_EQ_1LWxN_EQ_5LrRROLWxN_EQ_1LRRR
WNbLIx_EQ_1LWxN_EQ_5LrRROLWxN_EQ_1LRRR -> WNbLIx_EQ_1LWxN_EQ_5LrRROLWxN_EQ_1LlRRR
WNbLIx_EQ_1LWxN_EQ_5LrRROLWxN_EQ_1LlRRR -> WNbLIx_EQ_1LWx_LT__EQ_5LrRROLWxN_EQ_1LlRRR
}