digraph graph_name {
  graph [
    charset = "UTF-8";
    label = "sample graph",
    labelloc = "t",
    labeljust = "c",
    bgcolor = "#ffffff",
    fontcolor = white,
    fontsize = 18,
    style = "filled",
    rankdir = TB,
    margin = 0.2,
    splines = spline,
    ranksep = 1.0,
    nodesep = 0.9
  ];

  node [
    colorscheme = "rdylgn11"
    style = "solid,filled",
    fontsize = 16,
    fontcolor = 6,
    fontname = "Migu 1M",
    color = 5,
    fillcolor = 11,
    fixedsize = true,
    height = 1.0,
    width = 1.0
  ];

  edge [
    style = solid,
    fontsize = 14,
    fontcolor = black,
    fontname = "Migu 1M",
    color = black,
    labelfloat = true,
    labeldistance = 2.5,
    labelangle = 70
  ];
  start [label="", shape = square, fillcolor="#0000ff"]
WLR [label="", shape = square, fillcolor="#5ca300"]
WLfR [label="", shape = square, fillcolor="#4db200"]
WNbLfR [label="", shape = square, fillcolor="#ff00ff"]
WNbLR [label="", shape = square, fillcolor="#50af00"]
WkLR [label="", shape = square, fillcolor="#48b700"]
WkLfR [label="", shape = square, fillcolor="#ff00ff"]
r [label="", shape = square, fillcolor="#e31c00"]
rr [label="", shape = square, fillcolor="#cb3400"]
rf [label="", shape = square, fillcolor="#db2400"]
rWLR [label="", shape = square, fillcolor="#e71800"]
f [label="", shape = square, fillcolor="#768900"]
fs [label="", shape = square, fillcolor="#837c00"]
ff [label="", shape = square, fillcolor="#7f8000"]
fsf [label="", shape = square, fillcolor="#887700"]
ffs [label="", shape = square, fillcolor="#847b00"]
fsff [label="", shape = square, fillcolor="#8d7200"]
fWLR [label="", shape = square, fillcolor="#619e00"]
WLRf [label="", shape = square, fillcolor="#ad5200"]
s [label="", shape = square, fillcolor="#f7800"]
ss [label="", shape = square, fillcolor="#fb400"]
sf [label="", shape = square, fillcolor="#669900"]
WbLR [label="", shape = square, fillcolor="#5fa000"]
WbLfR [label="", shape = square, fillcolor="#4bb400"]
fffffffffffffffff [label="", shape = square, fillcolor="#c83700"]
fff [label="", shape = square, fillcolor="#807f00"]
WLfffffffffffffffffR [label="", shape = square, fillcolor="#a25d00"]
WgLfR [label="", shape = square, fillcolor="#629d00"]
WLrR [label="", shape = square, fillcolor="#669900"]
WNbLrR [label="", shape = square, fillcolor="#5ea100"]
rl [label="", shape = square, fillcolor="#de2100"]
rlr [label="", shape = square, fillcolor="#e91600"]
rlrl [label="", shape = square, fillcolor="#ed1200"]
l [label="", shape = square, fillcolor="#ff000"]
lr [label="", shape = square, fillcolor="#ff000"]
lrl [label="", shape = square, fillcolor="#ff000"]
lrlr [label="", shape = square, fillcolor="#ff000"]
lrlrl [label="", shape = square, fillcolor="#ff000"]
lrlrlr [label="", shape = square, fillcolor="#ff000"]
sl [label="", shape = square, fillcolor="#ff000"]
slrl [label="", shape = square, fillcolor="#ff000"]
slrlrl [label="", shape = square, fillcolor="#ff000"]
slrlr [label="", shape = square, fillcolor="#ff000"]
sr [label="", shape = square, fillcolor="#ff000"]
srl [label="", shape = square, fillcolor="#ff000"]
srlr [label="", shape = square, fillcolor="#ff000"]
srlrl [label="", shape = square, fillcolor="#ff000"]
WLlR [label="", shape = square, fillcolor="#d12e00"]
WLlsR [label="", shape = square, fillcolor="#d52a00"]
sWLlR [label="", shape = square, fillcolor="#ff000"]
sWLlrR [label="", shape = square, fillcolor="#ff000"]
sWLlrlR [label="", shape = square, fillcolor="#ff000"]
sWLlrlrR [label="", shape = square, fillcolor="#ff000"]
WLlrlrR [label="", shape = square, fillcolor="#ff000"]
lrrl [label="", shape = square, fillcolor="#ff000"]
lrf [label="", shape = square, fillcolor="#ff000"]
lrll [label="", shape = square, fillcolor="#ff000"]
lrr [label="", shape = square, fillcolor="#ff000"]
rrl [label="", shape = square, fillcolor="#e21d00"]
WNbLrlR [label="", shape = square, fillcolor="#639c00"]
WNkLR [label="", shape = square, fillcolor="#5ba400"]
WNkLfR [label="", shape = square, fillcolor="#55aa00"]
WNbLsR [label="", shape = square, fillcolor="#ff00ff"]
WgLR [label="", shape = square, fillcolor="#679800"]
WNgLR [label="", shape = square, fillcolor="#4db200"]
WNgLfR [label="", shape = square, fillcolor="#48b700"]
WrLR [label="", shape = square, fillcolor="#d92600"]
WrLlR [label="", shape = square, fillcolor="#d52a00"]
WNrLR [label="", shape = square, fillcolor="#4db200"]
WNrLfR [label="", shape = square, fillcolor="#48b700"]
WNbLRf [label="", shape = square, fillcolor="#55aa00"]
start -> WLR
WLR -> WLfR
WLR -> WNbLR
WLfR -> WNbLfR
WNbLfR -> WNbLR
WNbLfR -> WbLfR
WNbLR -> WNbLfR
WkLR -> WkLfR
r -> rr
r -> rl
rr -> r
rr -> rf
rr -> f
rr -> rrl
rf -> r
rf -> rr
rWLR -> r
f -> WLR
fs -> ff
fs -> ffs
fs -> f
ff -> fsf
ff -> f
ff -> WLR
fsf -> f
fsf -> fs
fsf -> fsff
ffs -> ff
fsff -> fs
fWLR -> WLR
WLRf -> s
WLRf -> WNbLRf
ss -> s
sf -> WLR
WbLR -> WbLfR
WbLR -> WkLR
WbLfR -> WNbLfR
fffffffffffffffff -> fff
fff -> f
WLfffffffffffffffffR -> WbLfR
WgLfR -> WkLfR
WgLfR -> f
WLrR -> WLR
rl -> r
rlr -> rlrl
rlr -> rl
rlrl -> rlr
l -> lr
lr -> l
lrl -> lr
lrlr -> lrlrl
lrlrl -> lrlrlr
lrlrlr -> lrl
sl -> slrl
sl -> s
slrl -> slrlrl
slrl -> sl
slrlrl -> slrlr
slrlr -> slrl
sr -> s
sr -> srl
srl -> srlr
srl -> sr
srlr -> srlrl
srlr -> srl
srlrl -> srlr
WLlR -> WLlsR
WLlR -> sWLlR
WLlR -> WLR
WLlR -> r
WLlsR -> WLlR
sWLlR -> sWLlrR
sWLlrR -> sWLlrlR
sWLlrlR -> sWLlrlrR
sWLlrlrR -> s
WLlrlrR -> l
lrrl -> s
lrf -> l
lrll -> lrl
lrr -> lr
rrl -> rl
WNbLrlR -> WNbLrR
WNkLR -> WNkLfR
WNkLfR -> WkLfR
WNkLfR -> WNkLR
WNkLfR -> WLR
WgLR -> WgLfR
WNgLR -> WNgLfR
WNgLfR -> WNbLfR
WrLR -> WrLlR
WrLlR -> WLlR
WNrLR -> WNrLfR
WNrLfR -> WNbLfR
WNbLRf -> WNbLR
}