digraph graph_name {
  graph [
    charset = "UTF-8";
    label = "sample graph",
    labelloc = "t",
    labeljust = "c",
    bgcolor = "#ffffff",
    fontcolor = white,
    fontsize = 18,
    style = "filled",
    rankdir = TB,
    margin = 0.2,
    splines = spline,
    ranksep = 1.0,
    nodesep = 0.9
  ];

  node [
    colorscheme = "rdylgn11"
    style = "solid,filled",
    fontsize = 16,
    fontcolor = 6,
    fontname = "Migu 1M",
    color = 5,
    fillcolor = 11,
    fixedsize = true,
    height = 1.0,
    width = 1.0
  ];

  edge [
    style = solid,
    fontsize = 14,
    fontcolor = black,
    fontname = "Migu 1M",
    color = black,
    labelfloat = true,
    labeldistance = 2.5,
    labelangle = 70
  ];
  start [label="", shape = square, fillcolor="#0000ff"]
ILR [label="", shape = square, fillcolor="#788700"]
ILfR [label="", shape = square, fillcolor="#956a00"]
ILfRWLR [label="", shape = square, fillcolor="#a95600"]
ILfRWLRR2LR [label="", shape = square, fillcolor="#a65900"]
ILfRWLsRR2LR [label="", shape = square, fillcolor="#a25d00"]
WLsRR2LR [label="", shape = square, fillcolor="#33cc00"]
WLsRR2LsR [label="", shape = square, fillcolor="#2fd000"]
WLsRR10LsR [label="", shape = square, fillcolor="#2ad500"]
WLsR [label="", shape = square, fillcolor="#21de00"]
R10LsR [label="", shape = square, fillcolor="#17e800"]
R10LsRf [label="", shape = square, fillcolor="#13ec00"]
WLR [label="", shape = square, fillcolor="#34cb00"]
WLfR [label="", shape = square, fillcolor="#26d900"]
WNbLfR [label="", shape = square, fillcolor="#0ff00"]
WNbLfILRR [label="", shape = square, fillcolor="#0ff00"]
WNbLfINbLRR [label="", shape = square, fillcolor="#0ff00"]
WNbLfIbLRR [label="", shape = square, fillcolor="#0ff00"]
WNbLfIyLRR [label="", shape = square, fillcolor="#0ff00"]
WNbLfIyLrRR [label="", shape = square, fillcolor="#0ff00"]
WNbLfIyLrRlR [label="", shape = square, fillcolor="#0ff00"]
WNbLfIyLrlRR [label="", shape = square, fillcolor="#ff00ff"]
f [label="", shape = square, fillcolor="#5da200"]
fILR [label="", shape = square, fillcolor="#699600"]
fIyLR [label="", shape = square, fillcolor="#5ea100"]
fIyLrR [label="", shape = square, fillcolor="#5aa500"]
fIyLrRl [label="", shape = square, fillcolor="#48b700"]
fIyLrRlf [label="", shape = square, fillcolor="#13ec00"]
fINbLR [label="", shape = square, fillcolor="#679800"]
fIbLR [label="", shape = square, fillcolor="#629d00"]
fIyLrRR2LR [label="", shape = square, fillcolor="#649b00"]
fIyLrRR2LlR [label="", shape = square, fillcolor="#669900"]
fIyLrRlr [label="", shape = square, fillcolor="#758a00"]
fR2LR [label="", shape = square, fillcolor="#619e00"]
fR2LlR [label="", shape = square, fillcolor="#20df00"]
fR2LlRWLR [label="", shape = square, fillcolor="#1ce300"]
fR2LlRWLrR [label="", shape = square, fillcolor="#17e800"]
fR2LlRWNbLrR [label="", shape = square, fillcolor="#13ec00"]
R2LR [label="", shape = square, fillcolor="#3ec100"]
R2LfR [label="", shape = square, fillcolor="#897600"]
R3LfR [label="", shape = square, fillcolor="#b34c00"]
R3LfRr [label="", shape = square, fillcolor="#be4100"]
R3LfRrl [label="", shape = square, fillcolor="#bb4400"]
R3LfrlR [label="", shape = square, fillcolor="#9d6200"]
R3LR [label="", shape = square, fillcolor="#be4100"]
R2LfrlR [label="", shape = square, fillcolor="#6b9400"]
fR2LrR [label="", shape = square, fillcolor="#9a6500"]
fR2LrlR [label="", shape = square, fillcolor="#966900"]
fWLRR2LrlR [label="", shape = square, fillcolor="#936c00"]
fWLR [label="", shape = square, fillcolor="#857a00"]
fWLR2LrlRR [label="", shape = square, fillcolor="#788700"]
fWNbLR2LrlRR [label="", shape = square, fillcolor="#748b00"]
fWNyLR2LrlRR [label="", shape = square, fillcolor="#708f00"]
WNyLR2LrlRRf [label="", shape = square, fillcolor="#1ce300"]
WNyLR2LrlRR [label="", shape = square, fillcolor="#17e800"]
rWNyLR2LrlRR [label="", shape = square, fillcolor="#13ec00"]
WNbLR [label="", shape = square, fillcolor="#17e800"]
R2LfrR [label="", shape = square, fillcolor="#9f6000"]
R2LfrfR [label="", shape = square, fillcolor="#9b6400"]
R2LfrflR [label="", shape = square, fillcolor="#986700"]
R3LfrflR [label="", shape = square, fillcolor="#956a00"]
INbLR [label="", shape = square, fillcolor="#847b00"]
INyLR [label="", shape = square, fillcolor="#7b8400"]
INyLlR [label="", shape = square, fillcolor="#7f8000"]
INyLrR [label="", shape = square, fillcolor="#6b9400"]
INyLrRILR [label="", shape = square, fillcolor="#7b8400"]
INyLrRINbLR [label="", shape = square, fillcolor="#788700"]
INyLrRINkLR [label="", shape = square, fillcolor="#748b00"]
INyLrRl [label="", shape = square, fillcolor="#6f9000"]
INyLrlR [label="", shape = square, fillcolor="#5ba400"]
fINyLrlR [label="", shape = square, fillcolor="#42bd00"]
WNbLfRINyLrlR [label="", shape = square, fillcolor="#ef100"]
WNbLINyLrlRfR [label="", shape = square, fillcolor="#0ff00"]
WNbLIyLrlRfR [label="", shape = square, fillcolor="#0ff00"]
WbLIyLrlRfR [label="", shape = square, fillcolor="#0ff00"]
WNbLIyLrRfR [label="", shape = square, fillcolor="#0ff00"]
WNbLIyLrRflR [label="", shape = square, fillcolor="#0ff00"]
WNbLIyLrRlfR [label="", shape = square, fillcolor="#0ff00"]
WNbLIyLrRR [label="", shape = square, fillcolor="#0ff00"]
WNbLIyLrRRfl [label="", shape = square, fillcolor="#0ff00"]
R2LfIyLrlRR [label="", shape = square, fillcolor="#0ff00"]
R4LfIyLrlRR [label="", shape = square, fillcolor="#0ff00"]
R5LfIyLrlRR [label="", shape = square, fillcolor="#ff00ff"]
WkLfIyLrRIkLlRR [label="", shape = square, fillcolor="#ce3100"]
WkLfIyLrRR [label="", shape = square, fillcolor="#c13e00"]
WkLfR [label="", shape = square, fillcolor="#ad5200"]
WkLfIyLrRRl [label="", shape = square, fillcolor="#c43b00"]
WkLfIyLrRlR [label="", shape = square, fillcolor="#bf4000"]
R2LflrR [label="", shape = square, fillcolor="#da2500"]
R2LflrRIkLffR [label="", shape = square, fillcolor="#c83700"]
R2LR2LfRlR [label="", shape = square, fillcolor="#ac5300"]
R2LR2LfRlRIyLrR [label="", shape = square, fillcolor="#b94600"]
IyLrR [label="", shape = square, fillcolor="#798600"]
IyLrRWkLfR [label="", shape = square, fillcolor="#827d00"]
IyLrRIkLR2LRR [label="", shape = square, fillcolor="#877800"]
IyLrRIkLR2LlfffRR [label="", shape = square, fillcolor="#9b6400"]
IyLrRIgLlR [label="", shape = square, fillcolor="#1ce300"]
WkLfIyLrRIgLlRR [label="", shape = square, fillcolor="#13ec00"]
WNyLR [label="", shape = square, fillcolor="#699600"]
WNyLfR [label="", shape = square, fillcolor="#619e00"]
WNyLflR [label="", shape = square, fillcolor="#3bc400"]
WNyLfrR [label="", shape = square, fillcolor="#37c800"]
WyLfrR [label="", shape = square, fillcolor="#32cd00"]
WyLfrRILR [label="", shape = square, fillcolor="#29d600"]
WyLfrRINbLR [label="", shape = square, fillcolor="#24db00"]
WyLfrRIbLR [label="", shape = square, fillcolor="#29d600"]
WyLfrRINyLR [label="", shape = square, fillcolor="#17e800"]
WyLfrRINyLlR [label="", shape = square, fillcolor="#13ec00"]
IbLR [label="", shape = square, fillcolor="#887700"]
IyLR [label="", shape = square, fillcolor="#847b00"]
WNyLsR [label="", shape = square, fillcolor="#5da200"]
WNyLsRr [label="", shape = square, fillcolor="#59a600"]
WNyLsRrl [label="", shape = square, fillcolor="#55aa00"]
R2LRWNyLsRrl [label="", shape = square, fillcolor="#51ae00"]
R2LWNyLsRrlR [label="", shape = square, fillcolor="#0ff00"]
R3LWNyLsRrlR [label="", shape = square, fillcolor="#ff00ff"]
WNbLILRR [label="", shape = square, fillcolor="#0ff00"]
WNbLINbLRR [label="", shape = square, fillcolor="#0ff00"]
WNbLIbLRR [label="", shape = square, fillcolor="#0ff00"]
WNbLIyLRR [label="", shape = square, fillcolor="#0ff00"]
WNbLIyLrlRR [label="", shape = square, fillcolor="#0ff00"]
fIyLrlR [label="", shape = square, fillcolor="#35ca00"]
WLRfIyLrlR [label="", shape = square, fillcolor="#26d900"]
WLRf [label="", shape = square, fillcolor="#12ed00"]
WLIyLrlRRf [label="", shape = square, fillcolor="#0ff00"]
WNbLIyLrlRRf [label="", shape = square, fillcolor="#0ff00"]
IyLfR [label="", shape = square, fillcolor="#b24d00"]
IyLfRr [label="", shape = square, fillcolor="#bd4200"]
IyLfRrf [label="", shape = square, fillcolor="#ba4500"]
IyLfRR2LR [label="", shape = square, fillcolor="#a15e00"]
IyLfRR2LrfR [label="", shape = square, fillcolor="#996600"]
INyLfRR2LrfR [label="", shape = square, fillcolor="#956a00"]
INyLfR [label="", shape = square, fillcolor="#887700"]
INyLfRrf [label="", shape = square, fillcolor="#906f00"]
INyLfRILR [label="", shape = square, fillcolor="#a45b00"]
INyLfRILrfR [label="", shape = square, fillcolor="#9c6300"]
INyLfRINbLrfR [label="", shape = square, fillcolor="#996600"]
INyLfRINbLR [label="", shape = square, fillcolor="#906f00"]
INyLfRWLR [label="", shape = square, fillcolor="#689700"]
INyLfRWLrfR [label="", shape = square, fillcolor="#5fa000"]
INyLfRWNbLrfR [label="", shape = square, fillcolor="#5ca300"]
R2LINyLfRWbLrfRR [label="", shape = square, fillcolor="#2ad500"]
R3LINyLfRWbLrfRR [label="", shape = square, fillcolor="#25da00"]
R3LINyLfRWbLRR [label="", shape = square, fillcolor="#1ce300"]
R3LINyLfRWbLrRR [label="", shape = square, fillcolor="#17e800"]
R3LINyLfRWyLrRR [label="", shape = square, fillcolor="#13ec00"]
WNyLfRIyLrlR [label="", shape = square, fillcolor="#4cb300"]
R2LWNyLfRIyLrlRR [label="", shape = square, fillcolor="#3ac500"]
R3LWNyLfRIyLrlRR [label="", shape = square, fillcolor="#35ca00"]
R3LWyLfRIyLrlRR [label="", shape = square, fillcolor="#31ce00"]
R3LWbLfRIyLrlRR [label="", shape = square, fillcolor="#2dd200"]
WbLfRIyLrlR [label="", shape = square, fillcolor="#28d700"]
WNbLfRIyLrlR [label="", shape = square, fillcolor="#24db00"]
R2LIyLrRflR [label="", shape = square, fillcolor="#8d7200"]
R2LIyLrRR [label="", shape = square, fillcolor="#847b00"]
R2LfIyLrRR [label="", shape = square, fillcolor="#659a00"]
R2LfIyLrRlR [label="", shape = square, fillcolor="#827d00"]
R2LWNyLfRIyLrRlR [label="", shape = square, fillcolor="#619e00"]
R2LWNyLfRIyLrRR [label="", shape = square, fillcolor="#5da200"]
R2LWNyLflRIyLrRR [label="", shape = square, fillcolor="#619e00"]
R2LWNyLfRR [label="", shape = square, fillcolor="#47b800"]
WNyLfRIyLrR [label="", shape = square, fillcolor="#699600"]
WNyLfRIyLrRl [label="", shape = square, fillcolor="#6f9000"]
WNyLfRIyLRl [label="", shape = square, fillcolor="#6f9000"]
WNyLfRrl [label="", shape = square, fillcolor="#0ff00"]
R2LWNyLfRrlR [label="", shape = square, fillcolor="#0ff00"]
R3LWNyLfRrlR [label="", shape = square, fillcolor="#ff00ff"]
WNbLrR [label="", shape = square, fillcolor="#38c700"]
WNbLrlR [label="", shape = square, fillcolor="#33cc00"]
WNbLrlRILR [label="", shape = square, fillcolor="#2ad500"]
WNbLRILR [label="", shape = square, fillcolor="#20df00"]
WNbLRILrlR [label="", shape = square, fillcolor="#17e800"]
WNbLfRILrlR [label="", shape = square, fillcolor="#12ed00"]
WNbLfINyLrlRR [label="", shape = square, fillcolor="#30cf00"]
WNbLINyLrlRR [label="", shape = square, fillcolor="#13ec00"]
WNbLfRILR [label="", shape = square, fillcolor="#3ac500"]
WNbLfRINbLR [label="", shape = square, fillcolor="#35ca00"]
WNbLfRIbLR [label="", shape = square, fillcolor="#31ce00"]
WNbLfRIyLR [label="", shape = square, fillcolor="#2dd200"]
WNbLfRIyLrR [label="", shape = square, fillcolor="#28d700"]
R2LRIyLrR [label="", shape = square, fillcolor="#659a00"]
R2LIyLrRlR [label="", shape = square, fillcolor="#906f00"]
R2LIyLrRlfR [label="", shape = square, fillcolor="#8d7200"]
R2LIyLrlfRR [label="", shape = square, fillcolor="#887700"]
R2LIyLrfRR [label="", shape = square, fillcolor="#857a00"]
R2LIyLRR [label="", shape = square, fillcolor="#7d8200"]
R2LIyLfRR [label="", shape = square, fillcolor="#807f00"]
R2LfIyLRR [label="", shape = square, fillcolor="#699600"]
R10LfIyLrlRR [label="", shape = square, fillcolor="#0ff00"]
R6LfIyLrlRR [label="", shape = square, fillcolor="#0ff00"]
IrLR [label="", shape = square, fillcolor="#49b600"]
WNrLR [label="", shape = square, fillcolor="#6d9200"]
WNyLRIyLR [label="", shape = square, fillcolor="#659a00"]
WNyLfRIyLR [label="", shape = square, fillcolor="#619e00"]
WNyLfRIyLrRWLR [label="", shape = square, fillcolor="#6c9300"]
WNyLIyLrRfR [label="", shape = square, fillcolor="#7c8300"]
WNyLfIyLrRR [label="", shape = square, fillcolor="#768900"]
WNyLfIyLrRlR [label="", shape = square, fillcolor="#798600"]
INrLR [label="", shape = square, fillcolor="#6e9100"]
INrLfR [label="", shape = square, fillcolor="#8b7400"]
INyLfrR [label="", shape = square, fillcolor="#5ea100"]
INyLfrlR [label="", shape = square, fillcolor="#5aa500"]
R2LRINyLfrlR [label="", shape = square, fillcolor="#56a900"]
R2LINyLfrlRR [label="", shape = square, fillcolor="#1ce300"]
R10LINyLfrlRR [label="", shape = square, fillcolor="#17e800"]
R10LINbLfrlRR [label="", shape = square, fillcolor="#13ec00"]
fINyLrR [label="", shape = square, fillcolor="#619e00"]
fINyLrRl [label="", shape = square, fillcolor="#6c9300"]
fINyLrRlWLR [label="", shape = square, fillcolor="#778800"]
fINyLrRlWNbLR [label="", shape = square, fillcolor="#738c00"]
fINyLrRlWNyLR [label="", shape = square, fillcolor="#708f00"]
R2LRfIyLrR [label="", shape = square, fillcolor="#6d9200"]
R2LRf [label="", shape = square, fillcolor="#7b8400"]
R2LfIyLrRRl [label="", shape = square, fillcolor="#e31c00"]
R3LfIyLrRRl [label="", shape = square, fillcolor="#e01f00"]
R3LfIyLrRR [label="", shape = square, fillcolor="#de2100"]
R3LfIyLrRlR [label="", shape = square, fillcolor="#db2400"]
R3LIyLrRlR [label="", shape = square, fillcolor="#e31c00"]
R3LIyLRlR [label="", shape = square, fillcolor="#e11e00"]
R3LrIyLRlR [label="", shape = square, fillcolor="#da2500"]
R3LIyLfRlR [label="", shape = square, fillcolor="#e31c00"]
R3LfIyLRlR [label="", shape = square, fillcolor="#de2100"]
WyLR [label="", shape = square, fillcolor="#4bb400"]
WNyLfILrRlR [label="", shape = square, fillcolor="#748b00"]
WNyLfRILrRl [label="", shape = square, fillcolor="#7a8500"]
WNyLfRINbLrRl [label="", shape = square, fillcolor="#778800"]
WNyLfRIbLrRl [label="", shape = square, fillcolor="#738c00"]
WNyLfIyLrlRR [label="", shape = square, fillcolor="#748b00"]
WNyLRIyLrlR [label="", shape = square, fillcolor="#50af00"]
WLfRIyLrlR [label="", shape = square, fillcolor="#0ff00"]
R3LfIyLrlRR [label="", shape = square, fillcolor="#0ff00"]
R8LfIyLrlRR [label="", shape = square, fillcolor="#0ff00"]
WLfrR [label="", shape = square, fillcolor="#20df00"]
WLfrfR [label="", shape = square, fillcolor="#1ce300"]
WLfrffR [label="", shape = square, fillcolor="#17e800"]
WNbLfrffR [label="", shape = square, fillcolor="#13ec00"]
WNbLfINyLRR [label="", shape = square, fillcolor="#0ff00"]
fINyLR [label="", shape = square, fillcolor="#659a00"]
INyLfRR2LR [label="", shape = square, fillcolor="#ac5300"]
INyLfRR2LrR [label="", shape = square, fillcolor="#a85700"]
INyLfRR2LrlR [label="", shape = square, fillcolor="#a55a00"]
INyLR2LrlRfR [label="", shape = square, fillcolor="#56a900"]
R2LrR [label="", shape = square, fillcolor="#7b8400"]
R2LrfR [label="", shape = square, fillcolor="#788700"]
R2LrfRILR [label="", shape = square, fillcolor="#847b00"]
R2LrfRINbLR [label="", shape = square, fillcolor="#807f00"]
INbLRR2LrfR [label="", shape = square, fillcolor="#926d00"]
INbLR2LrfRR [label="", shape = square, fillcolor="#bb4400"]
INbLR2LrfRRILR [label="", shape = square, fillcolor="#c33c00"]
INbLR2LrlRR [label="", shape = square, fillcolor="#a85700"]
INbLR2LrRR [label="", shape = square, fillcolor="#b44b00"]
INbLR2LrlfRR [label="", shape = square, fillcolor="#ac5300"]
INbLR2LrflRR [label="", shape = square, fillcolor="#976800"]
INbLWLRR [label="", shape = square, fillcolor="#da2500"]
INbLWNbLRR [label="", shape = square, fillcolor="#d82700"]
INbLWNyLRR [label="", shape = square, fillcolor="#ff000"]
INbLWNyLrRR [label="", shape = square, fillcolor="#ff000"]
INbLWNyLrlRR [label="", shape = square, fillcolor="#ff000"]
INbLWNyLrflRR [label="", shape = square, fillcolor="#ff000"]
INbLWNyLflrRR [label="", shape = square, fillcolor="#fa500"]
INbLWNyLflRR [label="", shape = square, fillcolor="#f8700"]
INbLWNyLfrlRR [label="", shape = square, fillcolor="#f5a00"]
INbLWyLfrlRR [label="", shape = square, fillcolor="#f8700"]
INbLWNrLfrlRR [label="", shape = square, fillcolor="#ee1100"]
INbLWNkLfrlRR [label="", shape = square, fillcolor="#ec1300"]
INbLWkLfrlRR [label="", shape = square, fillcolor="#ee1100"]
INbLWNbLfrlRR [label="", shape = square, fillcolor="#e51a00"]
INbLR2LRR [label="", shape = square, fillcolor="#20df00"]
INbLR2LfRR [label="", shape = square, fillcolor="#1ce300"]
INbLR2LfrRR [label="", shape = square, fillcolor="#17e800"]
INbLR2LfrlRR [label="", shape = square, fillcolor="#13ec00"]
R2LsR [label="", shape = square, fillcolor="#0ff00"]
R2LsILRR [label="", shape = square, fillcolor="#0ff00"]
R2LsINbLRR [label="", shape = square, fillcolor="#0ff00"]
R2LsIbLRR [label="", shape = square, fillcolor="#0ff00"]
R2LsIyLRR [label="", shape = square, fillcolor="#0ff00"]
R2LsIyLfRR [label="", shape = square, fillcolor="#0ff00"]
R2LsIyLrRR [label="", shape = square, fillcolor="#0ff00"]
R2LsIyLrlRR [label="", shape = square, fillcolor="#0ff00"]
R4LsIyLrlRR [label="", shape = square, fillcolor="#0ff00"]
R6LsIyLrlRR [label="", shape = square, fillcolor="#0ff00"]
R5LsIyLrlRR [label="", shape = square, fillcolor="#ff00ff"]
fr [label="", shape = square, fillcolor="#ff000"]
frl [label="", shape = square, fillcolor="#ff000"]
frlWLR [label="", shape = square, fillcolor="#ff000"]
frlWLfR [label="", shape = square, fillcolor="#ff000"]
frlWNbLfR [label="", shape = square, fillcolor="#ff000"]
frlWNyLfR [label="", shape = square, fillcolor="#ff000"]
frlWNyLR [label="", shape = square, fillcolor="#ff000"]
r [label="", shape = square, fillcolor="#ee1100"]
rf [label="", shape = square, fillcolor="#eb1400"]
rfl [label="", shape = square, fillcolor="#916e00"]
rflWLR [label="", shape = square, fillcolor="#59a600"]
rflWNbLR [label="", shape = square, fillcolor="#55aa00"]
rflWNyLR [label="", shape = square, fillcolor="#51ae00"]
R2LrflR [label="", shape = square, fillcolor="#3cc300"]
R2LrflRWNyLR [label="", shape = square, fillcolor="#40bf00"]
R2LrflRR2LR [label="", shape = square, fillcolor="#40bf00"]
R2LrflRWLR [label="", shape = square, fillcolor="#48b700"]
WbLR [label="", shape = square, fillcolor="#4fb000"]
WyLfR [label="", shape = square, fillcolor="#25da00"]
WyLfRWLR [label="", shape = square, fillcolor="#20df00"]
WyLfRWNbLR [label="", shape = square, fillcolor="#1ce300"]
WyLfRWNyLR [label="", shape = square, fillcolor="#17e800"]
WyLfRWNyLfR [label="", shape = square, fillcolor="#13ec00"]
R2LrflfR [label="", shape = square, fillcolor="#17e800"]
R3LrflfR [label="", shape = square, fillcolor="#13ec00"]
IyLlR [label="", shape = square, fillcolor="#6e9100"]
IyLrlR [label="", shape = square, fillcolor="#6a9500"]
R2LRfIyLrlR [label="", shape = square, fillcolor="#56a900"]
fINyLrlRf [label="", shape = square, fillcolor="#3ec100"]
fIyLrlRf [label="", shape = square, fillcolor="#39c600"]
WNbLRIyLrlR [label="", shape = square, fillcolor="#28d700"]
IrLrlR [label="", shape = square, fillcolor="#ff000"]
IrLrlRIkLfR [label="", shape = square, fillcolor="#ff000"]
IkLfR [label="", shape = square, fillcolor="#c43b00"]
IkLfRIrLrlR [label="", shape = square, fillcolor="#c93600"]
WkLfRIyLrlR [label="", shape = square, fillcolor="#bf4000"]
IkLfRIyLrlR [label="", shape = square, fillcolor="#d62900"]
IyLrlRWkLfR [label="", shape = square, fillcolor="#738c00"]
INyLfRIyLrlR [label="", shape = square, fillcolor="#9a6500"]
IyLrlRWNyLfR [label="", shape = square, fillcolor="#52ad00"]
WNyLR2LRR [label="", shape = square, fillcolor="#798600"]
WNyLR2LfRR [label="", shape = square, fillcolor="#768900"]
WNyLR2LfRRILR [label="", shape = square, fillcolor="#7f8000"]
WNyLfRILR [label="", shape = square, fillcolor="#659a00"]
R7LfIyLrlRR [label="", shape = square, fillcolor="#0ff00"]
WLRIyLrR [label="", shape = square, fillcolor="#906f00"]
WNbLRIyLrR [label="", shape = square, fillcolor="#8d7200"]
WbLRIyLrR [label="", shape = square, fillcolor="#8a7500"]
WkLRIyLrR [label="", shape = square, fillcolor="#867900"]
WkLlRIyLrR [label="", shape = square, fillcolor="#837c00"]
fWkLlRIyLrR [label="", shape = square, fillcolor="#7f8000"]
fWkLlR [label="", shape = square, fillcolor="#718e00"]
fIyLrRWkLlR [label="", shape = square, fillcolor="#639c00"]
WNbLfWLRR [label="", shape = square, fillcolor="#0ff00"]
WNbLfWNbLRR [label="", shape = square, fillcolor="#0ff00"]
WNbLfWNyLRR [label="", shape = square, fillcolor="#0ff00"]
WNbLfWyLRR [label="", shape = square, fillcolor="#0ff00"]
WNbLfWyLrRR [label="", shape = square, fillcolor="#0ff00"]
WNbLfWyLrlRR [label="", shape = square, fillcolor="#ff00ff"]
fR2LIyLrRR [label="", shape = square, fillcolor="#936c00"]
fR2LIyLrlRR [label="", shape = square, fillcolor="#906f00"]
INbLfR [label="", shape = square, fillcolor="#ca3500"]
IbLfR [label="", shape = square, fillcolor="#c73800"]
IkLfRR2LIyLrlRR [label="", shape = square, fillcolor="#807f00"]
WLWLRR [label="", shape = square, fillcolor="#0ff00"]
WLfWLRR [label="", shape = square, fillcolor="#0ff00"]
WbLfWLRR [label="", shape = square, fillcolor="#0ff00"]
WkLfWLRR [label="", shape = square, fillcolor="#0ff00"]
WkLfWNbLRR [label="", shape = square, fillcolor="#0ff00"]
WkLfWbLRR [label="", shape = square, fillcolor="#0ff00"]
WkLfWyLRR [label="", shape = square, fillcolor="#0ff00"]
WkLfWyLrRR [label="", shape = square, fillcolor="#0ff00"]
WkLfWyLrlRR [label="", shape = square, fillcolor="#ff00ff"]
rflf [label="", shape = square, fillcolor="#55aa00"]
R2LRrflf [label="", shape = square, fillcolor="#51ae00"]
rfll [label="", shape = square, fillcolor="#946b00"]
rfILR [label="", shape = square, fillcolor="#f3c00"]
rfWLR [label="", shape = square, fillcolor="#ee1100"]
rfR2LR [label="", shape = square, fillcolor="#ff000"]
rfR3LR [label="", shape = square, fillcolor="#ff000"]
rfR3LlR [label="", shape = square, fillcolor="#ff000"]
rfR3LlRWLR [label="", shape = square, fillcolor="#ff000"]
IrLrR [label="", shape = square, fillcolor="#50af00"]
R2LRIrLrR [label="", shape = square, fillcolor="#4cb300"]
R2LIrLrRR [label="", shape = square, fillcolor="#0ff00"]
R2LfIrLrRR [label="", shape = square, fillcolor="#0ff00"]
R10LfIrLrRR [label="", shape = square, fillcolor="#0ff00"]
R5LfIrLrRR [label="", shape = square, fillcolor="#0ff00"]
R5LfIyLrRR [label="", shape = square, fillcolor="#0ff00"]
start -> ILR
start -> WLR
ILR -> INbLR
ILfR -> ILfRWLR
ILfR -> WLsRR2LR
ILfR -> INbLfR
ILfRWLR -> ILfRWLRR2LR
ILfRWLRR2LR -> ILfRWLsRR2LR
ILfRWLsRR2LR -> ILfR
WLsRR2LR -> WLsRR2LsR
WLsRR2LsR -> WLsRR10LsR
WLsRR10LsR -> WLsR
WLsR -> R10LsR
R10LsR -> R10LsRf
WLR -> WNbLR
WLfR -> WNbLfR
WNbLfILRR -> WNbLfINbLRR
WNbLfINbLRR -> WNbLfIbLRR
WNbLfINbLRR -> WNbLfINyLRR
WNbLfIbLRR -> WNbLfIyLRR
WNbLfIyLRR -> WNbLfIyLrRR
WNbLfIyLrRR -> WNbLfIyLrRlR
WNbLfIyLrRR -> WNbLfIyLrlRR
WNbLfIyLrRlR -> WNbLfIyLrRR
f -> fILR
fILR -> fINbLR
fIyLR -> fIyLrR
fIyLrR -> fIyLrRR2LR
fIyLrRl -> fIyLrRlf
fIyLrRl -> fIyLrRlr
fINbLR -> fIbLR
fINbLR -> fINyLR
fIbLR -> fIyLR
fIyLrRR2LR -> fIyLrRR2LlR
fIyLrRR2LR -> fIyLrR
fIyLrRR2LlR -> fIyLrR
fIyLrRR2LlR -> fIyLrRR2LR
fIyLrRlr -> f
fR2LR -> fR2LlR
fR2LR -> fR2LrR
fR2LlR -> fR2LlRWLR
fR2LlRWLR -> fR2LlRWLrR
fR2LlRWLrR -> fR2LlRWNbLrR
R2LfR -> R3LfR
R2LfR -> R2LfrR
R2LfR -> R2LR
R3LfR -> R3LfRr
R3LfR -> R3LfrlR
R3LfRr -> R3LfRrl
R3LfRrl -> R3LfR
R3LfrlR -> R3LR
R3LfrlR -> R2LfrlR
R3LR -> R3LfIyLrRlR
R2LfrlR -> f
fR2LrR -> fR2LrlR
fR2LrlR -> fWLRR2LrlR
fWLRR2LrlR -> fWLR
fWLR -> fWLR2LrlRR
fWLR2LrlRR -> fWNbLR2LrlRR
fWNbLR2LrlRR -> fWNyLR2LrlRR
fWNyLR2LrlRR -> f
WNyLR2LrlRRf -> WNyLR2LrlRR
WNyLR2LrlRR -> rWNyLR2LrlRR
WNbLR -> WNbLfR
WNbLR -> WNbLILRR
R2LfrR -> R2LfrfR
R2LfrfR -> R2LfrflR
R2LfrflR -> R3LfrflR
R3LfrflR -> ILR
INbLR -> INyLR
INbLR -> IbLR
INyLR -> INyLrR
INyLlR -> INyLR
INyLrR -> INyLrlR
INyLrRILR -> INyLrRINbLR
INyLrRINbLR -> INyLrRINkLR
INyLrRINkLR -> INyLrR
INyLrRl -> INyLrR
INyLrlR -> fINyLrlR
INyLrlR -> f
fINyLrlR -> WNbLfR
fINyLrlR -> f
fINyLrlR -> fINyLrlRf
WNbLfRINyLrlR -> WNbLfR
WNbLINyLrlRfR -> WNbLIyLrlRfR
WNbLIyLrlRfR -> WbLIyLrlRfR
WNbLIyLrlRfR -> WNbLIyLrRfR
WNbLIyLrlRfR -> WNbLIyLrlRR
WbLIyLrlRfR -> WNbLIyLrlRfR
WNbLIyLrRfR -> WNbLIyLrRflR
WNbLIyLrRfR -> WNbLIyLrRlfR
WNbLIyLrRfR -> WNbLIyLrRR
WNbLIyLrRflR -> WNbLIyLrRfR
WNbLIyLrRlfR -> WNbLIyLrRR
WNbLIyLrRR -> WNbLIyLrlRR
WNbLIyLrRRfl -> WNbLIyLrRR
R2LfIyLrlRR -> R4LfIyLrlRR
R4LfIyLrlRR -> R5LfIyLrlRR
R4LfIyLrlRR -> R8LfIyLrlRR
R4LfIyLrlRR -> R2LfIyLrlRR
WkLfIyLrRIkLlRR -> WkLfIyLrRR
WkLfIyLrRR -> WkLfR
WkLfIyLrRR -> WkLfIyLrRRl
WkLfIyLrRR -> WkLfIyLrRlR
WkLfR -> WkLfRIyLrlR
WkLfIyLrRRl -> WkLfIyLrRR
WkLfIyLrRlR -> WkLfR
R2LflrR -> R2LflrRIkLffR
R2LflrRIkLffR -> R2LR2LfRlR
R2LR2LfRlR -> R2LR2LfRlRIyLrR
R2LR2LfRlR -> IyLrR
R2LR2LfRlRIyLrR -> R2LR2LfRlR
IyLrR -> R2LRIyLrR
IyLrRWkLfR -> IyLrR
IyLrRIkLR2LRR -> IyLrR
IyLrRIkLR2LlfffRR -> IyLrR
IyLrRIgLlR -> WkLfIyLrRIgLlRR
WNyLfR -> WNyLfRIyLrlR
WNyLflR -> WNyLfrR
WNyLfrR -> WyLfrR
WyLfrR -> WyLfrRILR
WyLfrRILR -> WyLfrRINbLR
WyLfrRINbLR -> WyLfrRIbLR
WyLfrRINbLR -> WyLfrRINyLR
WyLfrRIbLR -> WyLfrRINbLR
WyLfrRINyLR -> WyLfrRINyLlR
IbLR -> IyLR
IyLR -> IyLrR
WNyLsR -> WNyLsRr
WNyLsRr -> WNyLsRrl
WNyLsRrl -> R2LRWNyLsRrl
R2LRWNyLsRrl -> R2LR
R2LWNyLsRrlR -> R3LWNyLsRrlR
WNbLILRR -> WNbLINbLRR
WNbLINbLRR -> WNbLIbLRR
WNbLIbLRR -> WNbLIyLRR
WNbLIyLRR -> WNbLIyLrRR
WNbLIyLrlRR -> WNbLIyLrlRfR
WNbLIyLrlRR -> WNbLfIyLrlRR
WNbLIyLrlRR -> WNbLR
fIyLrlR -> f
WLRfIyLrlR -> WLRf
WLRf -> WLIyLrlRRf
WLRf -> WLR
WLIyLrlRRf -> WNbLIyLrlRRf
WNbLIyLrlRRf -> WNbLIyLrlRR
IyLfR -> IyLfRr
IyLfR -> IyLfRR2LR
IyLfRr -> IyLfRrf
IyLfRrf -> IyLfR
IyLfRR2LR -> IyLfRR2LrfR
IyLfRR2LrfR -> INyLfRR2LrfR
INyLfRR2LrfR -> INyLfR
INyLfRrf -> INyLfR
INyLfRILR -> INyLfRILrfR
INyLfRILrfR -> INyLfRINbLrfR
INyLfRINbLrfR -> INyLfRINbLR
INyLfRINbLR -> INyLfR
INyLfRWLR -> INyLfRWLrfR
INyLfRWLrfR -> INyLfRWNbLrfR
INyLfRWNbLrfR -> R2LR
R2LINyLfRWbLrfRR -> R3LINyLfRWbLrfRR
R3LINyLfRWbLrfRR -> R3LINyLfRWbLRR
R3LINyLfRWbLRR -> R3LINyLfRWbLrRR
R3LINyLfRWbLrRR -> R3LINyLfRWyLrRR
WNyLfRIyLrlR -> R2LR
WNyLfRIyLrlR -> WNyLfR
R2LWNyLfRIyLrlRR -> R3LWNyLfRIyLrlRR
R3LWNyLfRIyLrlRR -> R3LWyLfRIyLrlRR
R3LWyLfRIyLrlRR -> R3LWbLfRIyLrlRR
R3LWbLfRIyLrlRR -> WbLfRIyLrlR
WbLfRIyLrlR -> WNbLfRIyLrlR
WNbLfRIyLrlR -> WNbLfR
WNbLfRIyLrlR -> WNyLfRIyLrlR
R2LIyLrRflR -> R2LIyLrRR
R2LIyLrRR -> R2LfIyLrRR
R2LIyLrRR -> R2LIyLrRlR
R2LIyLrRR -> R2LIyLrlfRR
R2LfIyLrRR -> R2LfIyLrRlR
R2LfIyLrRR -> R2LfIyLrlRR
R2LfIyLrRR -> R2LfIyLrRRl
R2LfIyLrRlR -> R2LfR
R2LfIyLrRlR -> R2LfIyLrRR
R2LWNyLfRIyLrRlR -> R2LWNyLfRIyLrRR
R2LWNyLfRIyLrRR -> R2LWNyLflRIyLrRR
R2LWNyLfRIyLrRR -> R2LWNyLfRR
R2LWNyLflRIyLrRR -> R2LWNyLfRIyLrRR
R2LWNyLfRR -> R2LR
WNyLfRIyLrR -> WNyLfRIyLrRl
WNyLfRIyLrR -> WNyLfRIyLrRWLR
WNyLfRIyLrR -> WNyLfR
WNyLfRIyLrR -> WNyLfRIyLrlR
WNyLfRIyLrRl -> WNyLfRIyLRl
WNyLfRIyLrRl -> WNyLfRIyLrR
WNyLfRIyLRl -> WNyLfR
WNyLfRrl -> R2LWNyLfRrlR
R2LWNyLfRrlR -> R3LWNyLfRrlR
WNbLrR -> WNbLrlR
WNbLrlR -> WNbLrlRILR
WNbLrlRILR -> WNbLRILR
WNbLRILR -> WNbLRILrlR
WNbLRILrlR -> WNbLfRILrlR
WNbLfRILrlR -> WNbLfRINyLrlR
WNbLfINyLrlRR -> WNbLR
WNbLfRILR -> WNbLfRINbLR
WNbLfRINbLR -> WNbLfRIbLR
WNbLfRIbLR -> WNbLfRIyLR
WNbLfRIyLR -> WNbLfRIyLrR
WNbLfRIyLrR -> WNbLfRIyLrlR
R2LRIyLrR -> R2LR
R2LRIyLrR -> IyLrR
R2LIyLrRlR -> R2LIyLrRlfR
R2LIyLrRlfR -> R2LIyLrRR
R2LIyLrlfRR -> R2LIyLrfRR
R2LIyLrfRR -> R2LIyLRR
R2LIyLrfRR -> R2LIyLfRR
R2LIyLRR -> R2LIyLrfRR
R2LIyLRR -> R2LfIyLRR
R2LIyLfRR -> R2LIyLRR
R2LfIyLRR -> R2LfIyLrRR
R10LfIyLrlRR -> R6LfIyLrlRR
R10LfIyLrlRR -> R8LfIyLrlRR
R10LfIyLrlRR -> R5LfIyLrlRR
R6LfIyLrlRR -> R5LfIyLrlRR
IrLR -> WLR
IrLR -> IrLrR
WNrLR -> WNyLR
WNyLRIyLR -> WNyLfRIyLR
WNyLfRIyLR -> WNyLfRIyLrR
WNyLfRIyLR -> WNyLfRIyLrlR
WNyLfRIyLrRWLR -> WNyLfRIyLrR
WNyLIyLrRfR -> WNyLR
WNyLfIyLrRR -> WNyLfIyLrRlR
WNyLfIyLrRR -> WNyLfR
WNyLfIyLrRlR -> WNyLfIyLrRR
INrLR -> INrLfR
INrLR -> IrLR
INrLfR -> INyLfR
INyLfrR -> INyLfrlR
INyLfrlR -> R2LRINyLfrlR
R2LRINyLfrlR -> R2LR
R2LINyLfrlRR -> R10LINyLfrlRR
R10LINyLfrlRR -> R10LINbLfrlRR
fINyLrR -> fINyLrRl
fINyLrR -> fIyLrR
fINyLrR -> fINyLrlR
fINyLrRl -> fINyLrRlWLR
fINyLrRl -> fINyLrR
fINyLrRlWLR -> fINyLrRlWNbLR
fINyLrRlWNbLR -> fINyLrRlWNyLR
fINyLrRlWNyLR -> fINyLrRl
R2LRfIyLrR -> R2LRf
R2LRfIyLrR -> R2LR
R2LRf -> R2LRfIyLrR
R2LfIyLrRRl -> R3LfIyLrRRl
R3LfIyLrRRl -> R3LfIyLrRR
R3LfIyLrRR -> R3LfIyLrRlR
R3LfIyLrRlR -> R3LR
R3LIyLrRlR -> R3LIyLRlR
R3LIyLRlR -> R3LrIyLRlR
R3LIyLRlR -> R3LIyLfRlR
R3LIyLRlR -> R3LfIyLRlR
R3LrIyLRlR -> R3LR
R3LrIyLRlR -> R3LIyLRlR
R3LIyLfRlR -> R3LIyLRlR
R3LfIyLRlR -> R3LfIyLrRlR
WyLR -> WNyLR
WyLR -> WyLfR
WNyLfILrRlR -> WNyLfR
WNyLfRILrRl -> WNyLfRINbLrRl
WNyLfRINbLrRl -> WNyLfRIbLrRl
WNyLfRIbLrRl -> WNyLfRIyLrRl
WNyLfIyLrlRR -> WNyLfR
WNyLRIyLrlR -> WNyLfRIyLrlR
WLfRIyLrlR -> R3LfIyLrlRR
R3LfIyLrlRR -> R4LfIyLrlRR
R3LfIyLrlRR -> R10LfIyLrlRR
R8LfIyLrlRR -> R6LfIyLrlRR
R8LfIyLrlRR -> R7LfIyLrlRR
WLfrR -> WLfrfR
WLfrfR -> WLfrffR
WLfrffR -> WNbLfrffR
WNbLfINyLRR -> WNbLfIyLRR
fINyLR -> fINyLrR
INyLfRR2LR -> INyLfRR2LrR
INyLfRR2LR -> INyLfRR2LrlR
INyLfRR2LrR -> INyLfRR2LrlR
INyLfRR2LrlR -> INyLfRR2LR
INyLfRR2LrlR -> INyLfR
INyLR2LrlRfR -> R2LR
R2LrR -> R2LrfR
R2LrfR -> R2LrfRILR
R2LrfR -> INbLRR2LrfR
R2LrfR -> R2LrflR
R2LrfRILR -> R2LrfRINbLR
R2LrfRINbLR -> R2LrfR
INbLRR2LrfR -> INbLR
INbLR2LrfRR -> INbLR2LrfRRILR
INbLR2LrfRR -> INbLR2LrlRR
INbLR2LrfRRILR -> INbLR2LrfRR
INbLR2LrlRR -> INbLR2LrRR
INbLR2LrlRR -> INbLR2LrflRR
INbLR2LrRR -> INbLR2LrlfRR
INbLR2LrlfRR -> INbLR2LrlRR
INbLR2LrflRR -> INbLR
INbLWLRR -> INbLWNbLRR
INbLWNbLRR -> INbLWNyLRR
INbLWNbLRR -> INbLR
INbLWNyLRR -> INbLWNyLrRR
INbLWNyLRR -> INbLWNyLrflRR
INbLWNyLrRR -> INbLWNyLrlRR
INbLWNyLrRR -> INbLWNyLflrRR
INbLWNyLrlRR -> INbLWNyLrflRR
INbLWNyLrflRR -> INbLWNyLRR
INbLWNyLrflRR -> INbLWNyLrRR
INbLWNyLflrRR -> INbLWNyLflRR
INbLWNyLflRR -> INbLWNyLfrlRR
INbLWNyLfrlRR -> INbLWyLfrlRR
INbLWNyLfrlRR -> INbLWNrLfrlRR
INbLWyLfrlRR -> INbLWNyLfrlRR
INbLWNrLfrlRR -> INbLWNkLfrlRR
INbLWNkLfrlRR -> INbLWkLfrlRR
INbLWNkLfrlRR -> INbLWNbLfrlRR
INbLWkLfrlRR -> INbLWNkLfrlRR
INbLWNbLfrlRR -> INbLWNbLRR
INbLR2LRR -> INbLR2LfRR
INbLR2LfRR -> INbLR2LfrRR
INbLR2LfrRR -> INbLR2LfrlRR
R2LsR -> R2LsILRR
R2LsILRR -> R2LsINbLRR
R2LsINbLRR -> R2LsIbLRR
R2LsIbLRR -> R2LsIyLRR
R2LsIyLRR -> R2LsIyLfRR
R2LsIyLRR -> R2LsIyLrRR
R2LsIyLfRR -> R2LsIyLRR
R2LsIyLrRR -> R2LsIyLrlRR
R2LsIyLrlRR -> R4LsIyLrlRR
R4LsIyLrlRR -> R6LsIyLrlRR
R6LsIyLrlRR -> R5LsIyLrlRR
fr -> frl
frl -> frlWLR
frl -> r
frlWLR -> frlWLfR
frlWLR -> frl
frlWLfR -> frlWNbLfR
frlWNbLfR -> frlWNyLfR
frlWNyLfR -> frlWNyLR
frlWNyLR -> frlWLR
r -> rf
rf -> rfl
rfl -> rflWLR
rfl -> rflf
rfl -> rfll
rfl -> r
rflWLR -> rflWNbLR
rflWNbLR -> rflWNyLR
rflWNyLR -> R2LR
R2LrflR -> R2LrflRWNyLR
R2LrflR -> R2LrflRR2LR
R2LrflR -> R2LrflRWLR
R2LrflR -> R2LrflfR
R2LrflRWNyLR -> R2LrflR
R2LrflRR2LR -> R2LrflR
R2LrflRWLR -> WLR
WbLR -> WyLR
WyLfR -> WyLfRWLR
WyLfRWLR -> WyLfRWNbLR
WyLfRWNbLR -> WyLfRWNyLR
WyLfRWNyLR -> WyLfRWNyLfR
R2LrflfR -> R3LrflfR
IyLlR -> IyLrlR
IyLrlR -> fIyLrlR
IyLrlR -> INyLfR
IyLrlR -> f
R2LRfIyLrlR -> R2LR
fINyLrlRf -> fIyLrlRf
fIyLrlRf -> fIyLrlR
WNbLRIyLrlR -> WNbLfRIyLrlR
IrLrlR -> IrLrlRIkLfR
IrLrlR -> IkLfR
IrLrlRIkLfR -> IrLrlR
IkLfR -> IkLfRIrLrlR
IkLfR -> IkLfRIyLrlR
IkLfR -> WkLfR
IkLfR -> IkLfRR2LIyLrlRR
IkLfRIrLrlR -> WkLfR
WkLfRIyLrlR -> WkLfR
IkLfRIyLrlR -> IkLfR
IyLrlRWkLfR -> IyLrlR
INyLfRIyLrlR -> INyLfR
IyLrlRWNyLfR -> WLR
WNyLR2LRR -> WNyLR2LfRR
WNyLR2LfRR -> WNyLR2LfRRILR
WNyLR2LfRR -> WNyLfR
WNyLR2LfRRILR -> WNyLR2LfRR
WNyLfRILR -> WNyLfRIyLR
R7LfIyLrlRR -> R6LfIyLrlRR
WLRIyLrR -> WNbLRIyLrR
WNbLRIyLrR -> WbLRIyLrR
WbLRIyLrR -> WkLRIyLrR
WkLRIyLrR -> WkLlRIyLrR
WkLlRIyLrR -> fWkLlRIyLrR
fWkLlRIyLrR -> fWkLlR
fWkLlR -> fIyLrRWkLlR
fIyLrRWkLlR -> fIyLrR
WNbLfWLRR -> WNbLfWNbLRR
WNbLfWLRR -> WbLfWLRR
WNbLfWNbLRR -> WNbLfWNyLRR
WNbLfWNyLRR -> WNbLfWyLRR
WNbLfWyLRR -> WNbLfWyLrRR
WNbLfWyLrRR -> WNbLfWyLrlRR
fR2LIyLrRR -> fR2LIyLrlRR
fR2LIyLrlRR -> ILR
INbLfR -> IbLfR
IbLfR -> IkLfR
IkLfRR2LIyLrlRR -> f
WLWLRR -> WLfWLRR
WLfWLRR -> WNbLfWLRR
WbLfWLRR -> WkLfWLRR
WkLfWLRR -> WkLfWNbLRR
WkLfWNbLRR -> WkLfWbLRR
WkLfWbLRR -> WkLfWyLRR
WkLfWyLRR -> WkLfWyLrRR
WkLfWyLrRR -> WkLfWyLrlRR
rflf -> R2LRrflf
R2LRrflf -> R2LR
rfll -> rfl
rfILR -> rf
rfWLR -> rf
rfR2LR -> rfR3LR
rfR3LR -> rfR3LlR
rfR3LlR -> rfR3LR
rfR3LlR -> rfR3LlRWLR
rfR3LlRWLR -> rfR3LlR
IrLrR -> R2LRIrLrR
R2LRIrLrR -> R2LR
R2LIrLrRR -> R2LfIrLrRR
R2LfIrLrRR -> R10LfIrLrRR
R10LfIrLrRR -> R5LfIrLrRR
R5LfIrLrRR -> R5LfIyLrRR
R5LfIyLrRR -> R5LfIyLrlRR
}