digraph graph_name {
  graph [
    charset = "UTF-8";
    label = "sample graph",
    labelloc = "t",
    labeljust = "c",
    bgcolor = "#ffffff",
    fontcolor = white,
    fontsize = 18,
    style = "filled",
    rankdir = TB,
    margin = 0.2,
    splines = spline,
    ranksep = 1.0,
    nodesep = 0.9
  ];

  node [
    colorscheme = "rdylgn11"
    style = "solid,filled",
    fontsize = 16,
    fontcolor = 6,
    fontname = "Migu 1M",
    color = 5,
    fillcolor = 11,
    fixedsize = true,
    height = 1.0,
    width = 1.0
  ];

  edge [
    style = solid,
    fontsize = 14,
    fontcolor = black,
    fontname = "Migu 1M",
    color = black,
    labelfloat = true,
    labeldistance = 2.5,
    labelangle = 70
  ];
  start [label="", shape = square, fillcolor="#0000ff"]
r [label="", shape = square, fillcolor="#857a00"]
rf [label="", shape = square, fillcolor="#9a6500"]
rff [label="", shape = square, fillcolor="#9c6300"]
rfff [label="", shape = square, fillcolor="#996600"]
rfffl [label="", shape = square, fillcolor="#986700"]
rfffll [label="", shape = square, fillcolor="#976800"]
fl [label="", shape = square, fillcolor="#53ac00"]
l [label="", shape = square, fillcolor="#0ff00"]
ls [label="", shape = square, fillcolor="#0ff00"]
lsr [label="", shape = square, fillcolor="#0ff00"]
lsrr [label="", shape = square, fillcolor="#0ff00"]
lsrrl [label="", shape = square, fillcolor="#0ff00"]
lsrrll [label="", shape = square, fillcolor="#0ff00"]
lsrrllf [label="", shape = square, fillcolor="#ff00ff"]
f [label="", shape = square, fillcolor="#788700"]
fr [label="", shape = square, fillcolor="#847b00"]
frf [label="", shape = square, fillcolor="#8d7200"]
frff [label="", shape = square, fillcolor="#847b00"]
frffl [label="", shape = square, fillcolor="#758a00"]
frffll [label="", shape = square, fillcolor="#6f9000"]
frffllf [label="", shape = square, fillcolor="#996600"]
frfl [label="", shape = square, fillcolor="#ac5300"]
frflfllf [label="", shape = square, fillcolor="#9a6500"]
rffflls [label="", shape = square, fillcolor="#906f00"]
rr [label="", shape = square, fillcolor="#926d00"]
rrf [label="", shape = square, fillcolor="#9c6300"]
rrff [label="", shape = square, fillcolor="#9b6400"]
lsrrf [label="", shape = square, fillcolor="#0ff00"]
lsrrfl [label="", shape = square, fillcolor="#0ff00"]
lsrrfll [label="", shape = square, fillcolor="#0ff00"]
lsrrfllf [label="", shape = square, fillcolor="#0ff00"]
lf [label="", shape = square, fillcolor="#a25d00"]
lsf [label="", shape = square, fillcolor="#ff000"]
rfl [label="", shape = square, fillcolor="#867900"]
rfll [label="", shape = square, fillcolor="#a35c00"]
rfllf [label="", shape = square, fillcolor="#897600"]
rfllsf [label="", shape = square, fillcolor="#857a00"]
rffllsf [label="", shape = square, fillcolor="#827d00"]
rfffllsf [label="", shape = square, fillcolor="#827d00"]
rrfffllsf [label="", shape = square, fillcolor="#bd4200"]
rrflfllsf [label="", shape = square, fillcolor="#bf4000"]
rrfllllsf [label="", shape = square, fillcolor="#bc4300"]
rrflllslsf [label="", shape = square, fillcolor="#b94600"]
rsrflllslsf [label="", shape = square, fillcolor="#b64900"]
ll [label="", shape = square, fillcolor="#3ac500"]
llf [label="", shape = square, fillcolor="#47b800"]
llff [label="", shape = square, fillcolor="#43bc00"]
llfff [label="", shape = square, fillcolor="#3fc000"]
llffff [label="", shape = square, fillcolor="#3bc400"]
llfffff [label="", shape = square, fillcolor="#37c800"]
llffffff [label="", shape = square, fillcolor="#3bc400"]
ff [label="", shape = square, fillcolor="#837c00"]
fff [label="", shape = square, fillcolor="#7a8500"]
fffr [label="", shape = square, fillcolor="#728d00"]
fffrl [label="", shape = square, fillcolor="#7a8500"]
fffrll [label="", shape = square, fillcolor="#877800"]
fffrllf [label="", shape = square, fillcolor="#8a7500"]
fffrlll [label="", shape = square, fillcolor="#936c00"]
fffrlllf [label="", shape = square, fillcolor="#936c00"]
fffrls [label="", shape = square, fillcolor="#7d8200"]
fffrs [label="", shape = square, fillcolor="#8a7500"]
lsrfffllf [label="", shape = square, fillcolor="#0ff00"]
lsrrffllf [label="", shape = square, fillcolor="#0ff00"]
lsrrlfllf [label="", shape = square, fillcolor="#0ff00"]
lsrrllllf [label="", shape = square, fillcolor="#0ff00"]
rfffls [label="", shape = square, fillcolor="#936c00"]
ffr [label="", shape = square, fillcolor="#906f00"]
ffrl [label="", shape = square, fillcolor="#966900"]
ffl [label="", shape = square, fillcolor="#906f00"]
lsrrlll [label="", shape = square, fillcolor="#ff00ff"]
rrlffsf [label="", shape = square, fillcolor="#ae5100"]
rrlfsf [label="", shape = square, fillcolor="#b14e00"]
rrlfffsf [label="", shape = square, fillcolor="#b14e00"]
fs [label="", shape = square, fillcolor="#758a00"]
fsf [label="", shape = square, fillcolor="#7a8500"]
fsff [label="", shape = square, fillcolor="#22dd00"]
fsffr [label="", shape = square, fillcolor="#1de200"]
fsffrf [label="", shape = square, fillcolor="#19e600"]
fsffrfs [label="", shape = square, fillcolor="#14eb00"]
fsffrfsf [label="", shape = square, fillcolor="#10ef00"]
rfffs [label="", shape = square, fillcolor="#a35c00"]
rfffss [label="", shape = square, fillcolor="#aa5500"]
rfffssf [label="", shape = square, fillcolor="#a85700"]
rffflsf [label="", shape = square, fillcolor="#916e00"]
s [label="", shape = square, fillcolor="#738c00"]
sr [label="", shape = square, fillcolor="#8f7000"]
srf [label="", shape = square, fillcolor="#906f00"]
srff [label="", shape = square, fillcolor="#8c7300"]
srfff [label="", shape = square, fillcolor="#a75800"]
srfffs [label="", shape = square, fillcolor="#a45b00"]
srfffsf [label="", shape = square, fillcolor="#a15e00"]
srfffsff [label="", shape = square, fillcolor="#9d6200"]
srfffsfff [label="", shape = square, fillcolor="#9a6500"]
ss [label="", shape = square, fillcolor="#817e00"]
sss [label="", shape = square, fillcolor="#798600"]
sssr [label="", shape = square, fillcolor="#5fa000"]
sssrl [label="", shape = square, fillcolor="#6c9300"]
sssrlf [label="", shape = square, fillcolor="#867900"]
rs [label="", shape = square, fillcolor="#7f8000"]
rsl [label="", shape = square, fillcolor="#887700"]
rslll [label="", shape = square, fillcolor="#8f7000"]
rslllf [label="", shape = square, fillcolor="#8c7300"]
lfffr [label="", shape = square, fillcolor="#5fa00"]
lsfffr [label="", shape = square, fillcolor="#0ff00"]
rffflsl [label="", shape = square, fillcolor="#986700"]
rffflslf [label="", shape = square, fillcolor="#a65900"]
ffff [label="", shape = square, fillcolor="#996600"]
fffff [label="", shape = square, fillcolor="#956a00"]
ffffff [label="", shape = square, fillcolor="#9d6200"]
fffffff [label="", shape = square, fillcolor="#af5000"]
ffffffff [label="", shape = square, fillcolor="#ac5300"]
lsrrlf [label="", shape = square, fillcolor="#0ff00"]
rffr [label="", shape = square, fillcolor="#a05f00"]
lsrrlls [label="", shape = square, fillcolor="#ff00ff"]
rrr [label="", shape = square, fillcolor="#a85700"]
rrrr [label="", shape = square, fillcolor="#ab5400"]
rffff [label="", shape = square, fillcolor="#b34c00"]
rffffs [label="", shape = square, fillcolor="#b04f00"]
rffffsf [label="", shape = square, fillcolor="#b04f00"]
rffs [label="", shape = square, fillcolor="#a15e00"]
rffsl [label="", shape = square, fillcolor="#b84700"]
rffsll [label="", shape = square, fillcolor="#bf4000"]
rffsllf [label="", shape = square, fillcolor="#b04f00"]
rfsllf [label="", shape = square, fillcolor="#9d6200"]
rsllf [label="", shape = square, fillcolor="#798600"]
rsll [label="", shape = square, fillcolor="#7d8200"]
rslllff [label="", shape = square, fillcolor="#9e6100"]
rffflllff [label="", shape = square, fillcolor="#b24d00"]
lsrfffl [label="", shape = square, fillcolor="#0ff00"]
lsrff [label="", shape = square, fillcolor="#0ff00"]
lsrrff [label="", shape = square, fillcolor="#0ff00"]
lsrrllfl [label="", shape = square, fillcolor="#0ff00"]
lsrrllfll [label="", shape = square, fillcolor="#0ff00"]
lsrrllfllf [label="", shape = square, fillcolor="#0ff00"]
lsrrllfllff [label="", shape = square, fillcolor="#1fe00"]
frffs [label="", shape = square, fillcolor="#877800"]
rfffr [label="", shape = square, fillcolor="#9a6500"]
rfffrr [label="", shape = square, fillcolor="#867900"]
rfffrf [label="", shape = square, fillcolor="#a05f00"]
rfffrl [label="", shape = square, fillcolor="#9d6200"]
ssss [label="", shape = square, fillcolor="#8b7400"]
sssss [label="", shape = square, fillcolor="#877800"]
ffffr [label="", shape = square, fillcolor="#a95600"]
ffffrl [label="", shape = square, fillcolor="#b14e00"]
ffffrll [label="", shape = square, fillcolor="#ae5100"]
ffffrlls [label="", shape = square, fillcolor="#b44b00"]
ffffrllsf [label="", shape = square, fillcolor="#b14e00"]
fffrllsf [label="", shape = square, fillcolor="#867900"]
fffrsf [label="", shape = square, fillcolor="#778800"]
fffrsllf [label="", shape = square, fillcolor="#986700"]
fffrsrllf [label="", shape = square, fillcolor="#8a7500"]
fffrlls [label="", shape = square, fillcolor="#758a00"]
fffrlsfl [label="", shape = square, fillcolor="#887700"]
fffrlsf [label="", shape = square, fillcolor="#847b00"]
fffrlss [label="", shape = square, fillcolor="#728d00"]
fffrlsss [label="", shape = square, fillcolor="#6e9100"]
fffrlssss [label="", shape = square, fillcolor="#778800"]
fffrlssssf [label="", shape = square, fillcolor="#28d700"]
lsrrflll [label="", shape = square, fillcolor="#0ff00"]
frfff [label="", shape = square, fillcolor="#ac5300"]
frfffl [label="", shape = square, fillcolor="#ce3100"]
frfffll [label="", shape = square, fillcolor="#cc3300"]
frfffllf [label="", shape = square, fillcolor="#db2400"]
frfffllfs [label="", shape = square, fillcolor="#e51a00"]
frfffllfsf [label="", shape = square, fillcolor="#e31c00"]
frffls [label="", shape = square, fillcolor="#807f00"]
frfflsl [label="", shape = square, fillcolor="#837c00"]
frfflls [label="", shape = square, fillcolor="#47b800"]
lsrrfr [label="", shape = square, fillcolor="#0ff00"]
lsrrfrr [label="", shape = square, fillcolor="#0ff00"]
lsrrfrrf [label="", shape = square, fillcolor="#0ff00"]
lsrrflrf [label="", shape = square, fillcolor="#0ff00"]
lsrrr [label="", shape = square, fillcolor="#0ff00"]
lsrrllll [label="", shape = square, fillcolor="#0ff00"]
rsfflls [label="", shape = square, fillcolor="#a25d00"]
rl [label="", shape = square, fillcolor="#748b00"]
rlfflls [label="", shape = square, fillcolor="#b84700"]
rlff [label="", shape = square, fillcolor="#ab5400"]
rlffs [label="", shape = square, fillcolor="#a85700"]
rlffss [label="", shape = square, fillcolor="#a55a00"]
rlffssf [label="", shape = square, fillcolor="#a25d00"]
fffssf [label="", shape = square, fillcolor="#a25d00"]
lsrffs [label="", shape = square, fillcolor="#0ff00"]
lsrrfs [label="", shape = square, fillcolor="#0ff00"]
lsrrls [label="", shape = square, fillcolor="#0ff00"]
rlr [label="", shape = square, fillcolor="#5aa500"]
rlrf [label="", shape = square, fillcolor="#50af00"]
rlrfr [label="", shape = square, fillcolor="#6b9400"]
rlrfrs [label="", shape = square, fillcolor="#6e9100"]
rlrfl [label="", shape = square, fillcolor="#649b00"]
rlrfls [label="", shape = square, fillcolor="#877800"]
lsrf [label="", shape = square, fillcolor="#0ff00"]
rfffsss [label="", shape = square, fillcolor="#af5000"]
rfffssss [label="", shape = square, fillcolor="#b14e00"]
lfffs [label="", shape = square, fillcolor="#34cb00"]
lsfffs [label="", shape = square, fillcolor="#0ff00"]
rsllff [label="", shape = square, fillcolor="#b64900"]
rsllfff [label="", shape = square, fillcolor="#b34c00"]
rsllffff [label="", shape = square, fillcolor="#9c6300"]
rsf [label="", shape = square, fillcolor="#9e6100"]
rsff [label="", shape = square, fillcolor="#b14e00"]
rsfff [label="", shape = square, fillcolor="#cb3400"]
rsfffllffff [label="", shape = square, fillcolor="#ff000"]
rsfffll [label="", shape = square, fillcolor="#fb400"]
rsffflll [label="", shape = square, fillcolor="#f9600"]
rsffflllffff [label="", shape = square, fillcolor="#e71800"]
rsffflllfff [label="", shape = square, fillcolor="#e41b00"]
rsffflllff [label="", shape = square, fillcolor="#e21d00"]
rsfflllff [label="", shape = square, fillcolor="#a65900"]
rffslllff [label="", shape = square, fillcolor="#c43b00"]
rffslll [label="", shape = square, fillcolor="#c23d00"]
rffsllll [label="", shape = square, fillcolor="#c03f00"]
rffslllll [label="", shape = square, fillcolor="#bd4200"]
rffslllllff [label="", shape = square, fillcolor="#b54a00"]
rffslflllff [label="", shape = square, fillcolor="#b84700"]
ffrslllllff [label="", shape = square, fillcolor="#eb1400"]
ffrs [label="", shape = square, fillcolor="#c93600"]
fffrf [label="", shape = square, fillcolor="#996600"]
fffrff [label="", shape = square, fillcolor="#c93600"]
fffrffs [label="", shape = square, fillcolor="#d22d00"]
fffrffsf [label="", shape = square, fillcolor="#d62900"]
fffrffssf [label="", shape = square, fillcolor="#d72800"]
fffrffss [label="", shape = square, fillcolor="#d52a00"]
fffrfl [label="", shape = square, fillcolor="#a45b00"]
fffrfll [label="", shape = square, fillcolor="#b94600"]
fffrflll [label="", shape = square, fillcolor="#cc3300"]
fffrflllf [label="", shape = square, fillcolor="#d92600"]
fffrflllff [label="", shape = square, fillcolor="#e01f00"]
fffrflllfff [label="", shape = square, fillcolor="#e31c00"]
fffrflls [label="", shape = square, fillcolor="#b44b00"]
fffrfllss [label="", shape = square, fillcolor="#b14e00"]
fffrss [label="", shape = square, fillcolor="#837c00"]
frssff [label="", shape = square, fillcolor="#23dc00"]
frss [label="", shape = square, fillcolor="#19e600"]
frsss [label="", shape = square, fillcolor="#14eb00"]
frssss [label="", shape = square, fillcolor="#10ef00"]
rlf [label="", shape = square, fillcolor="#8e7100"]
rlfs [label="", shape = square, fillcolor="#a25d00"]
rlfsr [label="", shape = square, fillcolor="#9f6000"]
rlfsrr [label="", shape = square, fillcolor="#9c6300"]
rffffss [label="", shape = square, fillcolor="#c03f00"]
rffffssf [label="", shape = square, fillcolor="#c73800"]
rffffl [label="", shape = square, fillcolor="#bb4400"]
rffffll [label="", shape = square, fillcolor="#c63900"]
rfffflll [label="", shape = square, fillcolor="#c33c00"]
rfffflllf [label="", shape = square, fillcolor="#c73800"]
rfffflllff [label="", shape = square, fillcolor="#c53a00"]
rfffllf [label="", shape = square, fillcolor="#b04f00"]
rfffllfl [label="", shape = square, fillcolor="#c43b00"]
rfffllflf [label="", shape = square, fillcolor="#b84700"]
rfffllfll [label="", shape = square, fillcolor="#cb3400"]
rfffllfllf [label="", shape = square, fillcolor="#cd3200"]
rffflf [label="", shape = square, fillcolor="#7c8300"]
rffflfl [label="", shape = square, fillcolor="#3cc300"]
rffflfll [label="", shape = square, fillcolor="#38c700"]
rffflflls [label="", shape = square, fillcolor="#34cb00"]
rffflfllsf [label="", shape = square, fillcolor="#40bf00"]
rffflfllsff [label="", shape = square, fillcolor="#44bb00"]
lsff [label="", shape = square, fillcolor="#4fb00"]
lsfff [label="", shape = square, fillcolor="#11ee00"]
lsffff [label="", shape = square, fillcolor="#10ef00"]
lsfffff [label="", shape = square, fillcolor="#cf300"]
lsffffff [label="", shape = square, fillcolor="#6f900"]
lsfffrr [label="", shape = square, fillcolor="#1fe00"]
lsffr [label="", shape = square, fillcolor="#0ff00"]
lsffrr [label="", shape = square, fillcolor="#6f900"]
lsffrrl [label="", shape = square, fillcolor="#8f700"]
lsfll [label="", shape = square, fillcolor="#49b600"]
lsfllf [label="", shape = square, fillcolor="#45ba00"]
lsfllfr [label="", shape = square, fillcolor="#41be00"]
lsfllfrr [label="", shape = square, fillcolor="#3cc300"]
lsfllfrrr [label="", shape = square, fillcolor="#38c700"]
lsfllfrrrf [label="", shape = square, fillcolor="#4fb000"]
lsfllfrrrff [label="", shape = square, fillcolor="#4bb400"]
lsfllfrrrfff [label="", shape = square, fillcolor="#47b800"]
lsfl [label="", shape = square, fillcolor="#5fa00"]
lsflrrr [label="", shape = square, fillcolor="#2dd200"]
lsflrrrf [label="", shape = square, fillcolor="#28d700"]
ffrf [label="", shape = square, fillcolor="#768900"]
ffrfl [label="", shape = square, fillcolor="#6c9300"]
ffrfll [label="", shape = square, fillcolor="#926d00"]
ffrflls [label="", shape = square, fillcolor="#857a00"]
ffrfllsf [label="", shape = square, fillcolor="#a75800"]
rrfl [label="", shape = square, fillcolor="#926d00"]
rrflll [label="", shape = square, fillcolor="#a95600"]
rrfllls [label="", shape = square, fillcolor="#aa5500"]
rrflllsf [label="", shape = square, fillcolor="#a95600"]
rrfll [label="", shape = square, fillcolor="#966900"]
rrflls [label="", shape = square, fillcolor="#8c7300"]
fsr [label="", shape = square, fillcolor="#847b00"]
fsrs [label="", shape = square, fillcolor="#817e00"]
sfsrs [label="", shape = square, fillcolor="#b64900"]
sfsrsf [label="", shape = square, fillcolor="#cc3300"]
sfsrsfs [label="", shape = square, fillcolor="#dd2200"]
sfsrsfsf [label="", shape = square, fillcolor="#e91600"]
sfsrsfsfs [label="", shape = square, fillcolor="#f0f00"]
sfsrsfsfsf [label="", shape = square, fillcolor="#f3c00"]
sfsr [label="", shape = square, fillcolor="#b94600"]
sfsrsl [label="", shape = square, fillcolor="#936c00"]
sfsrsls [label="", shape = square, fillcolor="#906f00"]
srsls [label="", shape = square, fillcolor="#986700"]
srs [label="", shape = square, fillcolor="#906f00"]
ffrfls [label="", shape = square, fillcolor="#57a800"]
frfls [label="", shape = square, fillcolor="#ff000"]
rrl [label="", shape = square, fillcolor="#936c00"]
rrlf [label="", shape = square, fillcolor="#936c00"]
rrlfl [label="", shape = square, fillcolor="#a15e00"]
rrlfll [label="", shape = square, fillcolor="#996600"]
rrlflsl [label="", shape = square, fillcolor="#a15e00"]
rrlfls [label="", shape = square, fillcolor="#9e6100"]
rrlflls [label="", shape = square, fillcolor="#887700"]
rrlflll [label="", shape = square, fillcolor="#ad5200"]
rrlflsll [label="", shape = square, fillcolor="#aa5500"]
rrlfllls [label="", shape = square, fillcolor="#a45b00"]
ffffl [label="", shape = square, fillcolor="#a15e00"]
ffffll [label="", shape = square, fillcolor="#9e6100"]
ffffllf [label="", shape = square, fillcolor="#9b6400"]
ffffllff [label="", shape = square, fillcolor="#9e6100"]
frfflfl [label="", shape = square, fillcolor="#a75800"]
frffllfl [label="", shape = square, fillcolor="#a45b00"]
frffllfsl [label="", shape = square, fillcolor="#a15e00"]
frffllfs [label="", shape = square, fillcolor="#9d6200"]
frffllsf [label="", shape = square, fillcolor="#807f00"]
frffllsfl [label="", shape = square, fillcolor="#7d8200"]
frfflsfll [label="", shape = square, fillcolor="#35ca00"]
frfflsfl [label="", shape = square, fillcolor="#31ce00"]
frfflslfl [label="", shape = square, fillcolor="#2dd200"]
frffllslfl [label="", shape = square, fillcolor="#28d700"]
rrffflls [label="", shape = square, fillcolor="#b84700"]
rrfflflls [label="", shape = square, fillcolor="#b24d00"]
rrfffllls [label="", shape = square, fillcolor="#b94600"]
rrffllls [label="", shape = square, fillcolor="#af5000"]
lff [label="", shape = square, fillcolor="#bc4300"]
lfff [label="", shape = square, fillcolor="#d82700"]
lffff [label="", shape = square, fillcolor="#ff000"]
lffffs [label="", shape = square, fillcolor="#ff000"]
lffffsf [label="", shape = square, fillcolor="#ff000"]
lsrrlr [label="", shape = square, fillcolor="#0ff00"]
lsrrlrf [label="", shape = square, fillcolor="#0ff00"]
lsrrlrr [label="", shape = square, fillcolor="#0ff00"]
fffrsl [label="", shape = square, fillcolor="#a05f00"]
ffflls [label="", shape = square, fillcolor="#847b00"]
fffrlsl [label="", shape = square, fillcolor="#8c7300"]
ffflsl [label="", shape = square, fillcolor="#ad5200"]
ffflslf [label="", shape = square, fillcolor="#aa5500"]
rfffrrs [label="", shape = square, fillcolor="#10ef00"]
rfr [label="", shape = square, fillcolor="#689700"]
rfrf [label="", shape = square, fillcolor="#738c00"]
rfrfl [label="", shape = square, fillcolor="#778800"]
rfrl [label="", shape = square, fillcolor="#5da200"]
rfrll [label="", shape = square, fillcolor="#59a600"]
rfrlll [label="", shape = square, fillcolor="#14eb00"]
rfrllls [label="", shape = square, fillcolor="#10ef00"]
ffrflsf [label="", shape = square, fillcolor="#758a00"]
rffffllls [label="", shape = square, fillcolor="#b44b00"]
rfffflllss [label="", shape = square, fillcolor="#b14e00"]
ssssss [label="", shape = square, fillcolor="#7a8500"]
rslls [label="", shape = square, fillcolor="#21de00"]
rsllsf [label="", shape = square, fillcolor="#1de200"]
rsllsff [label="", shape = square, fillcolor="#18e700"]
rllsff [label="", shape = square, fillcolor="#14eb00"]
lsrrllff [label="", shape = square, fillcolor="#0ff00"]
lrfff [label="", shape = square, fillcolor="#0ff00"]
lsrfff [label="", shape = square, fillcolor="#0ff00"]
rfffsf [label="", shape = square, fillcolor="#ac5300"]
rfffflllfff [label="", shape = square, fillcolor="#bd4200"]
rffffllfff [label="", shape = square, fillcolor="#cd3200"]
rfffflfff [label="", shape = square, fillcolor="#c83700"]
rfffffff [label="", shape = square, fillcolor="#ab5400"]
rfffff [label="", shape = square, fillcolor="#b64900"]
rfffffs [label="", shape = square, fillcolor="#c03f00"]
rfffffsf [label="", shape = square, fillcolor="#bd4200"]
rfffffsff [label="", shape = square, fillcolor="#b94600"]
ffffrlll [label="", shape = square, fillcolor="#a25d00"]
ffffrlllf [label="", shape = square, fillcolor="#9f6000"]
fffl [label="", shape = square, fillcolor="#807f00"]
fffrlsssf [label="", shape = square, fillcolor="#956a00"]
fffrlsssff [label="", shape = square, fillcolor="#926d00"]
fffrllsssff [label="", shape = square, fillcolor="#956a00"]
fffrllss [label="", shape = square, fillcolor="#877800"]
fffrlsll [label="", shape = square, fillcolor="#867900"]
rrlfllsf [label="", shape = square, fillcolor="#a25d00"]
rrlfllsff [label="", shape = square, fillcolor="#9f6000"]
rrlfllsffs [label="", shape = square, fillcolor="#a25d00"]
rrlfllsfsf [label="", shape = square, fillcolor="#966900"]
rrlfllssf [label="", shape = square, fillcolor="#14eb00"]
rrlfllssff [label="", shape = square, fillcolor="#10ef00"]
rffflslr [label="", shape = square, fillcolor="#a65900"]
rfffllslr [label="", shape = square, fillcolor="#a45b00"]
rfffslrll [label="", shape = square, fillcolor="#ac5300"]
lsrrfllr [label="", shape = square, fillcolor="#0ff00"]
lsrrflr [label="", shape = square, fillcolor="#0ff00"]
lsrrllr [label="", shape = square, fillcolor="#ff00ff"]
lffrl [label="", shape = square, fillcolor="#31ce00"]
lfffl [label="", shape = square, fillcolor="#4eb100"]
lsfffl [label="", shape = square, fillcolor="#0ff00"]
lsrffl [label="", shape = square, fillcolor="#0ff00"]
lsrfl [label="", shape = square, fillcolor="#7f800"]
lsrflf [label="", shape = square, fillcolor="#15ea00"]
lsrflff [label="", shape = square, fillcolor="#10ef00"]
lsrfllff [label="", shape = square, fillcolor="#0ff00"]
lsrrfllff [label="", shape = square, fillcolor="#0ff00"]
lsrrflff [label="", shape = square, fillcolor="#0ff00"]
flf [label="", shape = square, fillcolor="#807f00"]
flff [label="", shape = square, fillcolor="#7c8300"]
flffl [label="", shape = square, fillcolor="#798600"]
rffl [label="", shape = square, fillcolor="#a85700"]
rfffsl [label="", shape = square, fillcolor="#ae5100"]
lfffls [label="", shape = square, fillcolor="#718e00"]
lsfrfl [label="", shape = square, fillcolor="#9f600"]
lsfrrl [label="", shape = square, fillcolor="#4fb00"]
lsfrrll [label="", shape = square, fillcolor="#0ff00"]
fffrfs [label="", shape = square, fillcolor="#966900"]
fffrfsf [label="", shape = square, fillcolor="#8e7100"]
rffslllf [label="", shape = square, fillcolor="#bf4000"]
rfs [label="", shape = square, fillcolor="#a55a00"]
rfslllf [label="", shape = square, fillcolor="#c03f00"]
rss [label="", shape = square, fillcolor="#49b600"]
rsss [label="", shape = square, fillcolor="#45ba00"]
rsssl [label="", shape = square, fillcolor="#19e600"]
rsssll [label="", shape = square, fillcolor="#14eb00"]
rssslls [label="", shape = square, fillcolor="#10ef00"]
rffll [label="", shape = square, fillcolor="#ad5200"]
lsrrrl [label="", shape = square, fillcolor="#0ff00"]
lsrrrll [label="", shape = square, fillcolor="#0ff00"]
lsrrrlll [label="", shape = square, fillcolor="#0ff00"]
lsrrrlllf [label="", shape = square, fillcolor="#0ff00"]
lsrrlllf [label="", shape = square, fillcolor="#0ff00"]
lsrfr [label="", shape = square, fillcolor="#0ff00"]
lsrfrl [label="", shape = square, fillcolor="#0ff00"]
lsrfrll [label="", shape = square, fillcolor="#0ff00"]
ffrfs [label="", shape = square, fillcolor="#768900"]
fls [label="", shape = square, fillcolor="#4ab500"]
rffsf [label="", shape = square, fillcolor="#b44b00"]
rffssf [label="", shape = square, fillcolor="#d52a00"]
rffssff [label="", shape = square, fillcolor="#d22d00"]
rffss [label="", shape = square, fillcolor="#ca3500"]
rfffrs [label="", shape = square, fillcolor="#af5000"]
rfffrsr [label="", shape = square, fillcolor="#ac5300"]
rffflrsr [label="", shape = square, fillcolor="#a55a00"]
rffflsr [label="", shape = square, fillcolor="#976800"]
rfflsl [label="", shape = square, fillcolor="#9b6400"]
rfffllsl [label="", shape = square, fillcolor="#a15e00"]
rffflsll [label="", shape = square, fillcolor="#867900"]
rfffllls [label="", shape = square, fillcolor="#b24d00"]
rffflll [label="", shape = square, fillcolor="#ae5100"]
rfffslsll [label="", shape = square, fillcolor="#d62900"]
rfffslssll [label="", shape = square, fillcolor="#d42b00"]
rfffsls [label="", shape = square, fillcolor="#e01f00"]
rffflsslls [label="", shape = square, fillcolor="#b84700"]
rffflssll [label="", shape = square, fillcolor="#c83700"]
rffflsslsl [label="", shape = square, fillcolor="#c53a00"]
rffflss [label="", shape = square, fillcolor="#b84700"]
rfffllslss [label="", shape = square, fillcolor="#a95600"]
rfffllsss [label="", shape = square, fillcolor="#bb4400"]
rfffllssss [label="", shape = square, fillcolor="#b84700"]
rfffllsssss [label="", shape = square, fillcolor="#b54a00"]
rffflsssss [label="", shape = square, fillcolor="#b54a00"]
lrrf [label="", shape = square, fillcolor="#14eb00"]
lrfffl [label="", shape = square, fillcolor="#1fe00"]
ffs [label="", shape = square, fillcolor="#5da200"]
ffls [label="", shape = square, fillcolor="#936c00"]
ffrll [label="", shape = square, fillcolor="#a05f00"]
ffrlsl [label="", shape = square, fillcolor="#9e6100"]
ffrlls [label="", shape = square, fillcolor="#9d6200"]
ffrrlls [label="", shape = square, fillcolor="#9b6400"]
flffrlls [label="", shape = square, fillcolor="#0ff00"]
flffrll [label="", shape = square, fillcolor="#0ff00"]
flsffrll [label="", shape = square, fillcolor="#0ff00"]
flsff [label="", shape = square, fillcolor="#0ff00"]
flsrllff [label="", shape = square, fillcolor="#0ff00"]
flsrrllff [label="", shape = square, fillcolor="#0ff00"]
lfsrrllff [label="", shape = square, fillcolor="#23dc00"]
lsfrrllff [label="", shape = square, fillcolor="#2dd200"]
lsl [label="", shape = square, fillcolor="#0ff00"]
rfffsll [label="", shape = square, fillcolor="#bf4000"]
rfffslll [label="", shape = square, fillcolor="#bc4300"]
rfffslllf [label="", shape = square, fillcolor="#c23d00"]
rfffslllff [label="", shape = square, fillcolor="#bf4000"]
rflllff [label="", shape = square, fillcolor="#b14e00"]
rfslllff [label="", shape = square, fillcolor="#b64900"]
rffsls [label="", shape = square, fillcolor="#bd4200"]
rffslsllff [label="", shape = square, fillcolor="#c03f00"]
rfslsllff [label="", shape = square, fillcolor="#23dc00"]
lsrrlfl [label="", shape = square, fillcolor="#0ff00"]
rffffssff [label="", shape = square, fillcolor="#c83700"]
rfffflls [label="", shape = square, fillcolor="#c23d00"]
rffffsll [label="", shape = square, fillcolor="#dc2300"]
rffffslll [label="", shape = square, fillcolor="#d92600"]
rffffsllls [label="", shape = square, fillcolor="#d72800"]
rffffslllsf [label="", shape = square, fillcolor="#d42b00"]
rffffslllsff [label="", shape = square, fillcolor="#cc3300"]
rfffflllsff [label="", shape = square, fillcolor="#d32c00"]
rffflllsff [label="", shape = square, fillcolor="#ae5100"]
rfflllsff [label="", shape = square, fillcolor="#c03f00"]
rfflls [label="", shape = square, fillcolor="#9e6100"]
rffllsl [label="", shape = square, fillcolor="#af5000"]
rrfllsl [label="", shape = square, fillcolor="#aa5500"]
rrfllslf [label="", shape = square, fillcolor="#a75800"]
rfrlls [label="", shape = square, fillcolor="#966900"]
frr [label="", shape = square, fillcolor="#916e00"]
frrl [label="", shape = square, fillcolor="#8e7100"]
frrll [label="", shape = square, fillcolor="#8a7500"]
rrll [label="", shape = square, fillcolor="#976800"]
frl [label="", shape = square, fillcolor="#22dd00"]
frlr [label="", shape = square, fillcolor="#1de200"]
frlrl [label="", shape = square, fillcolor="#19e600"]
frlrls [label="", shape = square, fillcolor="#14eb00"]
frlrlsf [label="", shape = square, fillcolor="#10ef00"]
rfslll [label="", shape = square, fillcolor="#c53a00"]
rffsflll [label="", shape = square, fillcolor="#c93600"]
rffsfslll [label="", shape = square, fillcolor="#c63900"]
rfsls [label="", shape = square, fillcolor="#867900"]
rrls [label="", shape = square, fillcolor="#639c00"]
rrs [label="", shape = square, fillcolor="#9a6500"]
rrsl [label="", shape = square, fillcolor="#976800"]
rrsll [label="", shape = square, fillcolor="#936c00"]
sssrls [label="", shape = square, fillcolor="#59a600"]
sssrlsf [label="", shape = square, fillcolor="#19e600"]
lsssrlsf [label="", shape = square, fillcolor="#0ff00"]
lsrrsll [label="", shape = square, fillcolor="#0ff00"]
rfffsfs [label="", shape = square, fillcolor="#b04f00"]
rfffsfsf [label="", shape = square, fillcolor="#ae5100"]
rfffrsrf [label="", shape = square, fillcolor="#ad5200"]
rffflsrf [label="", shape = square, fillcolor="#aa5500"]
lsrrrr [label="", shape = square, fillcolor="#0ff00"]
lsrrrrr [label="", shape = square, fillcolor="#0ff00"]
lsrrlfr [label="", shape = square, fillcolor="#0ff00"]
lsrrlff [label="", shape = square, fillcolor="#0ff00"]
rsfs [label="", shape = square, fillcolor="#af5000"]
rsfsf [label="", shape = square, fillcolor="#b24d00"]
lsfrr [label="", shape = square, fillcolor="#9f600"]
rsls [label="", shape = square, fillcolor="#b04f00"]
rslsf [label="", shape = square, fillcolor="#ad5200"]
rslsff [label="", shape = square, fillcolor="#aa5500"]
rslsfff [label="", shape = square, fillcolor="#a75800"]
rslsffff [label="", shape = square, fillcolor="#a45b00"]
rslsfffff [label="", shape = square, fillcolor="#a15e00"]
rffffls [label="", shape = square, fillcolor="#ad5200"]
rfffflss [label="", shape = square, fillcolor="#c83700"]
rfffflsss [label="", shape = square, fillcolor="#c53a00"]
rrfff [label="", shape = square, fillcolor="#877800"]
rrfffl [label="", shape = square, fillcolor="#798600"]
rrfffls [label="", shape = square, fillcolor="#758a00"]
rrffflsf [label="", shape = square, fillcolor="#718e00"]
rrffflsff [label="", shape = square, fillcolor="#6e9100"]
llfffffs [label="", shape = square, fillcolor="#3bc400"]
ffrllsf [label="", shape = square, fillcolor="#a25d00"]
fffrlf [label="", shape = square, fillcolor="#906f00"]
fffrlfs [label="", shape = square, fillcolor="#877800"]
sssssss [label="", shape = square, fillcolor="#629d00"]
lslssssss [label="", shape = square, fillcolor="#19e600"]
lslsssss [label="", shape = square, fillcolor="#14eb00"]
lslssss [label="", shape = square, fillcolor="#10ef00"]
rsffrrrff [label="", shape = square, fillcolor="#10ef00"]
rffffslf [label="", shape = square, fillcolor="#b84700"]
rffffsff [label="", shape = square, fillcolor="#b54a00"]
rffffsss [label="", shape = square, fillcolor="#ce3100"]
rffffssss [label="", shape = square, fillcolor="#cb3400"]
rffffssssf [label="", shape = square, fillcolor="#ce3100"]
rffsss [label="", shape = square, fillcolor="#c83700"]
rffssss [label="", shape = square, fillcolor="#c53a00"]
rffsssss [label="", shape = square, fillcolor="#bf4000"]
rffsssssfff [label="", shape = square, fillcolor="#d72800"]
rffssssfff [label="", shape = square, fillcolor="#be4100"]
fffsssss [label="", shape = square, fillcolor="#887700"]
lffsssss [label="", shape = square, fillcolor="#847b00"]
lffssss [label="", shape = square, fillcolor="#817e00"]
lffss [label="", shape = square, fillcolor="#788700"]
lffsss [label="", shape = square, fillcolor="#9f6000"]
lffsssff [label="", shape = square, fillcolor="#976800"]
lffsssffff [label="", shape = square, fillcolor="#8e7100"]
lffsssfff [label="", shape = square, fillcolor="#8b7400"]
lffssfff [label="", shape = square, fillcolor="#1de200"]
lffssff [label="", shape = square, fillcolor="#19e600"]
lrfssff [label="", shape = square, fillcolor="#14eb00"]
lrrssff [label="", shape = square, fillcolor="#10ef00"]
lsrrflls [label="", shape = square, fillcolor="#0ff00"]
lsrffflls [label="", shape = square, fillcolor="#0ff00"]
fffrfsff [label="", shape = square, fillcolor="#9e6100"]
fffrfss [label="", shape = square, fillcolor="#a45b00"]
fffrfsss [label="", shape = square, fillcolor="#b94600"]
fffrfsssff [label="", shape = square, fillcolor="#b04f00"]
rrfs [label="", shape = square, fillcolor="#669900"]
rrlsl [label="", shape = square, fillcolor="#2bd400"]
rrlsls [label="", shape = square, fillcolor="#27d800"]
rrlslsf [label="", shape = square, fillcolor="#22dd00"]
rrlslsfl [label="", shape = square, fillcolor="#1ee100"]
rslllfff [label="", shape = square, fillcolor="#a75800"]
rffslllfff [label="", shape = square, fillcolor="#c63900"]
rfffsff [label="", shape = square, fillcolor="#aa5500"]
rfffllll [label="", shape = square, fillcolor="#c13e00"]
rffflllls [label="", shape = square, fillcolor="#c43b00"]
rffflllll [label="", shape = square, fillcolor="#c43b00"]
lsss [label="", shape = square, fillcolor="#0ff00"]
lfr [label="", shape = square, fillcolor="#c13e00"]
lfrr [label="", shape = square, fillcolor="#be4100"]
lfrrl [label="", shape = square, fillcolor="#bb4400"]
lfrrll [label="", shape = square, fillcolor="#b84700"]
lfrrlls [label="", shape = square, fillcolor="#b54a00"]
rfsllfff [label="", shape = square, fillcolor="#c43b00"]
rfslllfff [label="", shape = square, fillcolor="#c13e00"]
rflllfffs [label="", shape = square, fillcolor="#c23d00"]
rffllfffs [label="", shape = square, fillcolor="#c03f00"]
rfffffsll [label="", shape = square, fillcolor="#c33c00"]
rffffsllf [label="", shape = square, fillcolor="#c53a00"]
rfffsllff [label="", shape = square, fillcolor="#b54a00"]
rfffllffs [label="", shape = square, fillcolor="#c83700"]
rfffllff [label="", shape = square, fillcolor="#c53a00"]
rfffllsff [label="", shape = square, fillcolor="#c33c00"]
rrfffllsff [label="", shape = square, fillcolor="#d82700"]
rrfffll [label="", shape = square, fillcolor="#cb3400"]
rrfsffffll [label="", shape = square, fillcolor="#be4100"]
rfsffffll [label="", shape = square, fillcolor="#bb4400"]
rfffffll [label="", shape = square, fillcolor="#bc4300"]
rffsfffll [label="", shape = square, fillcolor="#b94600"]
rfsf [label="", shape = square, fillcolor="#22dd00"]
rfsfs [label="", shape = square, fillcolor="#1de200"]
rfsfss [label="", shape = square, fillcolor="#19e600"]
lffs [label="", shape = square, fillcolor="#af5000"]
fffrfff [label="", shape = square, fillcolor="#ff000"]
fffrffff [label="", shape = square, fillcolor="#ff000"]
fffrffffs [label="", shape = square, fillcolor="#ff000"]
fffrffffsf [label="", shape = square, fillcolor="#ff000"]
fffrfffsf [label="", shape = square, fillcolor="#ff000"]
ffffsf [label="", shape = square, fillcolor="#877800"]
fffrllfsf [label="", shape = square, fillcolor="#956a00"]
fffrlslfsf [label="", shape = square, fillcolor="#906f00"]
fffrllslfsf [label="", shape = square, fillcolor="#996600"]
fffrlslslfsf [label="", shape = square, fillcolor="#679800"]
fffrsllslfsf [label="", shape = square, fillcolor="#ac5300"]
lsfffrllslfsf [label="", shape = square, fillcolor="#38c700"]
lsffrrf [label="", shape = square, fillcolor="#0ff00"]
rsfsfsfsf [label="", shape = square, fillcolor="#9f6000"]
fsfs [label="", shape = square, fillcolor="#cb3400"]
fsfsf [label="", shape = square, fillcolor="#e91600"]
fsfsfs [label="", shape = square, fillcolor="#e71800"]
fsfsfsr [label="", shape = square, fillcolor="#f8700"]
fsfsfsrr [label="", shape = square, fillcolor="#f6900"]
fsfsfsrrf [label="", shape = square, fillcolor="#f3c00"]
fsfsr [label="", shape = square, fillcolor="#a85700"]
fsfsrl [label="", shape = square, fillcolor="#a55a00"]
fsfsrlf [label="", shape = square, fillcolor="#a25d00"]
lsrrrf [label="", shape = square, fillcolor="#0ff00"]
lsrrrfl [label="", shape = square, fillcolor="#0ff00"]
lsrrrfll [label="", shape = square, fillcolor="#0ff00"]
lsrrrflls [label="", shape = square, fillcolor="#0ff00"]
rflll [label="", shape = square, fillcolor="#b74800"]
rflllf [label="", shape = square, fillcolor="#b44b00"]
rfffrrf [label="", shape = square, fillcolor="#a65900"]
rffflsls [label="", shape = square, fillcolor="#a65900"]
rssss [label="", shape = square, fillcolor="#40bf00"]
rsssss [label="", shape = square, fillcolor="#37c800"]
rssssss [label="", shape = square, fillcolor="#1de200"]
lssssss [label="", shape = square, fillcolor="#19e600"]
lr [label="", shape = square, fillcolor="#30cf00"]
fss [label="", shape = square, fillcolor="#4cb300"]
fsss [label="", shape = square, fillcolor="#48b700"]
fssss [label="", shape = square, fillcolor="#44bb00"]
rsssssf [label="", shape = square, fillcolor="#3bc400"]
lsrrrrf [label="", shape = square, fillcolor="#0ff00"]
lsrrrlf [label="", shape = square, fillcolor="#0ff00"]
ffffrs [label="", shape = square, fillcolor="#9b6400"]
ffrsl [label="", shape = square, fillcolor="#fd200"]
ffrsll [label="", shape = square, fillcolor="#fb400"]
ffrslll [label="", shape = square, fillcolor="#f9600"]
ffrsllfl [label="", shape = square, fillcolor="#f6900"]
ffrsllffl [label="", shape = square, fillcolor="#f4b00"]
ffrsllff [label="", shape = square, fillcolor="#f2d00"]
ffrsrlff [label="", shape = square, fillcolor="#ef1000"]
ffrsrllf [label="", shape = square, fillcolor="#ed1200"]
ffrsrlll [label="", shape = square, fillcolor="#ea1500"]
ffrsrllll [label="", shape = square, fillcolor="#e81700"]
ffrsrllllf [label="", shape = square, fillcolor="#e61900"]
ffrflll [label="", shape = square, fillcolor="#9d6200"]
ffrflllf [label="", shape = square, fillcolor="#9a6500"]
ffrflsl [label="", shape = square, fillcolor="#5ca300"]
ffrflsls [label="", shape = square, fillcolor="#58a700"]
lfrflsls [label="", shape = square, fillcolor="#54ab00"]
lsfrflsls [label="", shape = square, fillcolor="#50af00"]
lsrrflsls [label="", shape = square, fillcolor="#4cb300"]
lsrfflsls [label="", shape = square, fillcolor="#50af00"]
lsrrffsls [label="", shape = square, fillcolor="#40bf00"]
lsrfffsls [label="", shape = square, fillcolor="#3cc300"]
lsrffrsls [label="", shape = square, fillcolor="#38c700"]
lsrffr [label="", shape = square, fillcolor="#29d600"]
lsrffrl [label="", shape = square, fillcolor="#8f700"]
lsrffrll [label="", shape = square, fillcolor="#3fc00"]
lsrfrrll [label="", shape = square, fillcolor="#0ff00"]
lsrfrrl [label="", shape = square, fillcolor="#0ff00"]
lsrrrllf [label="", shape = square, fillcolor="#0ff00"]
fffs [label="", shape = square, fillcolor="#50af00"]
fffsl [label="", shape = square, fillcolor="#18e700"]
lfffsl [label="", shape = square, fillcolor="#14eb00"]
lffsl [label="", shape = square, fillcolor="#ff000"]
rffsr [label="", shape = square, fillcolor="#aa5500"]
rffsrr [label="", shape = square, fillcolor="#ad5200"]
fffls [label="", shape = square, fillcolor="#53ac00"]
fflsf [label="", shape = square, fillcolor="#986700"]
lffsf [label="", shape = square, fillcolor="#b24d00"]
ffsl [label="", shape = square, fillcolor="#2fd000"]
ffsll [label="", shape = square, fillcolor="#2bd400"]
ffslls [label="", shape = square, fillcolor="#26d900"]
ffsllss [label="", shape = square, fillcolor="#22dd00"]
rfsllss [label="", shape = square, fillcolor="#1de200"]
lfsllss [label="", shape = square, fillcolor="#19e600"]
lsllss [label="", shape = square, fillcolor="#0ff00"]
ssr [label="", shape = square, fillcolor="#a55a00"]
ssrf [label="", shape = square, fillcolor="#a25d00"]
ssrfl [label="", shape = square, fillcolor="#9f6000"]
ssrflf [label="", shape = square, fillcolor="#9c6300"]
ssrflff [label="", shape = square, fillcolor="#996600"]
rflff [label="", shape = square, fillcolor="#8f7000"]
rflss [label="", shape = square, fillcolor="#26d900"]
rflssf [label="", shape = square, fillcolor="#22dd00"]
rflssff [label="", shape = square, fillcolor="#1de200"]
lflssff [label="", shape = square, fillcolor="#19e600"]
lssff [label="", shape = square, fillcolor="#0ff00"]
lsrl [label="", shape = square, fillcolor="#0ff00"]
rffflsff [label="", shape = square, fillcolor="#a95600"]
rrffl [label="", shape = square, fillcolor="#ae5100"]
rrfflsff [label="", shape = square, fillcolor="#bc4300"]
rrflsff [label="", shape = square, fillcolor="#a05f00"]
rrfllss [label="", shape = square, fillcolor="#906f00"]
fffrlsff [label="", shape = square, fillcolor="#867900"]
fffrssss [label="", shape = square, fillcolor="#986700"]
fffrfsl [label="", shape = square, fillcolor="#996600"]
rsr [label="", shape = square, fillcolor="#33cc00"]
fflf [label="", shape = square, fillcolor="#a25d00"]
fflff [label="", shape = square, fillcolor="#9f6000"]
fflffs [label="", shape = square, fillcolor="#aa5500"]
fflffsf [label="", shape = square, fillcolor="#a75800"]
rrlff [label="", shape = square, fillcolor="#b44b00"]
rrlffs [label="", shape = square, fillcolor="#b14e00"]
fffrlfsl [label="", shape = square, fillcolor="#926d00"]
flsr [label="", shape = square, fillcolor="#2bd400"]
flsrr [label="", shape = square, fillcolor="#27d800"]
flsrrl [label="", shape = square, fillcolor="#22dd00"]
flsrrll [label="", shape = square, fillcolor="#1ee100"]
flsrrllf [label="", shape = square, fillcolor="#1ee100"]
lrffrl [label="", shape = square, fillcolor="#cf300"]
lsrffrllf [label="", shape = square, fillcolor="#ef100"]
lsrfrllf [label="", shape = square, fillcolor="#0ff00"]
fffll [label="", shape = square, fillcolor="#8d7200"]
flr [label="", shape = square, fillcolor="#57a800"]
fffllf [label="", shape = square, fillcolor="#8f7000"]
fffllff [label="", shape = square, fillcolor="#936c00"]
rrrf [label="", shape = square, fillcolor="#9a6500"]
rrflr [label="", shape = square, fillcolor="#966900"]
ffrlrls [label="", shape = square, fillcolor="#8f7000"]
ffrrrls [label="", shape = square, fillcolor="#8c7300"]
ffrfrls [label="", shape = square, fillcolor="#887700"]
ffrfslls [label="", shape = square, fillcolor="#4cb300"]
ffrflslls [label="", shape = square, fillcolor="#10ef00"]
fffrsff [label="", shape = square, fillcolor="#669900"]
lsssssss [label="", shape = square, fillcolor="#1ee100"]
lsfffrrf [label="", shape = square, fillcolor="#0ff00"]
lrrfff [label="", shape = square, fillcolor="#44bb00"]
lrs [label="", shape = square, fillcolor="#48b700"]
lrsrfff [label="", shape = square, fillcolor="#35ca00"]
lrsr [label="", shape = square, fillcolor="#26d900"]
lrsrl [label="", shape = square, fillcolor="#22dd00"]
lrsrll [label="", shape = square, fillcolor="#1de200"]
lrsrllf [label="", shape = square, fillcolor="#19e600"]
lsllf [label="", shape = square, fillcolor="#0ff00"]
lsflf [label="", shape = square, fillcolor="#0ff00"]
lsfrf [label="", shape = square, fillcolor="#0ff00"]
rffllf [label="", shape = square, fillcolor="#b04f00"]
lfs [label="", shape = square, fillcolor="#5fa00"]
rrllf [label="", shape = square, fillcolor="#9b6400"]
rrlfs [label="", shape = square, fillcolor="#a55a00"]
rrlfss [label="", shape = square, fillcolor="#b04f00"]
rrlfssf [label="", shape = square, fillcolor="#ad5200"]
lsfr [label="", shape = square, fillcolor="#df200"]
lsfrrllf [label="", shape = square, fillcolor="#11ee00"]
rfss [label="", shape = square, fillcolor="#38c700"]
rfsss [label="", shape = square, fillcolor="#57a800"]
rfsssll [label="", shape = square, fillcolor="#4eb100"]
rfssslls [label="", shape = square, fillcolor="#4ab500"]
rfsssl [label="", shape = square, fillcolor="#41be00"]
rfssl [label="", shape = square, fillcolor="#10ef00"]
rrfls [label="", shape = square, fillcolor="#a85700"]
rrflss [label="", shape = square, fillcolor="#a55a00"]
rrflssf [label="", shape = square, fillcolor="#a25d00"]
rll [label="", shape = square, fillcolor="#b64900"]
rllf [label="", shape = square, fillcolor="#b34c00"]
rllfl [label="", shape = square, fillcolor="#b04f00"]
rllfll [label="", shape = square, fillcolor="#ad5200"]
rllflll [label="", shape = square, fillcolor="#aa5500"]
rllfllll [label="", shape = square, fillcolor="#a75800"]
lffffsff [label="", shape = square, fillcolor="#ff000"]
rls [label="", shape = square, fillcolor="#2fd000"]
rlsr [label="", shape = square, fillcolor="#2bd400"]
rlsrr [label="", shape = square, fillcolor="#26d900"]
rlsrrl [label="", shape = square, fillcolor="#22dd00"]
rlsrrll [label="", shape = square, fillcolor="#1de200"]
llsrrll [label="", shape = square, fillcolor="#19e600"]
rsrr [label="", shape = square, fillcolor="#926d00"]
rlrfs [label="", shape = square, fillcolor="#5da200"]
rlrfss [label="", shape = square, fillcolor="#59a600"]
rfffllfs [label="", shape = square, fillcolor="#9a6500"]
ffflsf [label="", shape = square, fillcolor="#14eb00"]
ffflsff [label="", shape = square, fillcolor="#10ef00"]
rffflllsf [label="", shape = square, fillcolor="#b14e00"]
lsrfffff [label="", shape = square, fillcolor="#0ff00"]
lsrrfffff [label="", shape = square, fillcolor="#0ff00"]
rlrflss [label="", shape = square, fillcolor="#6d9200"]
rlrfll [label="", shape = square, fillcolor="#14eb00"]
rffsff [label="", shape = square, fillcolor="#bd4200"]
rffsfff [label="", shape = square, fillcolor="#bf4000"]
ssrff [label="", shape = square, fillcolor="#6b9400"]
sssrff [label="", shape = square, fillcolor="#679800"]
lsssr [label="", shape = square, fillcolor="#0ff00"]
fffrsfff [label="", shape = square, fillcolor="#35ca00"]
lfffrsfff [label="", shape = square, fillcolor="#31ce00"]
lfffrs [label="", shape = square, fillcolor="#23dc00"]
lffffffrs [label="", shape = square, fillcolor="#14eb00"]
lffffffr [label="", shape = square, fillcolor="#ff000"]
lsffffffr [label="", shape = square, fillcolor="#bf400"]
lsrffffff [label="", shape = square, fillcolor="#0ff00"]
lsrrffffff [label="", shape = square, fillcolor="#0ff00"]
lsrrflffff [label="", shape = square, fillcolor="#0ff00"]
lsrrfllfff [label="", shape = square, fillcolor="#0ff00"]
rffflr [label="", shape = square, fillcolor="#9b6400"]
lffffsr [label="", shape = square, fillcolor="#ff000"]
lffffsl [label="", shape = square, fillcolor="#e21d00"]
lffffslr [label="", shape = square, fillcolor="#e01f00"]
lffffsrl [label="", shape = square, fillcolor="#ff000"]
rrfllsf [label="", shape = square, fillcolor="#9f6000"]
srss [label="", shape = square, fillcolor="#897600"]
srsss [label="", shape = square, fillcolor="#867900"]
lsssss [label="", shape = square, fillcolor="#a25d00"]
rfffslsl [label="", shape = square, fillcolor="#1ee100"]
lsll [label="", shape = square, fillcolor="#0ff00"]
fffrlllff [label="", shape = square, fillcolor="#9f6000"]
lffr [label="", shape = square, fillcolor="#af500"]
rfflfls [label="", shape = square, fillcolor="#b54a00"]
rfffflsl [label="", shape = square, fillcolor="#a35c00"]
rssfffff [label="", shape = square, fillcolor="#9c6300"]
rsfsffff [label="", shape = square, fillcolor="#a65900"]
rsfsfsfff [label="", shape = square, fillcolor="#a25d00"]
rsfsfsfsff [label="", shape = square, fillcolor="#9f6000"]
lrr [label="", shape = square, fillcolor="#19e600"]
lrrfl [label="", shape = square, fillcolor="#10ef00"]
rrfflsl [label="", shape = square, fillcolor="#9e6100"]
rrffsl [label="", shape = square, fillcolor="#ad5200"]
rrffs [label="", shape = square, fillcolor="#aa5500"]
rrffsll [label="", shape = square, fillcolor="#a25d00"]
rrffls [label="", shape = square, fillcolor="#a15e00"]
fffrlslf [label="", shape = square, fillcolor="#a75800"]
rrlfllsl [label="", shape = square, fillcolor="#9d6200"]
rrlfllr [label="", shape = square, fillcolor="#9c6300"]
lffflsl [label="", shape = square, fillcolor="#a75800"]
rffflsss [label="", shape = square, fillcolor="#b74800"]
rffflsssf [label="", shape = square, fillcolor="#b44b00"]
rffflsssff [label="", shape = square, fillcolor="#b14e00"]
rffslllr [label="", shape = square, fillcolor="#b64900"]
rfslllr [label="", shape = square, fillcolor="#10ef00"]
start -> r
start -> f
start -> l
r -> rf
rf -> rff
rff -> rfff
rfff -> rfffl
rfffl -> rfffll
rfffl -> rfffls
rfffll -> rffflls
fl -> fls
l -> ls
ls -> lsr
lsr -> lsrr
lsrr -> lsrrl
lsrrl -> lsrrll
lsrrll -> lsrrllf
lsrrll -> lsrrlll
lsrrllf -> lsrrllfl
lsrrllf -> lsrrlll
lsrrllf -> lsrrllff
f -> ff
fr -> frf
frf -> frff
frff -> frffl
frff -> frffs
frffl -> frffll
frffll -> frfflls
frffllf -> frf
frffllf -> frffllfsl
frffllf -> frffllsf
frfl -> frflfllf
frflfllf -> f
rr -> rrf
rr -> rrl
rrf -> rrff
rrf -> rrfl
rrff -> rrfff
rrff -> rrffl
lsrrf -> lsrrfl
lsrrf -> lsrr
lsrrfl -> lsrrfll
lsrrfll -> lsrrfllf
lsrrfll -> lsrrflll
lsrrfllf -> lsrr
lsrrfllf -> lsrrf
lf -> lff
lsf -> lsff
rfl -> rfll
rfl -> rf
rfl -> rflss
rfll -> rfllf
rfll -> rflll
rfllf -> rfllsf
rfllsf -> rffllsf
rfffllsf -> l
rrfffllsf -> rrf
rrfffllsf -> rrflfllsf
rrflfllsf -> rrfllllsf
rrfllllsf -> rrflllslsf
rrflllslsf -> rsrflllslsf
rsrflllslsf -> r
ll -> llf
ll -> l
llf -> llff
llff -> llfff
llfff -> llffff
llffff -> llfffff
llfffff -> llffffff
llfffff -> l
llffffff -> llfffff
ff -> fff
fff -> fffr
fffr -> fffrl
fffrl -> fffrll
fffrl -> fffrls
fffrll -> fffrl
fffrll -> fffrlls
fffrllf -> fffrll
fffrlll -> fffrlllf
fffrlll -> fffrll
fffrlllf -> fffr
fffrlllf -> fffrlllff
fffrls -> fffrl
lsrfffllf -> lsrrffllf
lsrrffllf -> lsrrlfllf
lsrrlfllf -> lsrrllllf
lsrrllllf -> lsrrll
rfffls -> rfffl
rfffls -> rffflsl
ffr -> ffrl
ffr -> ffrf
ffrl -> ffrll
ffl -> ff
lsrrlll -> lsrrllll
lsrrlll -> lsrrll
rrlffsf -> rrlfsf
rrlffsf -> rrlfffsf
rrlffsf -> r
rrlfsf -> rrlffsf
rrlfffsf -> rrlffsf
fs -> fsf
fs -> fsr
fs -> fss
fsf -> fsff
fsf -> fsfs
fsff -> fsffr
fsffr -> fsffrf
fsffrf -> fsffrfs
fsffrfs -> fsffrfsf
rfffs -> rfffss
rfffs -> rfff
rfffss -> rfffssf
rfffss -> rfffsss
rfffssf -> rfffss
rfffssf -> rfff
rffflsf -> rfffls
s -> ss
sr -> srf
sr -> r
sr -> srs
srf -> srff
srff -> srfff
srff -> ssrff
srfff -> srfffs
srfffs -> srfffsf
srfffsf -> srfffsff
srfffsff -> srfffsfff
srfffsfff -> s
ss -> sss
ss -> s
sss -> sssr
sss -> ssss
sssr -> sssrl
sssrl -> sssrlf
sssrl -> sssrls
sssrlf -> sss
rs -> rsl
rs -> r
rsl -> rsll
rslll -> rslllf
rslllf -> rslllff
lfffr -> lsfffr
lsfffr -> ls
lsfffr -> lsfffrr
ffff -> ffffr
ffff -> fff
fffff -> ffffff
fffff -> ff
fffff -> fff
ffffff -> fffffff
ffffff -> fff
fffffff -> ffffffff
ffffffff -> r
lsrrlf -> lsrrl
lsrrlf -> lsrrllf
rffr -> rff
lsrrlls -> l
rrr -> rrrr
rrr -> rr
rrr -> fffssf
rrr -> rrrf
rrrr -> rrr
rffff -> rffffs
rffff -> rfff
rffffs -> rffffsf
rffffs -> rffff
rffffsf -> rfff
rffffsf -> rffffs
rffs -> rffsl
rffs -> rff
rffsl -> rffsll
rffsl -> rffsls
rffsl -> rffs
rffsll -> rffslll
rffsll -> rffsl
rffsllf -> rf
rffsllf -> rff
rfsllf -> r
rsllf -> rsll
rsllf -> rsllff
rsllf -> lsllf
rsll -> rslll
rsll -> rsllf
rslllff -> r
rslllff -> rslllf
rslllff -> rslllfff
rffflllff -> rfffl
rffflllff -> rff
lsrfffl -> lsrff
lsrfffl -> l
lsrff -> lsr
lsrrff -> lsrrf
lsrrff -> lsrr
lsrrllfl -> lsrrllfll
lsrrllfl -> lsrrll
lsrrllfll -> lsrrllfllf
lsrrllfll -> lsrrllfl
lsrrllfllf -> lsrrllfllff
lsrrllfllf -> lsrrllfll
lsrrllfllff -> lsrrllfllf
frffs -> frff
rfffr -> rfffrr
rfffr -> rfff
rfffr -> rfffrl
rfffrr -> rfffr
rfffrf -> rfffrl
rfffrl -> rfffr
ssss -> sssss
sssss -> ssssss
sssss -> lsssss
ffffr -> ffffrl
ffffr -> ffff
ffffr -> ffffrs
ffffrl -> ffffrll
ffffrll -> ffffrlls
ffffrll -> ffffrlll
ffffrlls -> ffffrllsf
ffffrllsf -> ffff
fffrllsf -> fffr
fffrllsf -> fffrl
fffrsf -> fffrs
fffrsf -> fffr
fffrsf -> fffrsff
fffrsllf -> fffrs
fffrsrllf -> fffr
fffrlls -> fffrl
fffrlsfl -> fffrlsf
fffrlsf -> fffrl
fffrlsf -> fffrls
fffrlsf -> fffrlsff
fffrlss -> fffrlsss
fffrlsss -> fffrlssss
fffrlssss -> fffrlssssf
fffrlssss -> fffr
fffrlssss -> fffrssss
fffrlssssf -> l
lsrrflll -> lsrrf
lsrrflll -> lsrr
frfff -> frfffl
frfff -> frff
frfffl -> frfffll
frfffll -> frfffllf
frfffll -> frfffl
frfffll -> frfff
frfffllf -> frfffllfs
frfffllf -> frfffll
frfffllfs -> frfffllfsf
frfffllfsf -> frfffllf
frffls -> frfflsl
frffls -> frffl
frfflsl -> frffls
frfflls -> l
frfflls -> r
lsrrfr -> lsrrfrr
lsrrfrr -> lsrrfrrf
lsrrfrrf -> lsrrflrf
lsrrflrf -> lsrrfllf
lsrrr -> lsrr
lsrrllll -> lsrrlll
rsfflls -> r
rl -> rlr
rlfflls -> rlff
rlff -> rlffs
rlffs -> rlffss
rlffss -> rlffssf
rlffssf -> r
fffssf -> r
lsrffs -> lsrrfs
lsrrfs -> lsrrls
lsrrls -> lsrrl
lsrrls -> lsrrlls
rlr -> rlrf
rlr -> rlrfl
rlrf -> rlrfr
rlrf -> rlrfs
rlrf -> l
rlrf -> rlrfl
rlrfr -> rlrfrs
rlrfr -> rlr
rlrfrs -> rlrfr
rlrfl -> rlrfls
rlrfl -> rlrfll
rlrfls -> r
rlrfls -> rlrflss
lsrf -> lsr
lsrf -> lsrfl
lsrf -> lsrffrllf
rfffsss -> rfffssss
rfffsss -> rfffs
rfffssss -> rfffsss
rfffssss -> rfffs
lfffs -> lsfffs
lfffs -> rrflls
lsfffs -> lsrffs
rsllff -> rsllfff
rsllfff -> rsllffff
rsllfff -> rfsllfff
rsllffff -> rs
rsf -> rsff
rsf -> rsfs
rsff -> rsfff
rsff -> rsfflllff
rsff -> rs
rsfff -> rsfffllffff
rsfff -> rsff
rsfff -> rsf
rsfff -> rssfffff
rsfffllffff -> rsfffll
rsfffll -> rsffflll
rsffflll -> rsffflllffff
rsffflllffff -> rsffflllfff
rsffflllfff -> rsffflllff
rsffflllff -> rsfff
rsfflllff -> r
rsfflllff -> rs
rffslllff -> rffslll
rffslllff -> rffs
rffslllff -> rffsl
rffslllff -> rffslllf
rffslll -> rffslllf
rffsllll -> rffslllll
rffslllll -> rffslllllff
rffslllllff -> rffslflllff
rffslllllff -> r
rffslllllff -> ff
rffslflllff -> rffslllllff
ffrslllllff -> ffrs
ffrs -> ffrsl
ffrs -> ffr
fffrf -> fffr
fffrf -> fffrfs
fffrff -> fffrf
fffrffs -> fffrffsf
fffrffs -> fffrff
fffrffsf -> fffrffssf
fffrffsf -> fffrff
fffrffssf -> fffrffss
fffrffss -> fffrffs
fffrfl -> fffrfll
fffrfl -> fffrf
fffrfl -> fffr
fffrfll -> fffrflll
fffrfll -> fffrfl
fffrfll -> fffrflls
fffrflll -> fffrflllf
fffrflll -> fffrfll
fffrflllf -> fffrflllff
fffrflllf -> fffrflll
fffrflllff -> fffrflllfff
fffrflllff -> fffrflllf
fffrflllfff -> fffrflllff
fffrflls -> fffrfllss
fffrfllss -> fffrfl
fffrss -> fff
fffrss -> fffr
frssff -> frss
frss -> frsss
frsss -> frssss
rlf -> rlfs
rlf -> rl
rlfs -> rlfsr
rlfsr -> rlfsrr
rlfsrr -> rlf
rffffss -> rffffssf
rffffss -> rffff
rffffssf -> rffffss
rffffssf -> rffffssff
rffffl -> rffffll
rffffl -> rffff
rffffll -> rfffflll
rffffll -> rfffflls
rfffflll -> rfffflllf
rfffflll -> rffffl
rfffflll -> rffffllls
rfffflllf -> rfffflllff
rfffflllf -> rfffflll
rfffflllff -> rfffflllf
rfffflllff -> rfffflllfff
rfffllf -> rfffllfl
rfffllfl -> rfffllflf
rfffllfl -> rfffllfll
rfffllfl -> rfffllfllf
rfffllfl -> rfffllf
rfffllflf -> rfffllf
rfffllfll -> rfffllfllf
rfffllfll -> rfffllfl
rfffllfllf -> rfffllfl
rfffllfllf -> rfffllfll
rffflf -> rffflfl
rffflf -> rfffll
rffflf -> rfffl
rffflfl -> rffflfll
rffflfll -> rffflflls
rffflflls -> rffflfllsf
rffflflls -> l
rffflfllsf -> rffflfllsff
rffflfllsf -> rffflflls
rffflfllsff -> rffflfllsf
lsff -> lsfff
lsff -> lsffr
lsfff -> lsffff
lsfff -> lsff
lsffff -> lsfffff
lsfffff -> lsffffff
lsfffff -> lsf
lsfffff -> lsrfffff
lsffffff -> lsfffff
lsffffff -> lsrffffff
lsfffrr -> lsfffr
lsfffrr -> lsfffrrf
lsffr -> lsffrr
lsffr -> ls
lsffr -> lsrfr
lsffrr -> lsffrrl
lsffrr -> lsffrrf
lsffrrl -> lsffrr
lsffrrl -> lsffr
lsfll -> lsfllf
lsfllf -> lsfllfr
lsfllfr -> lsfllfrr
lsfllfrr -> lsfllfrrr
lsfllfrrr -> lsfllfrrrf
lsfllfrrr -> lsfl
lsfllfrrrf -> lsfllfrrrff
lsfllfrrrff -> lsfllfrrrfff
lsfllfrrrfff -> lsfllfrrr
lsfl -> lsflrrr
lsfl -> lsrl
lsflrrr -> lsflrrrf
lsflrrrf -> lsf
ffrf -> ffrfl
ffrf -> ffrfs
ffrfl -> ffrfll
ffrfl -> ffrfls
ffrfll -> ffrflls
ffrfll -> ffrflll
ffrfll -> ff
ffrflls -> ffrfllsf
ffrflls -> ffrfslls
ffrflls -> ffrfll
ffrfllsf -> r
rrfl -> rrfll
rrflll -> rrfllls
rrfllls -> rrflllsf
rrfllls -> r
rrflllsf -> rrfll
rrflllsf -> rrflll
rrflllsf -> r
rrfll -> rrflls
rrfll -> rrflll
rrflls -> rrfll
fsr -> fsrs
fsrs -> s
sfsrs -> sfsrsf
sfsrs -> sfsr
sfsrs -> sfsrsl
sfsrsf -> sfsrsfs
sfsrsf -> sfsrs
sfsrsfs -> sfsrsfsf
sfsrsfs -> sfsrsf
sfsrsfsf -> sfsrsfsfs
sfsrsfsf -> sfsrsfs
sfsrsfsfs -> sfsrsfsfsf
sfsrsfsfs -> sfsrsfsf
sfsrsfsfsf -> sfsrsfsfs
sfsr -> sfsrs
sfsrsl -> sfsrsls
sfsrsls -> s
srsls -> srs
srs -> sr
srs -> srss
ffrfls -> frfls
ffrfls -> ffrflsf
ffrfls -> ffrflsl
ffrfls -> ffrfl
frfls -> l
rrl -> rrlf
rrlf -> rrlfl
rrlfl -> rrlfll
rrlfl -> rrlfls
rrlfll -> rrlflls
rrlflsl -> rrlfls
rrlfls -> rrlflls
rrlfls -> rrlfl
rrlfls -> rrlfllls
rrlfls -> r
rrlflls -> rrlfllsl
rrlflll -> rrlflsll
rrlflsll -> rrlfl
rrlflsll -> rrlfls
rrlfllls -> f
rrlfllls -> rr
ffffl -> ffffll
ffffll -> ffffllf
ffffllf -> ffffllff
ffffllf -> f
ffffllff -> ffffllf
frfflfl -> frffllfl
frffllfl -> frffllfsl
frffllfsl -> frffllf
frffllfsl -> frffllfs
frffllfs -> frffllf
frffllsf -> frffllsfl
frffllsfl -> frffll
frfflsfll -> frfflsfl
frfflsfl -> frfflslfl
frfflslfl -> frffllslfl
frffllslfl -> l
rrffflls -> rrfflflls
rrffflls -> rrfffllls
rrfflflls -> rrff
rrfffllls -> rrf
rrffllls -> rr
lff -> lfff
lfff -> lffff
lfff -> lfffl
lffff -> lffffs
lffffs -> lffffsf
lffffs -> lffffsr
lffffs -> lffffsl
lffffsf -> lffffsff
lsrrlr -> lsrrlrf
lsrrlr -> lsrrlrr
lsrrlr -> lsrrllr
lsrrlrf -> lsrrl
lsrrlrr -> lsrrl
lsrrlrr -> lsrrlfr
fffrsl -> fffr
fffrsl -> fffrsllslfsf
fffrsl -> fffrfsl
ffflls -> fffrls
ffflls -> fff
fffrlsl -> fffrl
ffflsl -> ffflslf
ffflslf -> rffflslf
rfr -> rfrf
rfr -> rfrl
rfrf -> rfrfl
rfrf -> rfr
rfrfl -> rfrf
rfrl -> rfrll
rfrll -> rfrlll
rfrll -> rfrlls
rfrlll -> rfrllls
ffrflsf -> ffrfl
rffffllls -> rfffflllss
rfffflllss -> r
ssssss -> r
ssssss -> sssssss
rslls -> rsllsf
rsllsf -> rsllsff
rsllsff -> rllsff
rllsff -> l
lsrrllff -> lsrrllf
lrfff -> l
lrfff -> lsrfff
lsrfff -> lsr
lsrfff -> lsrff
rfffsf -> rfffsff
rfffflllfff -> rffff
rfffflllfff -> s
rffffllfff -> rffffl
rfffflfff -> rffffl
rfffffff -> rfff
rfffff -> rfffffs
rfffff -> rffff
rfffffs -> rfffffsf
rfffffsf -> rfffffsff
rfffffsf -> rfffff
rfffffsff -> rff
ffffrlll -> ffffrlllf
ffffrlllf -> f
fffl -> fffll
fffrlsssf -> fffrlsssff
fffrlsssff -> fffrl
fffrllsssff -> fffrllss
fffrllss -> fffrl
fffrlsll -> fffrls
rrlfllsf -> rrlfllsff
rrlfllsff -> rrlfllsffs
rrlfllsff -> rrlfllsfsf
rrlfllsffs -> rrlfllsff
rrlfllsfsf -> rrlflls
rrlfllssf -> rrlfllssff
rffflslr -> rfffl
rffflslr -> rfffllslr
rfffllslr -> rfffll
rfffslrll -> r
lsrrfllr -> lsrrf
lsrrflr -> lsrr
lsrrllr -> lsrrll
lffrl -> lfffl
lffrl -> lrffrl
lfffl -> lsfffl
lfffl -> lfffls
lsfffl -> lsrffl
lsfffl -> lsfrfl
lsrffl -> lsrrfl
lsrffl -> lsr
lsrfl -> lsrflf
lsrfl -> lsrfllff
lsrflf -> lsrflff
lsrflff -> lsrfl
lsrfllff -> lsr
lsrrfllff -> lsrrfll
lsrrfllff -> lsrrllff
lsrrflff -> lsrr
flf -> flff
flff -> flffl
flffl -> frffl
rffl -> rff
rffl -> rffll
rfffsl -> rfff
rfffsl -> rfffsll
rfffsl -> rfffs
lfffls -> l
lfffls -> rfffls
lfffls -> lffflsl
lsfrfl -> lsfrrl
lsfrrl -> lsfrrll
lsfrrll -> ls
lsfrrll -> lsfrrllf
fffrfs -> fffrfsf
fffrfs -> fffrfss
fffrfsf -> fff
fffrfsf -> fffrfsff
fffrfsf -> fffr
rffslllf -> rf
rffslllf -> rffslll
rfs -> rf
rfslllf -> rfs
rfslllf -> rfslll
rfslllf -> rffslllf
rss -> rsss
rsss -> rs
rsssl -> rsssll
rsssll -> rssslls
rffll -> rfflls
lsrrrl -> lsrrrll
lsrrrll -> lsrrrlll
lsrrrll -> lsrr
lsrrrll -> lsrrfll
lsrrrll -> lsrrrllf
lsrrrlll -> lsrrrlllf
lsrrrlllf -> lsrrlllf
lsrrlllf -> lsrrlll
lsrfr -> lsrfrl
lsrfr -> lsrfrrll
lsrfr -> lsrrr
lsrfrl -> lsrfrll
lsrfrll -> lsr
lsrfrll -> lsrrrll
ffrfs -> ffrf
ffrfs -> f
ffrfs -> ffrfslls
fls -> f
fls -> flsr
rffsf -> rffs
rffssf -> rffssff
rffssff -> rffss
rffss -> rffffss
rffss -> rffsss
rffss -> rffssss
rfffrs -> rfffrsr
rfffrsr -> rffflrsr
rfffrsr -> rfffrsrf
rffflrsr -> rfffl
rffflsr -> rfffls
rfflsl -> rffflsl
rfffllsl -> rfffll
rffflsll -> rfffls
rffflsll -> rfffslsll
rffflsll -> l
rfffllls -> rffflll
rfffllls -> rffflllsf
rffflll -> rfffllls
rffflll -> rfffll
rfffslsll -> rfffslssll
rfffslssll -> rfffsls
rfffslssll -> rfffs
rfffsls -> rfffslssll
rffflsslls -> rfffls
rffflsslls -> rffflssll
rffflssll -> rffflsslsl
rffflsslsl -> rffflss
rffflss -> rfffllslss
rffflss -> rffflsss
rfffllslss -> rfffllsl
rfffllsss -> rfffllssss
rfffllssss -> rfffllsssss
rfffllsssss -> rfffl
rffflsssss -> rfff
lrrf -> lrrfl
lrfffl -> lsrfffl
ffs -> ff
ffs -> ffsl
ffls -> ffl
ffrll -> ffrlsl
ffrll -> ffrlls
ffrlsl -> ffrl
ffrlls -> ffrrlls
ffrlls -> ffrllsf
ffrlls -> ffr
ffrlls -> ffrlrls
ffrrlls -> ff
flffrlls -> flffrll
flffrll -> flsffrll
flsffrll -> flsff
flsff -> flsrllff
flsrllff -> flsrrllff
flsrrllff -> lsrrllff
lfsrrllff -> l
lsfrrllff -> lsf
lsl -> ls
lsl -> lslssssss
lsl -> lsll
rfffsll -> rfffslll
rfffslll -> rfffslllf
rfffslll -> rff
rfffslllf -> rfffslllff
rfffslllff -> rff
rfffslllff -> rf
rflllff -> rf
rfslllff -> rf
rffsls -> rffslsllff
rffsls -> rff
rffsls -> rffsl
rffslsllff -> rf
rfslsllff -> l
lsrrlfl -> lsrrl
rffffssff -> rffffss
rfffflls -> rffff
rfffflls -> rffffl
rffffsll -> rffffslll
rffffslll -> rffffsllls
rffffsllls -> rffffslllsf
rffffslllsf -> rffffsllls
rffffslllsf -> rffffslllsff
rffffslllsff -> rffffs
rfffflllsff -> rffffl
rffflllsff -> rfffl
rffflllsff -> rfffll
rfflllsff -> rffll
rfflls -> rffllsf
rffllsl -> rff
rrfllsl -> rrfllslf
rrfllslf -> r
rfrlls -> f
rfrlls -> r
frr -> frrl
frrl -> frrll
frrll -> f
rrll -> r
rrll -> rrllf
rrll -> rrl
frl -> frlr
frlr -> frlrl
frlrl -> frlrls
frlrls -> frlrlsf
rfslll -> rffslll
rffsflll -> rffsfslll
rffsfslll -> rffsf
rfsls -> s
rrls -> rrl
rrls -> rrlsl
rrs -> rrsl
rrsl -> rrsll
rrsll -> ss
sssrls -> sssrlsf
sssrls -> f
sssrlsf -> l
lsssrlsf -> ls
lsrrsll -> lsrr
rfffsfs -> rfffsfsf
rfffsfs -> rfffsf
rfffsfsf -> rfffs
rfffsfsf -> rfff
rfffrsrf -> rffflsrf
rffflsrf -> rffflslf
lsrrrr -> lsrrrrr
lsrrrr -> lsrrrrf
lsrrrrr -> lsrrlrr
lsrrlfr -> lsrrlff
lsrrlff -> lsrrllf
rsfs -> rsfsf
rsfs -> rsf
rsfs -> rsfsffff
rsfsf -> rsfs
lsfrr -> lsfrrl
rsls -> rslsf
rslsf -> rslsff
rslsff -> rslsfff
rslsfff -> rslsffff
rslsffff -> rslsfffff
rslsfffff -> rs
rffffls -> rfff
rfffflss -> rfffflsss
rfffflsss -> rffff
rrfff -> rrfffl
rrfff -> rrff
rrfffl -> rrfffls
rrfffls -> rrffflsf
rrffflsf -> rrffflsff
rrffflsff -> rrf
rrffflsff -> l
llfffffs -> llfffff
ffrllsf -> r
fffrlf -> fffrlfs
fffrlf -> fffrlfsl
fffrlfs -> fffrl
fffrlfs -> fff
sssssss -> r
sssssss -> l
lslssssss -> lslsssss
lslsssss -> lslssss
rffffslf -> rffffsff
rffffsff -> rffffsf
rffffsff -> rffff
rffffsff -> rfff
rffffsss -> rffffssss
rffffssss -> rffffssssf
rffffssss -> rffff
rffffssssf -> rffffssss
rffsss -> rffssss
rffssss -> rffsssss
rffssss -> rffssssfff
rffsssss -> rffsssssfff
rffsssss -> f
rffsssssfff -> rffssss
rffssssfff -> rff
fffsssss -> lffsssss
lffsssss -> lffssss
lffssss -> lffss
lffss -> lff
lffss -> lffssfff
lffsss -> lffsssff
lffsssff -> lffsssffff
lffsssffff -> lffsssfff
lffsssfff -> lffss
lffssfff -> lffssff
lffssff -> lrfssff
lrfssff -> lrrssff
lsrrflls -> lsrrfll
lsrrflls -> lsrrf
lsrffflls -> lsr
fffrfsff -> fffrfs
fffrfss -> fffrfsss
fffrfss -> fff
fffrfsss -> fffrfsssff
fffrfsssff -> fffrf
rrfs -> rrls
rrlsl -> rrlsls
rrlsls -> rrlslsf
rrlslsf -> rrlslsfl
rrlslsfl -> l
rslllfff -> r
rffslllfff -> rffslllff
rfffsff -> rfffs
rfffsff -> rfff
rfffllll -> rffflllls
rfffllll -> rffflllll
rfffllll -> rffflll
rffflllls -> rfffllll
rffflllll -> rfffllll
lsss -> ls
lfr -> lfrr
lfrr -> lfrrl
lfrrl -> lfrrll
lfrrll -> lfrrlls
lfrrlls -> rfff
rfsllfff -> rfslllfff
rfslllfff -> rfs
rflllfffs -> rffllfffs
rffllfffs -> rffll
rfffffsll -> rfffff
rffffsllf -> rffff
rfffsllff -> rfffs
rfffllffs -> rfffllff
rfffllff -> rfffllsff
rfffllsff -> rrfffllsff
rfffllsff -> rfffl
rrfffllsff -> rrfffll
rrfffll -> rrfsffffll
rrfsffffll -> rfsffffll
rfsffffll -> rf
rfffffll -> rffsfffll
rffsfffll -> rff
rfsf -> rfsfs
rfsfs -> rfsfss
rfsfss -> l
lffs -> lff
lffs -> rffs
lffs -> lf
fffrfff -> fffrffff
fffrfff -> fffrffffsf
fffrfff -> fffrfffsf
fffrfff -> fffrff
fffrffff -> fffrffffs
fffrffff -> fffrfff
fffrffffs -> fffrffffsf
fffrffffsf -> fffrfff
fffrffffsf -> fffrffff
fffrfffsf -> fffrfff
ffffsf -> fff
fffrllfsf -> fffrll
fffrlslfsf -> fffrls
fffrllslfsf -> fffrl
fffrllslfsf -> fffrll
fffrlslslfsf -> fffrl
fffrlslslfsf -> l
fffrsllslfsf -> fffrs
lsfffrllslfsf -> l
lsffrrf -> ls
rsfsfsfsf -> f
fsfs -> fsfsf
fsfs -> fsfsr
fsfsf -> fsfsfs
fsfsfs -> fsfsfsr
fsfsfs -> fsfs
fsfsfsr -> fsfsfsrr
fsfsfsrr -> fsfsfsrrf
fsfsfsrrf -> fsfsfs
fsfsr -> fsfsrl
fsfsrl -> fsfsrlf
fsfsrlf -> r
lsrrrf -> lsrrrfl
lsrrrfl -> lsrrrfll
lsrrrfll -> lsrrrflls
lsrrrflls -> lsrrr
rflll -> rflllf
rflllf -> rflllff
rfffrrf -> rfff
rffflsls -> rfffl
rffflsls -> r
rssss -> rsssss
rssss -> rsss
rsssss -> rssssss
rsssss -> rsssssf
rsssss -> rssss
rssssss -> lssssss
lssssss -> l
lr -> l
lr -> lrrfff
lr -> lrs
lr -> lrr
fss -> fsss
fsss -> fssss
fssss -> rssss
rsssssf -> rsssss
lsrrrrf -> lsrrrlf
lsrrrlf -> lsrrllf
ffffrs -> ff
ffffrs -> ffff
ffrsl -> ffrsll
ffrsll -> ffrslll
ffrslll -> ffrsllfl
ffrsllfl -> ffrsllffl
ffrsllffl -> ffrsllff
ffrsllff -> ffrsrlff
ffrsrlff -> ffrsrllf
ffrsrllf -> ffrsrlll
ffrsrlll -> ffrsrllll
ffrsrllll -> ffrsrllllf
ffrsrllllf -> ffrs
ffrflll -> ffrflllf
ffrflllf -> f
ffrflsl -> ffrflsls
ffrflsls -> lfrflsls
lfrflsls -> lsfrflsls
lsfrflsls -> lsrrflsls
lsrrflsls -> lsrfflsls
lsrrflsls -> lsrrffsls
lsrfflsls -> lsrrflsls
lsrrffsls -> lsrfffsls
lsrfffsls -> lsrffrsls
lsrffrsls -> lsrffr
lsrffr -> lsrffrsls
lsrffr -> lsrffrl
lsrffrl -> lsrffrll
lsrffrll -> lsrfrrll
lsrffrll -> lsrffrllf
lsrfrrll -> lsrfr
lsrfrrll -> lsrfrrl
lsrfrrl -> lsrfrll
lsrrrllf -> lsrrr
lsrrrllf -> lsrrlllf
fffs -> fffsl
fffs -> fffls
fffs -> fff
fffsl -> lfffsl
lfffsl -> l
lffsl -> l
rffsr -> rffsrr
rffsr -> rffs
rffsrr -> rffsr
fffls -> fffrs
fffls -> ffflsf
fflsf -> ffl
lffsf -> lffs
ffsl -> ffsll
ffsll -> ffslls
ffslls -> ffsllss
ffsllss -> rfsllss
rfsllss -> lfsllss
lfsllss -> l
lsllss -> ls
ssr -> ssrf
ssrf -> ssrfl
ssrfl -> ssrflf
ssrflf -> ssrflff
ssrflff -> ss
rflff -> rfl
rflss -> rflssf
rflssf -> rflssff
rflssff -> lflssff
lflssff -> l
lssff -> ls
lsrl -> lsrr
rffflsff -> r
rffflsff -> rfff
rrffl -> rrfflsff
rrffl -> rrff
rrffl -> rrffls
rrfflsff -> rrffl
rrflsff -> rrfl
rrfllss -> rrflls
fffrlsff -> fffrls
fffrssss -> fffrs
fffrfsl -> fffrfs
rsr -> lsr
rsr -> rsrr
fflf -> fflff
fflff -> fflffs
fflff -> ff
fflffs -> fflffsf
fflffsf -> fflff
rrlff -> rrlffs
rrlffs -> rrlffsf
fffrlfsl -> fff
flsr -> flsrr
flsrr -> flsrrl
flsrrl -> flsrrll
flsrrll -> flsrrllf
flsrrll -> l
flsrrllf -> l
lrffrl -> lsrffrl
lsrffrllf -> lsrf
lsrfrllf -> lsr
fffll -> ffflls
fffll -> fffllf
flr -> fl
fffllf -> fffllff
fffllf -> fffl
fffllff -> fffllf
rrrf -> rr
rrflr -> rrfl
ffrlrls -> ffrrrls
ffrrrls -> ffrfrls
ffrfrls -> ffrflls
ffrfslls -> ffrfs
ffrfslls -> ffrflslls
fffrsff -> fffrs
fffrsff -> fffrsfff
lsssssss -> l
lsfffrrf -> ls
lrrfff -> lr
lrs -> lrsrfff
lrsrfff -> lrsr
lrsr -> lrsrl
lrsrl -> lrsrll
lrsrll -> lrsrllf
lrsrllf -> l
lsllf -> lsflf
lsflf -> lsfrf
lsfrf -> lsrrf
rffllf -> rffll
lfs -> l
rrllf -> rrll
rrlfs -> rrlfss
rrlfs -> rrlf
rrlfss -> rrlfssf
rrlfssf -> rrlfs
lsfr -> lsfrr
lsfrrllf -> ls
lsfrrllf -> lsf
rfss -> rfsss
rfss -> rfssl
rfsss -> rfsssll
rfsssll -> rfssslls
rfssslls -> rfsssl
rfsssl -> rfss
rrfls -> rrflss
rrflss -> rrflssf
rrflssf -> r
rll -> rllf
rllf -> rllfl
rllfl -> rllfll
rllfll -> rllflll
rllflll -> rllfllll
rllfllll -> r
lffffsff -> lffffsf
rls -> rlsr
rlsr -> rlsrr
rlsrr -> rlsrrl
rlsrrl -> rlsrrll
rlsrrll -> llsrrll
llsrrll -> l
rsrr -> r
rlrfs -> rlrfss
rlrfss -> rlrf
rfffllfs -> f
ffflsf -> ffflsff
rffflllsf -> rffflllsff
lsrfffff -> lsrrfffff
lsrrfffff -> lsrrff
rlrflss -> rlrfl
rlrfll -> l
rffsff -> rffsfff
rffsff -> rffsf
rffsfff -> rffsff
ssrff -> sssrff
sssrff -> sssr
lsssr -> ls
fffrsfff -> lfffrsfff
lfffrsfff -> lfffrs
lfffrs -> lffffffrs
lffffffrs -> lffffffr
lffffffr -> lsffffffr
lsffffffr -> lsffffff
lsrffffff -> lsrrffffff
lsrrffffff -> lsrrflffff
lsrrflffff -> lsrrfllfff
lsrrfllfff -> lsrrfllff
rffflr -> rfffl
lffffsr -> lffffs
lffffsl -> lffffslr
lffffslr -> lffffsrl
lffffslr -> r
lffffsrl -> lffffs
rrfllsf -> rrfll
srss -> srsss
srsss -> s
lsssss -> r
rfffslsl -> l
lsll -> ls
fffrlllff -> f
lffr -> l
rfflfls -> rffl
rfffflsl -> rfff
rfffflsl -> rffflsl
rssfffff -> rs
rsfsffff -> rsfsfsfff
rsfsfsfff -> rsfsfsfsff
rsfsfsfsff -> s
lrr -> lrrf
rrfflsl -> rrff
rrfflsl -> f
rrffsl -> rrffs
rrffs -> rrffsll
rrffsll -> r
rrffls -> rrfflsl
fffrlslf -> r
rrlfllsl -> rrlfll
rrlfllsl -> f
rrlfllr -> rrlfll
lffflsl -> r
rffflsss -> rffflsssf
rffflsssf -> rffflsssff
rffflsssff -> r
rffslllr -> rf
}