digraph graph_name {
  graph [
    charset = "UTF-8";
    label = "sample graph",
    labelloc = "t",
    labeljust = "c",
    bgcolor = "#ffffff",
    fontcolor = white,
    fontsize = 18,
    style = "filled",
    rankdir = TB,
    margin = 0.2,
    splines = spline,
    ranksep = 1.0,
    nodesep = 0.9
  ];

  node [
    colorscheme = "rdylgn11"
    style = "solid,filled",
    fontsize = 16,
    fontcolor = 6,
    fontname = "Migu 1M",
    color = 5,
    fillcolor = 11,
    fixedsize = true,
    height = 1.0,
    width = 1.0
  ];

  edge [
    style = solid,
    fontsize = 14,
    fontcolor = black,
    fontname = "Migu 1M",
    color = black,
    labelfloat = true,
    labeldistance = 2.5,
    labelangle = 70
  ];
  start [label="", shape = square, fillcolor="#0000ff"]
ILROLR [label="", shape = square, fillcolor="#31ce00"]
f [label="", shape = square, fillcolor="#728d00"]
WLRf [label="", shape = square, fillcolor="#43bc00"]
WLR [label="", shape = square, fillcolor="#40bf00"]
WLfR [label="", shape = square, fillcolor="#0ff00"]
WNbLfR [label="", shape = square, fillcolor="#0ff00"]
R2LR [label="", shape = square, fillcolor="#728d00"]
R2LfR [label="", shape = square, fillcolor="#e21d00"]
R2LfILRR [label="", shape = square, fillcolor="#ff000"]
R2LfINbLRR [label="", shape = square, fillcolor="#ff000"]
R2LfIbLRR [label="", shape = square, fillcolor="#ff000"]
R2LfIyLRR [label="", shape = square, fillcolor="#ff000"]
R2LfIyLlRR [label="", shape = square, fillcolor="#ff000"]
R2LfIyLlRILRR [label="", shape = square, fillcolor="#ff000"]
R2LfIyLlRINbLRR [label="", shape = square, fillcolor="#ff000"]
R2LfIyLlRIbLRR [label="", shape = square, fillcolor="#ff000"]
R2LfIyLlRIrLRR [label="", shape = square, fillcolor="#ff000"]
R2LfIyLlRIrLrRR [label="", shape = square, fillcolor="#ff000"]
R2LILRfIyLlRIrLrRR [label="", shape = square, fillcolor="#ff000"]
R2LINbLRfIyLlRIrLrRR [label="", shape = square, fillcolor="#ff000"]
R2LIbLRfIyLlRIrLrRR [label="", shape = square, fillcolor="#ff000"]
R2LIkLRfIyLlRIrLrRR [label="", shape = square, fillcolor="#ff000"]
R2LIkLRR [label="", shape = square, fillcolor="#ff000"]
R2LIkLfIyLlRIrLrRRR [label="", shape = square, fillcolor="#ff000"]
R2LIkLfRR [label="", shape = square, fillcolor="#ff000"]
R2LIkLfRIyLlRIrLrRR [label="", shape = square, fillcolor="#ff000"]
R10LIkLfRIyLlRIrLrRR [label="", shape = square, fillcolor="#ff000"]
R10LIkLILROLRfRIyLlRIrLrRR [label="", shape = square, fillcolor="#ff000"]
R10LIkLILROLRRIyLlRIrLrRR [label="", shape = square, fillcolor="#ff000"]
R10LIkLILfROLRRIyLlRIrLrRR [label="", shape = square, fillcolor="#ff000"]
R10LIkLRIyLlRIrLrRR [label="", shape = square, fillcolor="#ff000"]
R10LIkLfRIyLILROLRlRIrLrRR [label="", shape = square, fillcolor="#ee1100"]
R10LIkLfRIyLILROLRRIrLrRR [label="", shape = square, fillcolor="#ec1300"]
R10LIkLfRIyLILlROLRRIrLrRR [label="", shape = square, fillcolor="#eb1400"]
R10LIkLfRIyLILlROLrRRIrLrRR [label="", shape = square, fillcolor="#e91600"]
R10LIkLfRIyLILlROLrRRIrLILROLRrRR [label="", shape = square, fillcolor="#dd2200"]
R10LIkLfRIyLILlROLrRRIrLILROLRRR [label="", shape = square, fillcolor="#dc2300"]
R10LIkLfRIyLILlROLrRRIrLILrROLRRR [label="", shape = square, fillcolor="#da2500"]
R10LIkLfRIyLILlROLrRRIrLILrROLlRRR [label="", shape = square, fillcolor="#d82700"]
R10LIkLfRIyLIx_EQ_1LlROLrRRIrLILrROLlRRR [label="", shape = square, fillcolor="#d62900"]
R10LIkLfRIyLIx_LT__EQ_1LlROLrRRIrLILrROLlRRR [label="", shape = square, fillcolor="#d52a00"]
R10LIkLfRIyLIx_LT__EQ_3LlROLrRRIrLILrROLlRRR [label="", shape = square, fillcolor="#d32c00"]
R10LIkLfRIyLIx_LT__EQ_3LlROLrRRIrLIx_EQ_1LrROLlRRR [label="", shape = square, fillcolor="#d12e00"]
R10LIkLfRIyLIx_LT__EQ_3LlROLrRRIrLIx_LT__EQ_1LrROLlRRR [label="", shape = square, fillcolor="#cf3000"]
R10LIkLfRIyLIx_LT__EQ_3LlROLrRRIrLIx_LT__EQ_3LrROLlRRR [label="", shape = square, fillcolor="#cd3200"]
R2LRR10LIkLfRIyLIx_LT__EQ_3LlROLrRRIrLIx_LT__EQ_3LrROLlRRR [label="", shape = square, fillcolor="#cc3300"]
R2LR10LIkLfRIyLIx_LT__EQ_3LlROLrRRIrLIx_LT__EQ_3LrROLlRRRR [label="", shape = square, fillcolor="#0ff00"]
R2LR5LIkLfRIyLIx_LT__EQ_3LlROLrRRIrLIx_LT__EQ_3LrROLlRRRR [label="", shape = square, fillcolor="#0ff00"]
R2LR6LIkLfRIyLIx_LT__EQ_3LlROLrRRIrLIx_LT__EQ_3LrROLlRRRR [label="", shape = square, fillcolor="#0ff00"]
R2LR6LIkLfRIyLIx_LT__EQ_3LlROLrRRIrLIx_LT__EQ_3LrROLlRRRRf [label="", shape = square, fillcolor="#ff00ff"]
fR2LR [label="", shape = square, fillcolor="#ff000"]
fR2LlR [label="", shape = square, fillcolor="#4bb400"]
fR2LlfR [label="", shape = square, fillcolor="#966900"]
fR2LlfRl [label="", shape = square, fillcolor="#936c00"]
fR2LlfRlR2LR [label="", shape = square, fillcolor="#916e00"]
fR2LlfRlR3LR [label="", shape = square, fillcolor="#8f7000"]
fR2LlfRlR3LfR [label="", shape = square, fillcolor="#8c7300"]
fR2LlRlR3LfR [label="", shape = square, fillcolor="#8a7500"]
R10LfR [label="", shape = square, fillcolor="#7d8200"]
R10LfRf [label="", shape = square, fillcolor="#778800"]
R10LfRl [label="", shape = square, fillcolor="#7f8000"]
R10LfRfR2LR [label="", shape = square, fillcolor="#6d9200"]
R10LfRfR10LR [label="", shape = square, fillcolor="#6a9500"]
R10LfRfR10LfR [label="", shape = square, fillcolor="#679800"]
R10LfRfR10LfRf [label="", shape = square, fillcolor="#649b00"]
R3LfRfR10LfRf [label="", shape = square, fillcolor="#619e00"]
R3LRfR10LfRf [label="", shape = square, fillcolor="#5ea100"]
R3LlRfR10LfRf [label="", shape = square, fillcolor="#5ba400"]
R3LlR [label="", shape = square, fillcolor="#49b600"]
R3LlRR2LR [label="", shape = square, fillcolor="#46b900"]
R3LlRR2LfR [label="", shape = square, fillcolor="#42bd00"]
R3LlRR2LfRl [label="", shape = square, fillcolor="#3fc000"]
R2LlRR2LfRl [label="", shape = square, fillcolor="#3cc300"]
R2LlRR2LfR [label="", shape = square, fillcolor="#39c600"]
R2LlRR2LR [label="", shape = square, fillcolor="#3cc300"]
R2LlRR3LfR [label="", shape = square, fillcolor="#2fd000"]
R2LlRR3LfRr [label="", shape = square, fillcolor="#2bd400"]
R2LlRR3LfRrf [label="", shape = square, fillcolor="#2fd000"]
R2LlRR3LfRrR2LR [label="", shape = square, fillcolor="#21de00"]
R2LlRR3LfRrR2LfR [label="", shape = square, fillcolor="#1de200"]
R2LlRR3LfRrR2LfRl [label="", shape = square, fillcolor="#29d600"]
R2LlRR3LfRrR2LfRlf [label="", shape = square, fillcolor="#26d900"]
R2LlRR3LfRrR2LfRr [label="", shape = square, fillcolor="#30cf00"]
R2LlRR3LfRrR2LfRrf [label="", shape = square, fillcolor="#2dd200"]
R2LlRR3LfRrR2LfRrR2LR [label="", shape = square, fillcolor="#3cc300"]
R2LlRR3LfRrR2LfRrR2LfR [label="", shape = square, fillcolor="#38c700"]
R2LlRR3LfRrR2LfRf [label="", shape = square, fillcolor="#21de00"]
R2LlRR3LfRrR2LfRR2LfR [label="", shape = square, fillcolor="#0ff00"]
R2LlRR3LfRrR2LfRR2LfRr [label="", shape = square, fillcolor="#0ff00"]
R2LlRR3LfRrR2LfRR2LfRrf [label="", shape = square, fillcolor="#0ff00"]
R2LlRR3LfRrR2LfRR2LfRrfR2LR [label="", shape = square, fillcolor="#0ff00"]
R2LlRR3LfRrR2LfRR2LfRrfR2LrR [label="", shape = square, fillcolor="#0ff00"]
R2LlRR3LfRrR2LfRR2LfRrfR10LrR [label="", shape = square, fillcolor="#0ff00"]
r [label="", shape = square, fillcolor="#758a00"]
ILlROLR [label="", shape = square, fillcolor="#0ff00"]
ILlROLrR [label="", shape = square, fillcolor="#0ff00"]
INbLlROLrR [label="", shape = square, fillcolor="#0ff00"]
fR2LILROLRR [label="", shape = square, fillcolor="#0ff00"]
fR2LILROLILROLRRR [label="", shape = square, fillcolor="#0ff00"]
fR2LINbLROLILROLRRR [label="", shape = square, fillcolor="#0ff00"]
fR2LIbLROLILROLRRR [label="", shape = square, fillcolor="#0ff00"]
fR2LIyLROLILROLRRR [label="", shape = square, fillcolor="#0ff00"]
R2LIyLROLILROLRRR [label="", shape = square, fillcolor="#0ff00"]
R2LIyLlROLILROLRRR [label="", shape = square, fillcolor="#0ff00"]
R2LIyLlROLINbLROLRRR [label="", shape = square, fillcolor="#0ff00"]
R2LIyLlROLIbLROLRRR [label="", shape = square, fillcolor="#0ff00"]
R2LIyLlROLIrLROLRRR [label="", shape = square, fillcolor="#0ff00"]
R2LIyLlROLIrLrROLRRR [label="", shape = square, fillcolor="#0ff00"]
R2LIyLlROLIrLrROLfRRR [label="", shape = square, fillcolor="#0ff00"]
R10LIyLlROLIrLrROLfRRR [label="", shape = square, fillcolor="#0ff00"]
R10LIyLlROLIrLrROLfRRRWLR [label="", shape = square, fillcolor="#0ff00"]
R10LIyLlROLIrLrROLfRRRWNbLR [label="", shape = square, fillcolor="#0ff00"]
R10LIyLlROLIrLrROLfRRRWNbLIyLlROLIrLrROLfRRR [label="", shape = square, fillcolor="#0ff00"]
R10LIyLlROLIrLrROLfRRRWNbLIyLrROLIrLrROLfRRR [label="", shape = square, fillcolor="#0ff00"]
R10LIyLlROLIrLrROLfRRRWNbLIyLrROLIrLlROLfRRR [label="", shape = square, fillcolor="#ff00ff"]
l [label="", shape = square, fillcolor="#ff000"]
ll [label="", shape = square, fillcolor="#ff000"]
lls [label="", shape = square, fillcolor="#ff000"]
llf [label="", shape = square, fillcolor="#ff000"]
llff [label="", shape = square, fillcolor="#ff000"]
llfff [label="", shape = square, fillcolor="#ff000"]
llffff [label="", shape = square, fillcolor="#ff000"]
llfffff [label="", shape = square, fillcolor="#ff000"]
llffffff [label="", shape = square, fillcolor="#ff000"]
llfffffff [label="", shape = square, fillcolor="#ff000"]
llffffffff [label="", shape = square, fillcolor="#ff000"]
llfffffffff [label="", shape = square, fillcolor="#ff000"]
llffffffffff [label="", shape = square, fillcolor="#ff000"]
llffffffffffff [label="", shape = square, fillcolor="#ff000"]
llfffffffffff [label="", shape = square, fillcolor="#ff000"]
fR2LlRf [label="", shape = square, fillcolor="#57a800"]
fR2LlRff [label="", shape = square, fillcolor="#54ab00"]
fR2LlRR2LR [label="", shape = square, fillcolor="#0ff00"]
fR2LlRR3LR [label="", shape = square, fillcolor="#0ff00"]
fR2LlRR3LfR [label="", shape = square, fillcolor="#0ff00"]
fR2LlRR3LfRr [label="", shape = square, fillcolor="#0ff00"]
fR2LlRR3LfRrR2LR [label="", shape = square, fillcolor="#0ff00"]
fR2LlRR3LfRrR3LR [label="", shape = square, fillcolor="#0ff00"]
fR2LlRR3LfRrR3LfR [label="", shape = square, fillcolor="#0ff00"]
fR2LlRR3LfRrR3LfRr [label="", shape = square, fillcolor="#0ff00"]
fR2LlRR3LfRrR3LfRrR2LR [label="", shape = square, fillcolor="#0ff00"]
fR2LlRR3LfRrR3LfRrR2LrR [label="", shape = square, fillcolor="#0ff00"]
fR2LlRR3LfRrR3LfRrR2LrRR2LR [label="", shape = square, fillcolor="#0ff00"]
fR2LlRR3LfRrR3LfRrR2LrRR10LR [label="", shape = square, fillcolor="#0ff00"]
fR2LlRR3LfRrR3LfRrR2LrRR10LfR [label="", shape = square, fillcolor="#0ff00"]
ILR [label="", shape = square, fillcolor="#0ff00"]
WLILROLRR [label="", shape = square, fillcolor="#0ff00"]
WLINbLROLRR [label="", shape = square, fillcolor="#0ff00"]
WLIbLROLRR [label="", shape = square, fillcolor="#0ff00"]
WLIyLROLRR [label="", shape = square, fillcolor="#0ff00"]
WLIyLlROLRR [label="", shape = square, fillcolor="#0ff00"]
WLIyLlROLILROLRRR [label="", shape = square, fillcolor="#0ff00"]
WLIyLlROLINbLROLRRR [label="", shape = square, fillcolor="#0ff00"]
WLIyLlROLIbLROLRRR [label="", shape = square, fillcolor="#0ff00"]
WLIyLlROLIrLROLRRR [label="", shape = square, fillcolor="#0ff00"]
WLIyLlROLIrLrROLRRR [label="", shape = square, fillcolor="#0ff00"]
WLIyLlROLIrLrROLfRRR [label="", shape = square, fillcolor="#0ff00"]
Wx_EQ_1LIyLlROLIrLrROLfRRR [label="", shape = square, fillcolor="#0ff00"]
WxN_EQ_1LIyLlROLIrLrROLfRRR [label="", shape = square, fillcolor="#0ff00"]
WxN_EQ_5LIyLlROLIrLrROLfRRR [label="", shape = square, fillcolor="#0ff00"]
Wx_LT_5LIyLlROLIrLrROLfRRR [label="", shape = square, fillcolor="#0ff00"]
Wx_LT_4LIyLlROLIrLrROLfRRR [label="", shape = square, fillcolor="#0ff00"]
Wx_LT_4LIyLlROLIrLrROLfRRRIyLlROLIrLrROLfRR [label="", shape = square, fillcolor="#0ff00"]
Wx_LT_4LIyLlROLIrLrROLfRRRIyLlROLIrLlROLfRR [label="", shape = square, fillcolor="#0ff00"]
Wx_LT_4LIyLlROLIrLrROLfRRRIyLlROLIrLlROLrRR [label="", shape = square, fillcolor="#0ff00"]
Wx_LT_4LIyLlROLIrLrROLfRRRIyLrROLIrLlROLrRR [label="", shape = square, fillcolor="#0ff00"]
Wx_LT_4LIyLlROLIrLrROLfRRRIyLrROLIrLlROLfRR [label="", shape = square, fillcolor="#0ff00"]
Wx_LT_4LIyLlROLIrLrROLfRRRWLR [label="", shape = square, fillcolor="#0ff00"]
Wx_LT_4LIyLlROLIrLrROLfRRRWNbLR [label="", shape = square, fillcolor="#0ff00"]
Wx_LT_4LIyLlROLIrLrROLfRRRWNbLIyLrROLIrLlROLfRRR [label="", shape = square, fillcolor="#ff00ff"]
WNbLR [label="", shape = square, fillcolor="#ab5400"]
WbLR [label="", shape = square, fillcolor="#ac5300"]
WkLR [label="", shape = square, fillcolor="#aa5500"]
WkLfR [label="", shape = square, fillcolor="#a85700"]
WkLfILROLRR [label="", shape = square, fillcolor="#c83700"]
WkLfINbLROLRR [label="", shape = square, fillcolor="#c63900"]
WkLfIbLROLRR [label="", shape = square, fillcolor="#c43b00"]
WkLfIyLROLRR [label="", shape = square, fillcolor="#c23d00"]
WkLfIyLlROLRR [label="", shape = square, fillcolor="#c03f00"]
WkLfIyLlROLrRR [label="", shape = square, fillcolor="#be4100"]
WkLfWLRR [label="", shape = square, fillcolor="#798600"]
WkLfWyLRR [label="", shape = square, fillcolor="#768900"]
WkLfWyLlRR [label="", shape = square, fillcolor="#738c00"]
WkLfWyLlILRRR [label="", shape = square, fillcolor="#8a7500"]
WkLfWyLlINbLRRR [label="", shape = square, fillcolor="#966900"]
WkLfWyLlIbLRRR [label="", shape = square, fillcolor="#936c00"]
WkLfWyLlIrLRRR [label="", shape = square, fillcolor="#916e00"]
WkLfWyLlIrLrRRR [label="", shape = square, fillcolor="#936c00"]
WkLfWyLlWLRRR [label="", shape = square, fillcolor="#52ad00"]
WLWLRR [label="", shape = square, fillcolor="#4fb000"]
WLWLRWLRR [label="", shape = square, fillcolor="#4cb300"]
WNbLWLRWLRR [label="", shape = square, fillcolor="#49b600"]
WNbLWNbLRWLRR [label="", shape = square, fillcolor="#46b900"]
WNbLWNbLRWNbLRR [label="", shape = square, fillcolor="#43bc00"]
WbLWNbLRWNbLRR [label="", shape = square, fillcolor="#4cb300"]
WkLWNbLRWNbLRR [label="", shape = square, fillcolor="#49b600"]
WNkLWNbLRWNbLRR [label="", shape = square, fillcolor="#46b900"]
WNbLWbLRWNbLRR [label="", shape = square, fillcolor="#33cc00"]
WNbLWyLRWNbLRR [label="", shape = square, fillcolor="#2fd000"]
WNbLWyLRWbLRR [label="", shape = square, fillcolor="#2cd300"]
WNbLWyLRWrLRR [label="", shape = square, fillcolor="#28d700"]
WNbLWyLlRWrLRR [label="", shape = square, fillcolor="#25da00"]
WNbLWyLlRWrLrRR [label="", shape = square, fillcolor="#21de00"]
WNbLfWyLlRWrLrRR [label="", shape = square, fillcolor="#1ee100"]
WbLfWyLlRWrLrRR [label="", shape = square, fillcolor="#2cd300"]
WkLfWyLlRWrLrRR [label="", shape = square, fillcolor="#28d700"]
WNkLfWyLlRWrLrRR [label="", shape = square, fillcolor="#25da00"]
WNgLfWyLlRWrLrRR [label="", shape = square, fillcolor="#21de00"]
WNbLfWyLlRR [label="", shape = square, fillcolor="#37c800"]
WNbLfWyLlWrLrRRR [label="", shape = square, fillcolor="#3fc000"]
WNbLfILROLRWyLlRWrLrRR [label="", shape = square, fillcolor="#0ff00"]
WNbLfILROLRWLlRWrLrRR [label="", shape = square, fillcolor="#0ff00"]
WNbLfIyLROLRWLlRWrLrRR [label="", shape = square, fillcolor="#0ff00"]
WNbLfIyLROLRWLRWrLrRR [label="", shape = square, fillcolor="#0ff00"]
WNbLfIyLlROLRWLRWrLrRR [label="", shape = square, fillcolor="#0ff00"]
WNbLfIyLlROLRWrLrRR [label="", shape = square, fillcolor="#0ff00"]
WNbLfIyLlROLRWrLRR [label="", shape = square, fillcolor="#0ff00"]
WNbLfIyLlROLrRWrLRR [label="", shape = square, fillcolor="#0ff00"]
WNbLfIyLlROLrRR [label="", shape = square, fillcolor="#0ff00"]
INbLR [label="", shape = square, fillcolor="#0ff00"]
WLRINbLR [label="", shape = square, fillcolor="#0ff00"]
ILROLILROLRR [label="", shape = square, fillcolor="#916e00"]
INbLROLILROLRR [label="", shape = square, fillcolor="#8f7000"]
fINbLROLILROLRR [label="", shape = square, fillcolor="#0ff00"]
fIbLROLILROLRR [label="", shape = square, fillcolor="#0ff00"]
fIyLROLILROLRR [label="", shape = square, fillcolor="#0ff00"]
fIyLlROLILROLRR [label="", shape = square, fillcolor="#0ff00"]
fIyLlROLINbLROLRR [label="", shape = square, fillcolor="#0ff00"]
fl [label="", shape = square, fillcolor="#857a00"]
fll [label="", shape = square, fillcolor="#827d00"]
fllr [label="", shape = square, fillcolor="#7f8000"]
fllrl [label="", shape = square, fillcolor="#7d8200"]
fllrlr [label="", shape = square, fillcolor="#7a8500"]
fllrlrf [label="", shape = square, fillcolor="#778800"]
fllrlrfr [label="", shape = square, fillcolor="#758a00"]
fllrlrfrl [label="", shape = square, fillcolor="#728d00"]
fllrlrfrlr [label="", shape = square, fillcolor="#6f9000"]
fllrlrfrlrf [label="", shape = square, fillcolor="#6c9300"]
ILfROLR [label="", shape = square, fillcolor="#0ff00"]
ILflROLR [label="", shape = square, fillcolor="#0ff00"]
ILfllROLR [label="", shape = square, fillcolor="#0ff00"]
ILfllrROLR [label="", shape = square, fillcolor="#0ff00"]
ILfllrlROLR [label="", shape = square, fillcolor="#0ff00"]
ILfllrflROLR [label="", shape = square, fillcolor="#0ff00"]
ILfllrlfROLR [label="", shape = square, fillcolor="#0ff00"]
ILfllrlflROLR [label="", shape = square, fillcolor="#0ff00"]
ff [label="", shape = square, fillcolor="#807f00"]
lf [label="", shape = square, fillcolor="#7d8200"]
WNbLRs [label="", shape = square, fillcolor="#7f8000"]
WNbLfRs [label="", shape = square, fillcolor="#827d00"]
R10LR [label="", shape = square, fillcolor="#9f6000"]
R10LILRR [label="", shape = square, fillcolor="#c13e00"]
R10LINbLRR [label="", shape = square, fillcolor="#bf4000"]
R10LIbLRR [label="", shape = square, fillcolor="#bd4200"]
R10LIyLRR [label="", shape = square, fillcolor="#bb4400"]
R10LIyLlRR [label="", shape = square, fillcolor="#b94600"]
R10LIyLlRILRR [label="", shape = square, fillcolor="#b24d00"]
R10LIyLlRINbLRR [label="", shape = square, fillcolor="#b04f00"]
R10LIyLlRIbLRR [label="", shape = square, fillcolor="#ae5100"]
R10LIyLlRIrLRR [label="", shape = square, fillcolor="#ac5300"]
R10LIyLlRIrLrRR [label="", shape = square, fillcolor="#aa5500"]
rR10LIyLlRIrLrRR [label="", shape = square, fillcolor="#a75800"]
rR10LIyLRIrLrRR [label="", shape = square, fillcolor="#a55a00"]
rR10LIyLRIrLRR [label="", shape = square, fillcolor="#a35c00"]
rR10LIyLrRIrLRR [label="", shape = square, fillcolor="#aa5500"]
rR10LIyLrRIrLlRR [label="", shape = square, fillcolor="#a75800"]
rR10LIyLRIrLlRR [label="", shape = square, fillcolor="#a55a00"]
rR10LIyLRIrLfRR [label="", shape = square, fillcolor="#a55a00"]
frR10LIyLRIrLRR [label="", shape = square, fillcolor="#8f7000"]
fR10LIyLRIrLRR [label="", shape = square, fillcolor="#aa5500"]
fR10LIyLlRIrLRR [label="", shape = square, fillcolor="#a85700"]
fR10LIyLlRIrLrRR [label="", shape = square, fillcolor="#c93600"]
fR2LIyLlRIrLrRR [label="", shape = square, fillcolor="#cb3400"]
fR10LIyLlRIrLrRILRR [label="", shape = square, fillcolor="#dd2200"]
fR10LIyLlRIrLrRINbLRR [label="", shape = square, fillcolor="#db2400"]
fR10LIyLlRIrLrRIbLRR [label="", shape = square, fillcolor="#da2500"]
fR10LIyLlRIrLrRIkLRR [label="", shape = square, fillcolor="#d82700"]
fR10LIyLlRIrLrRIkLfRR [label="", shape = square, fillcolor="#df2000"]
fR10LIyLlRIrLrRIkLfRRR2LR [label="", shape = square, fillcolor="#e21d00"]
fR10LIyLlRIrLrRIkLfRRR10LR [label="", shape = square, fillcolor="#e01f00"]
fR10LIyLlRR [label="", shape = square, fillcolor="#7d8200"]
fR10LIyLlRILROLRR [label="", shape = square, fillcolor="#9b6400"]
fR10LIyLlRIrLROLRR [label="", shape = square, fillcolor="#996600"]
fR10LIyLlRIrLrROLRR [label="", shape = square, fillcolor="#976800"]
fR10LIyLlRIrLrROLfRR [label="", shape = square, fillcolor="#946b00"]
fR10LIyLRR [label="", shape = square, fillcolor="#4fb000"]
fR10LILRR [label="", shape = square, fillcolor="#4cb300"]
fR10LR [label="", shape = square, fillcolor="#44bb00"]
fR10LILROLRR [label="", shape = square, fillcolor="#36c900"]
fR10LIyLROLRR [label="", shape = square, fillcolor="#33cc00"]
fR10LIyLlROLRR [label="", shape = square, fillcolor="#30cf00"]
fR10LIyLlROLIrLrROLfRRR [label="", shape = square, fillcolor="#18e700"]
fR10LIyLlROLIrLrROLfRRRR2LR [label="", shape = square, fillcolor="#14eb00"]
fR10LIyLlROLIrLrROLfRRRR10LR [label="", shape = square, fillcolor="#10ef00"]
fR10LIyLlROLIrLrROLfRRRR10LILROLRR [label="", shape = square, fillcolor="#2fd00"]
fR10LIyLlROLIrLrROLfRRRR10LILROLILROLRRR [label="", shape = square, fillcolor="#0ff00"]
fR10LIyLlROLIrLrROLfRRRR10LILROLILROLfRRR [label="", shape = square, fillcolor="#0ff00"]
fR10LIyLlROLIrLrROLfRRRR10LILrROLILROLfRRR [label="", shape = square, fillcolor="#0ff00"]
fR10LIyLlROLIrLrROLfRRRR10LILrROLILlROLfRRR [label="", shape = square, fillcolor="#0ff00"]
fR10LIyLlROLIrLrROLfRRRR10LILrROLIx_EQ_1LlROLfRRR [label="", shape = square, fillcolor="#0ff00"]
fR10LIyLlROLIrLrROLfRRRR10LINbLrROLIx_EQ_1LlROLfRRR [label="", shape = square, fillcolor="#0ff00"]
fR10LIyLlROLIrLrROLfRRRR10LINbLrROLINbLlROLfRRR [label="", shape = square, fillcolor="#0ff00"]
fR10LIyLlROLIrLrROLfRRRR10LINbLrROLINbLlROLfRRRf [label="", shape = square, fillcolor="#0ff00"]
fR10LIyLlROLIrLrROLfRRRR10LIbLrROLINbLlROLfRRR [label="", shape = square, fillcolor="#0ff00"]
fR10LIyLlROLIrLrROLfRRRR10LIbLrROLIbLlROLfRRR [label="", shape = square, fillcolor="#0ff00"]
fR10LIyLlROLIrLrROLfRRRR10LIyLrROLIbLlROLfRRR [label="", shape = square, fillcolor="#0ff00"]
fR10LIyLlROLIrLrROLfRRRR10LIyLrROLIrLlROLfRRR [label="", shape = square, fillcolor="#0ff00"]
Ix_LT_4LlROLrR [label="", shape = square, fillcolor="#8c7300"]
R2LRIx_LT_4LlROLrR [label="", shape = square, fillcolor="#897600"]
R2LIx_LT_4LlROLrRR [label="", shape = square, fillcolor="#c83700"]
R2LILRIx_LT_4LlROLrRR [label="", shape = square, fillcolor="#c13e00"]
R2LILRR [label="", shape = square, fillcolor="#aa5500"]
R2LILIx_LT_4LlROLrRRR [label="", shape = square, fillcolor="#946b00"]
WNbLILIx_LT_4LlROLrRRR [label="", shape = square, fillcolor="#b14e00"]
WNbLILRR [label="", shape = square, fillcolor="#e41b00"]
WNbLIx_LT_4LlROLrRILRR [label="", shape = square, fillcolor="#ff000"]
WNbLIx_LT_4LlROLrRR [label="", shape = square, fillcolor="#ff000"]
WNbLILRIx_LT_4LlROLrRR [label="", shape = square, fillcolor="#fa500"]
WNbLINbLIx_LT_4LlROLrRRR [label="", shape = square, fillcolor="#1ce300"]
WNbLIbLIx_LT_4LlROLrRRR [label="", shape = square, fillcolor="#19e600"]
WNbLIrLIx_LT_4LlROLrRRR [label="", shape = square, fillcolor="#15ea00"]
WNbLIyLIx_LT_4LlROLrRRR [label="", shape = square, fillcolor="#11ee00"]
WNbLIyLIx_LT_4LlROLrRRIyLIx_LT_4LlROLrRRR [label="", shape = square, fillcolor="#0ff00"]
WNbLIyLIx_LT_4LlROLrRRIyLRR [label="", shape = square, fillcolor="#0ff00"]
WNbLIyLIx_LT_4LlROLrRRIyLIx_LT_4LrROLlRRR [label="", shape = square, fillcolor="#0ff00"]
WNbLIyLIx_LT_4LlROLrRRIrLIx_LT_4LrROLlRRR [label="", shape = square, fillcolor="#0ff00"]
INbLROLR [label="", shape = square, fillcolor="#758a00"]
INrLROLR [label="", shape = square, fillcolor="#728d00"]
IrLROLR [label="", shape = square, fillcolor="#708f00"]
IrLlROLR [label="", shape = square, fillcolor="#6d9200"]
IrLlROLrR [label="", shape = square, fillcolor="#6a9500"]
IrLlROLrRILR [label="", shape = square, fillcolor="#629d00"]
IrLROLrRILR [label="", shape = square, fillcolor="#5fa000"]
IrLROLrRILlR [label="", shape = square, fillcolor="#5ca300"]
ILROLrRILlR [label="", shape = square, fillcolor="#59a600"]
ILROLrRIrLlR [label="", shape = square, fillcolor="#56a900"]
IrLlR [label="", shape = square, fillcolor="#44bb00"]
fIrLlR [label="", shape = square, fillcolor="#40bf00"]
fIrLlRILR [label="", shape = square, fillcolor="#38c700"]
fIrLlRINbLR [label="", shape = square, fillcolor="#35ca00"]
fIrLlRIbLR [label="", shape = square, fillcolor="#31ce00"]
fIrLlRIrLR [label="", shape = square, fillcolor="#2ed100"]
fIyLlRIrLR [label="", shape = square, fillcolor="#2ad500"]
fR2LRIyLlRIrLR [label="", shape = square, fillcolor="#27d800"]
fR2LIyLlRIrLRR [label="", shape = square, fillcolor="#8f7000"]
R2LfR2LRIyLlRIrLRR [label="", shape = square, fillcolor="#d72800"]
R2LfR2LRR [label="", shape = square, fillcolor="#c03f00"]
R2LfR2LIyLlRIrLRRR [label="", shape = square, fillcolor="#aa5500"]
R2LfR2LIyLlRRR [label="", shape = square, fillcolor="#a25d00"]
R2LfR2LIyLlRRIrLRR [label="", shape = square, fillcolor="#9b6400"]
R2LfR2LIyLlRRIrLrRR [label="", shape = square, fillcolor="#996600"]
fR2LIyLlRRIrLrRR2LR [label="", shape = square, fillcolor="#8f7000"]
fR2LRIrLrRR2LR [label="", shape = square, fillcolor="#9c6300"]
fR2LIyLlRRIrLrR [label="", shape = square, fillcolor="#5fa000"]
fR2LR2LRIyLlRRIrLrR [label="", shape = square, fillcolor="#5ca300"]
fR2LR2LRRIrLrR [label="", shape = square, fillcolor="#4fb000"]
fR2LR2LIyLlRRRIrLrR [label="", shape = square, fillcolor="#41be00"]
fR2LR2LIyLlRRRIrLR [label="", shape = square, fillcolor="#45ba00"]
fR2LR2LIyLlRRR [label="", shape = square, fillcolor="#2dd200"]
fR2LR2LIyLlRRIrLrRR [label="", shape = square, fillcolor="#7d8200"]
fR2LR2LIyLlRRIrLrRRILR [label="", shape = square, fillcolor="#b14e00"]
R2LR2LIyLlRRIrLrRRILfR [label="", shape = square, fillcolor="#a95600"]
R2LR2LIyLlRRIrLrRRINbLfR [label="", shape = square, fillcolor="#a75800"]
R2LR2LIyLlRRIrLrRRIbLfR [label="", shape = square, fillcolor="#a55a00"]
R2LR2LIyLlRRIrLrRR [label="", shape = square, fillcolor="#986700"]
IbLfRR2LR2LIyLlRRIrLrRR [label="", shape = square, fillcolor="#a55a00"]
fR2LR2LIyLlRRIrLrRRf [label="", shape = square, fillcolor="#3ec100"]
fR2LR2LIyLlRRRf [label="", shape = square, fillcolor="#31ce00"]
fR2LR2LIyLlRRIrLrROLfRR [label="", shape = square, fillcolor="#0ff00"]
start -> ILROLR
start -> f
ILROLR -> ILlROLR
ILROLR -> ILROLILROLRR
ILROLR -> ILfROLR
ILROLR -> INbLROLR
f -> fR2LR
WLRf -> WLR
WLR -> WNbLR
WLfR -> WNbLfR
R2LR -> R2LfR
R2LR -> R10LR
R2LfR -> R2LfILRR
R2LfR -> R10LfR
R2LfILRR -> R2LfINbLRR
R2LfINbLRR -> R2LfIbLRR
R2LfIbLRR -> R2LfIyLRR
R2LfIyLRR -> R2LfIyLlRR
R2LfIyLlRR -> R2LfIyLlRILRR
R2LfIyLlRILRR -> R2LfIyLlRINbLRR
R2LfIyLlRINbLRR -> R2LfIyLlRIbLRR
R2LfIyLlRIbLRR -> R2LfIyLlRIrLRR
R2LfIyLlRIrLRR -> R2LfIyLlRIrLrRR
R2LfIyLlRIrLRR -> R2LfR2LRIyLlRIrLRR
R2LfIyLlRIrLrRR -> R2LILRfIyLlRIrLrRR
R2LILRfIyLlRIrLrRR -> R2LINbLRfIyLlRIrLrRR
R2LINbLRfIyLlRIrLrRR -> R2LIbLRfIyLlRIrLrRR
R2LIbLRfIyLlRIrLrRR -> R2LIkLRfIyLlRIrLrRR
R2LIkLRfIyLlRIrLrRR -> R2LIkLRR
R2LIkLRR -> R2LIkLfIyLlRIrLrRRR
R2LIkLfIyLlRIrLrRRR -> R2LIkLfRR
R2LIkLfRR -> R2LIkLfRIyLlRIrLrRR
R2LIkLfRIyLlRIrLrRR -> R10LIkLfRIyLlRIrLrRR
R10LIkLfRIyLlRIrLrRR -> R10LIkLILROLRfRIyLlRIrLrRR
R10LIkLfRIyLlRIrLrRR -> R10LIkLfRIyLILROLRlRIrLrRR
R10LIkLILROLRfRIyLlRIrLrRR -> R10LIkLILROLRRIyLlRIrLrRR
R10LIkLILROLRRIyLlRIrLrRR -> R10LIkLILfROLRRIyLlRIrLrRR
R10LIkLILfROLRRIyLlRIrLrRR -> R10LIkLRIyLlRIrLrRR
R10LIkLRIyLlRIrLrRR -> R10LIkLfRIyLlRIrLrRR
R10LIkLfRIyLILROLRlRIrLrRR -> R10LIkLfRIyLILROLRRIrLrRR
R10LIkLfRIyLILROLRRIrLrRR -> R10LIkLfRIyLILlROLRRIrLrRR
R10LIkLfRIyLILlROLRRIrLrRR -> R10LIkLfRIyLILlROLrRRIrLrRR
R10LIkLfRIyLILlROLrRRIrLrRR -> R10LIkLfRIyLILlROLrRRIrLILROLRrRR
R10LIkLfRIyLILlROLrRRIrLILROLRrRR -> R10LIkLfRIyLILlROLrRRIrLILROLRRR
R10LIkLfRIyLILlROLrRRIrLILROLRRR -> R10LIkLfRIyLILlROLrRRIrLILrROLRRR
R10LIkLfRIyLILlROLrRRIrLILrROLRRR -> R10LIkLfRIyLILlROLrRRIrLILrROLlRRR
R10LIkLfRIyLILlROLrRRIrLILrROLlRRR -> R10LIkLfRIyLIx_EQ_1LlROLrRRIrLILrROLlRRR
R10LIkLfRIyLIx_EQ_1LlROLrRRIrLILrROLlRRR -> R10LIkLfRIyLIx_LT__EQ_1LlROLrRRIrLILrROLlRRR
R10LIkLfRIyLIx_LT__EQ_1LlROLrRRIrLILrROLlRRR -> R10LIkLfRIyLIx_LT__EQ_3LlROLrRRIrLILrROLlRRR
R10LIkLfRIyLIx_LT__EQ_3LlROLrRRIrLILrROLlRRR -> R10LIkLfRIyLIx_LT__EQ_3LlROLrRRIrLIx_EQ_1LrROLlRRR
R10LIkLfRIyLIx_LT__EQ_3LlROLrRRIrLIx_EQ_1LrROLlRRR -> R10LIkLfRIyLIx_LT__EQ_3LlROLrRRIrLIx_LT__EQ_1LrROLlRRR
R10LIkLfRIyLIx_LT__EQ_3LlROLrRRIrLIx_LT__EQ_1LrROLlRRR -> R10LIkLfRIyLIx_LT__EQ_3LlROLrRRIrLIx_LT__EQ_3LrROLlRRR
R10LIkLfRIyLIx_LT__EQ_3LlROLrRRIrLIx_LT__EQ_3LrROLlRRR -> R2LRR10LIkLfRIyLIx_LT__EQ_3LlROLrRRIrLIx_LT__EQ_3LrROLlRRR
R2LRR10LIkLfRIyLIx_LT__EQ_3LlROLrRRIrLIx_LT__EQ_3LrROLlRRR -> R2LR
R2LR10LIkLfRIyLIx_LT__EQ_3LlROLrRRIrLIx_LT__EQ_3LrROLlRRRR -> R2LR5LIkLfRIyLIx_LT__EQ_3LlROLrRRIrLIx_LT__EQ_3LrROLlRRRR
R2LR5LIkLfRIyLIx_LT__EQ_3LlROLrRRIrLIx_LT__EQ_3LrROLlRRRR -> R2LR6LIkLfRIyLIx_LT__EQ_3LlROLrRRIrLIx_LT__EQ_3LrROLlRRRR
R2LR6LIkLfRIyLIx_LT__EQ_3LlROLrRRIrLIx_LT__EQ_3LrROLlRRRR -> R2LR6LIkLfRIyLIx_LT__EQ_3LlROLrRRIrLIx_LT__EQ_3LrROLlRRRRf
fR2LR -> fR2LlR
fR2LR -> fR2LILROLRR
fR2LR -> fR2LIyLlRIrLRR
fR2LlR -> fR2LlfR
fR2LlR -> fR2LlRf
fR2LlR -> fR2LlRR2LR
fR2LlfR -> fR2LlfRl
fR2LlfRl -> fR2LlfRlR2LR
fR2LlfRlR2LR -> fR2LlfRlR3LR
fR2LlfRlR3LR -> fR2LlfRlR3LfR
fR2LlfRlR3LfR -> fR2LlRlR3LfR
fR2LlRlR3LfR -> f
R10LfR -> R10LfRf
R10LfR -> R10LfRl
R10LfRf -> R10LfR
R10LfRf -> R10LfRfR2LR
R10LfRl -> R10LfR
R10LfRfR2LR -> R10LfRfR10LR
R10LfRfR10LR -> R10LfRfR10LfR
R10LfRfR10LfR -> R10LfRfR10LfRf
R10LfRfR10LfRf -> R3LfRfR10LfRf
R3LfRfR10LfRf -> R3LRfR10LfRf
R3LRfR10LfRf -> R3LlRfR10LfRf
R3LlRfR10LfRf -> R3LlR
R3LlR -> R3LlRR2LR
R3LlRR2LR -> R3LlRR2LfR
R3LlRR2LfR -> R3LlRR2LfRl
R3LlRR2LfRl -> R2LlRR2LfRl
R2LlRR2LfRl -> R2LlRR2LfR
R2LlRR2LfR -> R2LlRR2LR
R2LlRR2LfR -> R2LlRR3LfR
R2LlRR2LR -> R2LlRR2LfR
R2LlRR3LfR -> R2LlRR3LfRr
R2LlRR3LfRr -> R2LlRR3LfRrf
R2LlRR3LfRr -> R2LlRR3LfRrR2LR
R2LlRR3LfRrf -> R2LlRR3LfRr
R2LlRR3LfRrR2LR -> R2LlRR3LfRrR2LfR
R2LlRR3LfRrR2LfRl -> R2LlRR3LfRrR2LfRlf
R2LlRR3LfRrR2LfRlf -> R2LlRR3LfRrR2LfR
R2LlRR3LfRrR2LfRr -> R2LlRR3LfRrR2LfRrf
R2LlRR3LfRrR2LfRr -> R2LlRR3LfRrR2LfRrR2LR
R2LlRR3LfRrR2LfRr -> R2LlRR3LfRrR2LfR
R2LlRR3LfRrR2LfRrf -> R2LlRR3LfRrR2LfR
R2LlRR3LfRrR2LfRrf -> R2LlRR3LfRrR2LfRr
R2LlRR3LfRrR2LfRrR2LR -> R2LlRR3LfRrR2LfRrR2LfR
R2LlRR3LfRrR2LfRrR2LfR -> R2LlRR3LfRrR2LfRr
R2LlRR3LfRrR2LfRf -> R2LlRR3LfRrR2LfR
R2LlRR3LfRrR2LfRR2LfR -> R2LlRR3LfRrR2LfRR2LfRr
R2LlRR3LfRrR2LfRR2LfRr -> R2LlRR3LfRrR2LfRR2LfRrf
R2LlRR3LfRrR2LfRR2LfRrf -> R2LlRR3LfRrR2LfRR2LfRrfR2LR
R2LlRR3LfRrR2LfRR2LfRrfR2LR -> R2LlRR3LfRrR2LfRR2LfRrfR2LrR
R2LlRR3LfRrR2LfRR2LfRrfR2LrR -> R2LlRR3LfRrR2LfRR2LfRrfR10LrR
r -> f
ILlROLR -> ILlROLrR
ILlROLrR -> INbLlROLrR
fR2LILROLRR -> fR2LILROLILROLRRR
fR2LILROLILROLRRR -> fR2LINbLROLILROLRRR
fR2LINbLROLILROLRRR -> fR2LIbLROLILROLRRR
fR2LIbLROLILROLRRR -> fR2LIyLROLILROLRRR
fR2LIyLROLILROLRRR -> R2LIyLROLILROLRRR
R2LIyLROLILROLRRR -> R2LIyLlROLILROLRRR
R2LIyLlROLILROLRRR -> R2LIyLlROLINbLROLRRR
R2LIyLlROLINbLROLRRR -> R2LIyLlROLIbLROLRRR
R2LIyLlROLIbLROLRRR -> R2LIyLlROLIrLROLRRR
R2LIyLlROLIrLROLRRR -> R2LIyLlROLIrLrROLRRR
R2LIyLlROLIrLrROLRRR -> R2LIyLlROLIrLrROLfRRR
R2LIyLlROLIrLrROLfRRR -> R10LIyLlROLIrLrROLfRRR
R10LIyLlROLIrLrROLfRRR -> R10LIyLlROLIrLrROLfRRRWLR
R10LIyLlROLIrLrROLfRRRWLR -> R10LIyLlROLIrLrROLfRRRWNbLR
R10LIyLlROLIrLrROLfRRRWNbLR -> R10LIyLlROLIrLrROLfRRRWNbLIyLlROLIrLrROLfRRR
R10LIyLlROLIrLrROLfRRRWNbLIyLlROLIrLrROLfRRR -> R10LIyLlROLIrLrROLfRRRWNbLIyLrROLIrLrROLfRRR
R10LIyLlROLIrLrROLfRRRWNbLIyLrROLIrLrROLfRRR -> R10LIyLlROLIrLrROLfRRRWNbLIyLrROLIrLlROLfRRR
l -> ll
ll -> lls
ll -> llf
ll -> Ix_LT_4LlROLrR
lls -> ll
llf -> llff
llff -> llfff
llfff -> llffff
llffff -> llfffff
llfffff -> llffffff
llffffff -> llfffffff
llfffffff -> llffffffff
llffffffff -> llfffffffff
llfffffffff -> llffffffffff
llffffffffff -> llffffffffffff
llffffffffffff -> llfffffffffff
llfffffffffff -> llffffffffff
fR2LlRf -> fR2LlRff
fR2LlRff -> fR2LlR
fR2LlRR2LR -> fR2LlRR3LR
fR2LlRR3LR -> fR2LlRR3LfR
fR2LlRR3LfR -> fR2LlRR3LfRr
fR2LlRR3LfRr -> fR2LlRR3LfRrR2LR
fR2LlRR3LfRrR2LR -> fR2LlRR3LfRrR3LR
fR2LlRR3LfRrR3LR -> fR2LlRR3LfRrR3LfR
fR2LlRR3LfRrR3LfR -> fR2LlRR3LfRrR3LfRr
fR2LlRR3LfRrR3LfRr -> fR2LlRR3LfRrR3LfRrR2LR
fR2LlRR3LfRrR3LfRrR2LR -> fR2LlRR3LfRrR3LfRrR2LrR
fR2LlRR3LfRrR3LfRrR2LrR -> fR2LlRR3LfRrR3LfRrR2LrRR2LR
fR2LlRR3LfRrR3LfRrR2LrRR2LR -> fR2LlRR3LfRrR3LfRrR2LrRR10LR
fR2LlRR3LfRrR3LfRrR2LrRR10LR -> fR2LlRR3LfRrR3LfRrR2LrRR10LfR
ILR -> INbLR
WLILROLRR -> WLINbLROLRR
WLINbLROLRR -> WLIbLROLRR
WLIbLROLRR -> WLIyLROLRR
WLIyLROLRR -> WLIyLlROLRR
WLIyLlROLRR -> WLIyLlROLILROLRRR
WLIyLlROLILROLRRR -> WLIyLlROLINbLROLRRR
WLIyLlROLINbLROLRRR -> WLIyLlROLIbLROLRRR
WLIyLlROLIbLROLRRR -> WLIyLlROLIrLROLRRR
WLIyLlROLIrLROLRRR -> WLIyLlROLIrLrROLRRR
WLIyLlROLIrLrROLRRR -> WLIyLlROLIrLrROLfRRR
WLIyLlROLIrLrROLfRRR -> Wx_EQ_1LIyLlROLIrLrROLfRRR
Wx_EQ_1LIyLlROLIrLrROLfRRR -> WxN_EQ_1LIyLlROLIrLrROLfRRR
WxN_EQ_1LIyLlROLIrLrROLfRRR -> WxN_EQ_5LIyLlROLIrLrROLfRRR
WxN_EQ_5LIyLlROLIrLrROLfRRR -> Wx_LT_5LIyLlROLIrLrROLfRRR
Wx_LT_5LIyLlROLIrLrROLfRRR -> Wx_LT_4LIyLlROLIrLrROLfRRR
Wx_LT_4LIyLlROLIrLrROLfRRR -> Wx_LT_4LIyLlROLIrLrROLfRRRIyLlROLIrLrROLfRR
Wx_LT_4LIyLlROLIrLrROLfRRR -> Wx_LT_4LIyLlROLIrLrROLfRRRWLR
Wx_LT_4LIyLlROLIrLrROLfRRRIyLlROLIrLrROLfRR -> Wx_LT_4LIyLlROLIrLrROLfRRRIyLlROLIrLlROLfRR
Wx_LT_4LIyLlROLIrLrROLfRRRIyLlROLIrLlROLfRR -> Wx_LT_4LIyLlROLIrLrROLfRRRIyLlROLIrLlROLrRR
Wx_LT_4LIyLlROLIrLrROLfRRRIyLlROLIrLlROLrRR -> Wx_LT_4LIyLlROLIrLrROLfRRRIyLrROLIrLlROLrRR
Wx_LT_4LIyLlROLIrLrROLfRRRIyLrROLIrLlROLrRR -> Wx_LT_4LIyLlROLIrLrROLfRRRIyLrROLIrLlROLfRR
Wx_LT_4LIyLlROLIrLrROLfRRRIyLrROLIrLlROLfRR -> Wx_LT_4LIyLlROLIrLrROLfRRR
Wx_LT_4LIyLlROLIrLrROLfRRRWLR -> Wx_LT_4LIyLlROLIrLrROLfRRRWNbLR
Wx_LT_4LIyLlROLIrLrROLfRRRWNbLR -> Wx_LT_4LIyLlROLIrLrROLfRRRWNbLIyLrROLIrLlROLfRRR
WNbLR -> WbLR
WNbLR -> WNbLRs
WNbLR -> WNbLILIx_LT_4LlROLrRRR
WbLR -> WkLR
WkLR -> WkLfR
WkLfR -> WkLfILROLRR
WkLfR -> WkLfWLRR
WkLfILROLRR -> WkLfINbLROLRR
WkLfINbLROLRR -> WkLfIbLROLRR
WkLfIbLROLRR -> WkLfIyLROLRR
WkLfIyLROLRR -> WkLfIyLlROLRR
WkLfIyLlROLRR -> WkLfIyLlROLrRR
WkLfIyLlROLrRR -> WkLfR
WkLfWLRR -> WkLfWyLRR
WkLfWyLRR -> WkLfWyLlRR
WkLfWyLlRR -> WkLfWyLlILRRR
WkLfWyLlRR -> WkLfWyLlWLRRR
WkLfWyLlILRRR -> WkLfWyLlINbLRRR
WkLfWyLlILRRR -> WkLfWyLlRR
WkLfWyLlINbLRRR -> WkLfWyLlIbLRRR
WkLfWyLlIbLRRR -> WkLfWyLlIrLRRR
WkLfWyLlIrLRRR -> WkLfWyLlIrLrRRR
WkLfWyLlIrLRRR -> WkLfWyLlILRRR
WkLfWyLlIrLrRRR -> WkLfWyLlIrLRRR
WkLfWyLlWLRRR -> WLR
WLWLRR -> WLWLRWLRR
WLWLRWLRR -> WNbLWLRWLRR
WNbLWLRWLRR -> WNbLWNbLRWLRR
WNbLWNbLRWLRR -> WNbLWNbLRWNbLRR
WNbLWNbLRWNbLRR -> WbLWNbLRWNbLRR
WNbLWNbLRWNbLRR -> WNbLWbLRWNbLRR
WbLWNbLRWNbLRR -> WkLWNbLRWNbLRR
WkLWNbLRWNbLRR -> WNkLWNbLRWNbLRR
WNkLWNbLRWNbLRR -> WNbLWNbLRWNbLRR
WNbLWbLRWNbLRR -> WNbLWyLRWNbLRR
WNbLWyLRWNbLRR -> WNbLWyLRWbLRR
WNbLWyLRWbLRR -> WNbLWyLRWrLRR
WNbLWyLRWrLRR -> WNbLWyLlRWrLRR
WNbLWyLlRWrLRR -> WNbLWyLlRWrLrRR
WNbLWyLlRWrLrRR -> WNbLfWyLlRWrLrRR
WNbLfWyLlRWrLrRR -> WbLfWyLlRWrLrRR
WNbLfWyLlRWrLrRR -> WNbLfWyLlRR
WNbLfWyLlRWrLrRR -> WNbLfILROLRWyLlRWrLrRR
WbLfWyLlRWrLrRR -> WkLfWyLlRWrLrRR
WkLfWyLlRWrLrRR -> WNkLfWyLlRWrLrRR
WNkLfWyLlRWrLrRR -> WNgLfWyLlRWrLrRR
WNgLfWyLlRWrLrRR -> WNbLfWyLlRWrLrRR
WNbLfWyLlRR -> WNbLfWyLlWrLrRRR
WNbLfWyLlRR -> WNbLfWyLlRWrLrRR
WNbLfWyLlWrLrRRR -> WNbLfWyLlRR
WNbLfILROLRWyLlRWrLrRR -> WNbLfILROLRWLlRWrLrRR
WNbLfILROLRWLlRWrLrRR -> WNbLfIyLROLRWLlRWrLrRR
WNbLfIyLROLRWLlRWrLrRR -> WNbLfIyLROLRWLRWrLrRR
WNbLfIyLROLRWLRWrLrRR -> WNbLfIyLlROLRWLRWrLrRR
WNbLfIyLlROLRWLRWrLrRR -> WNbLfIyLlROLRWrLrRR
WNbLfIyLlROLRWrLrRR -> WNbLfIyLlROLRWrLRR
WNbLfIyLlROLRWrLRR -> WNbLfIyLlROLrRWrLRR
WNbLfIyLlROLrRWrLRR -> WNbLfIyLlROLrRR
INbLR -> WLRINbLR
ILROLILROLRR -> INbLROLILROLRR
INbLROLILROLRR -> f
fINbLROLILROLRR -> fIbLROLILROLRR
fIbLROLILROLRR -> fIyLROLILROLRR
fIyLROLILROLRR -> fIyLlROLILROLRR
fIyLlROLILROLRR -> fIyLlROLINbLROLRR
fl -> fll
fll -> fllr
fllr -> fllrl
fllrl -> fllrlr
fllrlr -> fllrlrf
fllrlrf -> fllrlrfr
fllrlrfr -> fllrlrfrl
fllrlrfrl -> fllrlrfrlr
fllrlrfrlr -> fllrlrfrlrf
fllrlrfrlrf -> ILROLR
ILfROLR -> ILflROLR
ILflROLR -> ILfllROLR
ILfllROLR -> ILfllrROLR
ILfllrROLR -> ILfllrlROLR
ILfllrlROLR -> ILfllrflROLR
ILfllrlROLR -> ILfllrlfROLR
ILfllrflROLR -> ILfllrROLR
ILfllrlfROLR -> ILfllrlflROLR
ff -> lf
lf -> r
WNbLRs -> WNbLfRs
WNbLRs -> R2LR
WNbLfRs -> WNbLRs
R10LR -> R2LR
R10LR -> R10LILRR
R10LILRR -> R10LINbLRR
R10LINbLRR -> R10LIbLRR
R10LIbLRR -> R10LIyLRR
R10LIyLRR -> R10LIyLlRR
R10LIyLlRR -> R10LIyLlRILRR
R10LIyLlRILRR -> R10LIyLlRINbLRR
R10LIyLlRINbLRR -> R10LIyLlRIbLRR
R10LIyLlRIbLRR -> R10LIyLlRIrLRR
R10LIyLlRIrLRR -> R10LIyLlRIrLrRR
R10LIyLlRIrLrRR -> rR10LIyLlRIrLrRR
rR10LIyLlRIrLrRR -> rR10LIyLRIrLrRR
rR10LIyLRIrLrRR -> rR10LIyLRIrLRR
rR10LIyLRIrLRR -> rR10LIyLrRIrLRR
rR10LIyLRIrLRR -> rR10LIyLRIrLlRR
rR10LIyLRIrLRR -> rR10LIyLRIrLfRR
rR10LIyLRIrLRR -> frR10LIyLRIrLRR
rR10LIyLrRIrLRR -> rR10LIyLrRIrLlRR
rR10LIyLrRIrLlRR -> rR10LIyLRIrLlRR
rR10LIyLRIrLlRR -> rR10LIyLRIrLRR
rR10LIyLRIrLfRR -> rR10LIyLRIrLRR
frR10LIyLRIrLRR -> f
fR10LIyLRIrLRR -> fR10LIyLlRIrLRR
fR10LIyLlRIrLRR -> fR10LIyLlRIrLrRR
fR10LIyLlRIrLRR -> fR10LIyLlRR
fR10LIyLlRIrLrRR -> fR2LIyLlRIrLrRR
fR10LIyLlRIrLrRR -> fR10LIyLlRIrLrRILRR
fR10LIyLlRIrLrRR -> fR10LIyLlRIrLRR
fR2LIyLlRIrLrRR -> fR10LIyLlRIrLrRR
fR10LIyLlRIrLrRILRR -> fR10LIyLlRIrLrRINbLRR
fR10LIyLlRIrLrRINbLRR -> fR10LIyLlRIrLrRIbLRR
fR10LIyLlRIrLrRIbLRR -> fR10LIyLlRIrLrRIkLRR
fR10LIyLlRIrLrRIkLRR -> fR10LIyLlRIrLrRIkLfRR
fR10LIyLlRIrLrRIkLRR -> fR10LIyLlRIrLrRR
fR10LIyLlRIrLrRIkLfRR -> fR10LIyLlRIrLrRIkLfRRR2LR
fR10LIyLlRIrLrRIkLfRR -> fR10LIyLlRIrLrRIkLRR
fR10LIyLlRIrLrRIkLfRRR2LR -> fR10LIyLlRIrLrRIkLfRRR10LR
fR10LIyLlRIrLrRIkLfRRR10LR -> fR10LIyLlRIrLrRIkLfRR
fR10LIyLlRR -> fR10LIyLlRILROLRR
fR10LIyLlRR -> fR10LIyLRR
fR10LIyLlRILROLRR -> fR10LIyLlRIrLROLRR
fR10LIyLlRIrLROLRR -> fR10LIyLlRIrLrROLRR
fR10LIyLlRIrLrROLRR -> fR10LIyLlRIrLrROLfRR
fR10LIyLlRIrLrROLfRR -> fR10LIyLlRR
fR10LIyLRR -> fR10LILRR
fR10LILRR -> fR10LR
fR10LR -> fR10LILROLRR
fR10LILROLRR -> fR10LIyLROLRR
fR10LIyLROLRR -> fR10LIyLlROLRR
fR10LIyLlROLRR -> fR10LIyLlROLIrLrROLfRRR
fR10LIyLlROLIrLrROLfRRR -> fR10LIyLlROLIrLrROLfRRRR2LR
fR10LIyLlROLIrLrROLfRRRR2LR -> fR10LIyLlROLIrLrROLfRRRR10LR
fR10LIyLlROLIrLrROLfRRRR10LR -> fR10LIyLlROLIrLrROLfRRRR10LILROLRR
fR10LIyLlROLIrLrROLfRRRR10LILROLRR -> fR10LIyLlROLIrLrROLfRRRR10LILROLILROLRRR
fR10LIyLlROLIrLrROLfRRRR10LILROLILROLRRR -> fR10LIyLlROLIrLrROLfRRRR10LILROLILROLfRRR
fR10LIyLlROLIrLrROLfRRRR10LILROLILROLfRRR -> fR10LIyLlROLIrLrROLfRRRR10LILrROLILROLfRRR
fR10LIyLlROLIrLrROLfRRRR10LILrROLILROLfRRR -> fR10LIyLlROLIrLrROLfRRRR10LILrROLILlROLfRRR
fR10LIyLlROLIrLrROLfRRRR10LILrROLILlROLfRRR -> fR10LIyLlROLIrLrROLfRRRR10LILrROLIx_EQ_1LlROLfRRR
fR10LIyLlROLIrLrROLfRRRR10LILrROLIx_EQ_1LlROLfRRR -> fR10LIyLlROLIrLrROLfRRRR10LINbLrROLIx_EQ_1LlROLfRRR
fR10LIyLlROLIrLrROLfRRRR10LINbLrROLIx_EQ_1LlROLfRRR -> fR10LIyLlROLIrLrROLfRRRR10LINbLrROLINbLlROLfRRR
fR10LIyLlROLIrLrROLfRRRR10LINbLrROLINbLlROLfRRR -> fR10LIyLlROLIrLrROLfRRRR10LINbLrROLINbLlROLfRRRf
fR10LIyLlROLIrLrROLfRRRR10LINbLrROLINbLlROLfRRR -> fR10LIyLlROLIrLrROLfRRRR10LIbLrROLINbLlROLfRRR
fR10LIyLlROLIrLrROLfRRRR10LINbLrROLINbLlROLfRRRf -> fR10LIyLlROLIrLrROLfRRRR10LINbLrROLINbLlROLfRRR
fR10LIyLlROLIrLrROLfRRRR10LIbLrROLINbLlROLfRRR -> fR10LIyLlROLIrLrROLfRRRR10LIbLrROLIbLlROLfRRR
fR10LIyLlROLIrLrROLfRRRR10LIbLrROLIbLlROLfRRR -> fR10LIyLlROLIrLrROLfRRRR10LIyLrROLIbLlROLfRRR
fR10LIyLlROLIrLrROLfRRRR10LIyLrROLIbLlROLfRRR -> fR10LIyLlROLIrLrROLfRRRR10LIyLrROLIrLlROLfRRR
Ix_LT_4LlROLrR -> R2LRIx_LT_4LlROLrR
R2LRIx_LT_4LlROLrR -> R2LR
R2LIx_LT_4LlROLrRR -> R2LILRIx_LT_4LlROLrRR
R2LILRIx_LT_4LlROLrRR -> R2LILRR
R2LILRR -> R2LILIx_LT_4LlROLrRRR
R2LILIx_LT_4LlROLrRRR -> R2LR
WNbLILIx_LT_4LlROLrRRR -> WNbLILRR
WNbLILIx_LT_4LlROLrRRR -> WNbLINbLIx_LT_4LlROLrRRR
WNbLILRR -> WNbLILIx_LT_4LlROLrRRR
WNbLILRR -> WNbLIx_LT_4LlROLrRILRR
WNbLIx_LT_4LlROLrRILRR -> WNbLIx_LT_4LlROLrRR
WNbLIx_LT_4LlROLrRR -> WNbLILRIx_LT_4LlROLrRR
WNbLILRIx_LT_4LlROLrRR -> WNbLILRR
WNbLINbLIx_LT_4LlROLrRRR -> WNbLIbLIx_LT_4LlROLrRRR
WNbLIbLIx_LT_4LlROLrRRR -> WNbLIrLIx_LT_4LlROLrRRR
WNbLIrLIx_LT_4LlROLrRRR -> WNbLIyLIx_LT_4LlROLrRRR
WNbLIyLIx_LT_4LlROLrRRR -> WNbLIyLIx_LT_4LlROLrRRIyLIx_LT_4LlROLrRRR
WNbLIyLIx_LT_4LlROLrRRIyLIx_LT_4LlROLrRRR -> WNbLIyLIx_LT_4LlROLrRRIyLRR
WNbLIyLIx_LT_4LlROLrRRIyLRR -> WNbLIyLIx_LT_4LlROLrRRIyLIx_LT_4LrROLlRRR
WNbLIyLIx_LT_4LlROLrRRIyLIx_LT_4LrROLlRRR -> WNbLIyLIx_LT_4LlROLrRRIrLIx_LT_4LrROLlRRR
INbLROLR -> INrLROLR
INrLROLR -> IrLROLR
IrLROLR -> IrLlROLR
IrLlROLR -> IrLlROLrR
IrLlROLrR -> IrLlROLrRILR
IrLlROLrRILR -> IrLROLrRILR
IrLROLrRILR -> IrLROLrRILlR
IrLROLrRILlR -> ILROLrRILlR
ILROLrRILlR -> ILROLrRIrLlR
ILROLrRIrLlR -> IrLlR
IrLlR -> fIrLlR
fIrLlR -> fIrLlRILR
fIrLlRILR -> fIrLlRINbLR
fIrLlRINbLR -> fIrLlRIbLR
fIrLlRIbLR -> fIrLlRIrLR
fIrLlRIrLR -> fIyLlRIrLR
fIyLlRIrLR -> fR2LRIyLlRIrLR
fR2LRIyLlRIrLR -> fR2LR
fR2LIyLlRIrLRR -> f
R2LfR2LRIyLlRIrLRR -> R2LfR2LRR
R2LfR2LRR -> R2LfR2LIyLlRIrLRRR
R2LfR2LIyLlRIrLRRR -> R2LfR2LIyLlRRR
R2LfR2LIyLlRRR -> R2LfR2LIyLlRRIrLRR
R2LfR2LIyLlRRIrLRR -> R2LfR2LIyLlRRIrLrRR
R2LfR2LIyLlRRIrLrRR -> R2LR
fR2LIyLlRRIrLrRR2LR -> f
fR2LIyLlRRIrLrRR2LR -> fR2LRIrLrRR2LR
fR2LIyLlRRIrLrRR2LR -> fR2LIyLlRRIrLrR
fR2LRIrLrRR2LR -> fR2LIyLlRRIrLrRR2LR
fR2LIyLlRRIrLrR -> fR2LR2LRIyLlRRIrLrR
fR2LR2LRIyLlRRIrLrR -> fR2LR2LRRIrLrR
fR2LR2LRRIrLrR -> fR2LR2LIyLlRRRIrLrR
fR2LR2LIyLlRRRIrLrR -> fR2LR2LIyLlRRRIrLR
fR2LR2LIyLlRRRIrLrR -> fR2LR2LIyLlRRR
fR2LR2LIyLlRRRIrLR -> fR2LR2LIyLlRRRIrLrR
fR2LR2LIyLlRRR -> fR2LR2LIyLlRRIrLrRR
fR2LR2LIyLlRRR -> fR2LR2LIyLlRRIrLrROLfRR
fR2LR2LIyLlRRIrLrRR -> fR2LR2LIyLlRRIrLrRRILR
fR2LR2LIyLlRRIrLrRR -> fR2LR2LIyLlRRIrLrRRf
fR2LR2LIyLlRRIrLrRRILR -> R2LR2LIyLlRRIrLrRRILfR
R2LR2LIyLlRRIrLrRRILfR -> R2LR2LIyLlRRIrLrRRINbLfR
R2LR2LIyLlRRIrLrRRINbLfR -> R2LR2LIyLlRRIrLrRRIbLfR
R2LR2LIyLlRRIrLrRRIbLfR -> R2LR2LIyLlRRIrLrRR
R2LR2LIyLlRRIrLrRR -> IbLfRR2LR2LIyLlRRIrLrRR
R2LR2LIyLlRRIrLrRR -> fR2LR2LIyLlRRIrLrRR
IbLfRR2LR2LIyLlRRIrLrRR -> R2LR2LIyLlRRIrLrRR
fR2LR2LIyLlRRIrLrRRf -> fR2LR2LIyLlRRRf
fR2LR2LIyLlRRRf -> fR2LR2LIyLlRRR
}