digraph graph_name {
  graph [
    charset = "UTF-8";
    label = "sample graph",
    labelloc = "t",
    labeljust = "c",
    bgcolor = "#ffffff",
    fontcolor = white,
    fontsize = 18,
    style = "filled",
    rankdir = TB,
    margin = 0.2,
    splines = spline,
    ranksep = 1.0,
    nodesep = 0.9
  ];

  node [
    colorscheme = "rdylgn11"
    style = "solid,filled",
    fontsize = 16,
    fontcolor = 6,
    fontname = "Migu 1M",
    color = 5,
    fillcolor = 11,
    fixedsize = true,
    height = 1.0,
    width = 1.0
  ];

  edge [
    style = solid,
    fontsize = 14,
    fontcolor = black,
    fontname = "Migu 1M",
    color = black,
    labelfloat = true,
    labeldistance = 2.5,
    labelangle = 70
  ];
  start [label="", shape = square, fillcolor="#0000ff"]
WLR [label="", shape = square, fillcolor="#619e00"]
WNbLR [label="", shape = square, fillcolor="#58a700"]
WbLR [label="", shape = square, fillcolor="#6e9100"]
WkLR [label="", shape = square, fillcolor="#728d00"]
WkLfR [label="", shape = square, fillcolor="#639c00"]
WkLfRWLR [label="", shape = square, fillcolor="#54ab00"]
WkLfRWNbLR [label="", shape = square, fillcolor="#4ab500"]
WkLfRWbLR [label="", shape = square, fillcolor="#59a600"]
WkLfRWyLR [label="", shape = square, fillcolor="#57a800"]
WkLfRWyLrR [label="", shape = square, fillcolor="#4bb400"]
WkLfRWyLlR [label="", shape = square, fillcolor="#46b900"]
WkLWyLlRfR [label="", shape = square, fillcolor="#8f7000"]
WNkLWyLlRfR [label="", shape = square, fillcolor="#8a7500"]
WNkLR [label="", shape = square, fillcolor="#7b8400"]
WNkLlR [label="", shape = square, fillcolor="#8e7100"]
WNkLlRf [label="", shape = square, fillcolor="#976800"]
WNkLlRWLRf [label="", shape = square, fillcolor="#986700"]
WNkLlRWLR [label="", shape = square, fillcolor="#946b00"]
WNkLlRWLfR [label="", shape = square, fillcolor="#8f7000"]
WNkLlRWNbLfR [label="", shape = square, fillcolor="#8b7400"]
WNkLlRWbLfR [label="", shape = square, fillcolor="#877800"]
WkLlRWbLfR [label="", shape = square, fillcolor="#827d00"]
WyLlRWbLfR [label="", shape = square, fillcolor="#7e8100"]
WyLlRWkLfR [label="", shape = square, fillcolor="#798600"]
WkLfRr [label="", shape = square, fillcolor="#7a8500"]
WkLfRrr [label="", shape = square, fillcolor="#7b8400"]
WkLfRlr [label="", shape = square, fillcolor="#758a00"]
WkLfRll [label="", shape = square, fillcolor="#708f00"]
WLRWkLfR [label="", shape = square, fillcolor="#7b8400"]
WNbLRWkLfR [label="", shape = square, fillcolor="#877800"]
WbLRWkLfR [label="", shape = square, fillcolor="#827d00"]
WyLRWkLfR [label="", shape = square, fillcolor="#7e8100"]
WNyLR [label="", shape = square, fillcolor="#36c900"]
WNyLfR [label="", shape = square, fillcolor="#2bd400"]
WNyLflR [label="", shape = square, fillcolor="#3dc200"]
WkLfWLRR [label="", shape = square, fillcolor="#7b8400"]
WkLfWNbLRR [label="", shape = square, fillcolor="#936c00"]
WkLfWbLRR [label="", shape = square, fillcolor="#8e7100"]
WkLfWyLRR [label="", shape = square, fillcolor="#8a7500"]
WkLfWyLlRR [label="", shape = square, fillcolor="#857a00"]
WNkLfWyLlRR [label="", shape = square, fillcolor="#8f7000"]
WNyLfWyLlRR [label="", shape = square, fillcolor="#8a7500"]
WNyLfWyLRR [label="", shape = square, fillcolor="#8f7000"]
WyLlR [label="", shape = square, fillcolor="#788700"]
WyLflR [label="", shape = square, fillcolor="#5ba400"]
WyLR [label="", shape = square, fillcolor="#59a600"]
WyLlRf [label="", shape = square, fillcolor="#7c8300"]
WyLlRWLR [label="", shape = square, fillcolor="#8b7400"]
WyLlRWNbLR [label="", shape = square, fillcolor="#877800"]
WyLlRWbLR [label="", shape = square, fillcolor="#827d00"]
WyLlRWkLR [label="", shape = square, fillcolor="#7e8100"]
WkLWLRR [label="", shape = square, fillcolor="#9b6400"]
WkLWNbLRR [label="", shape = square, fillcolor="#976800"]
WkLWbLRR [label="", shape = square, fillcolor="#936c00"]
WkLWyLRR [label="", shape = square, fillcolor="#8e7100"]
WkLWyLlRR [label="", shape = square, fillcolor="#8a7500"]
WkLfRWkLR [label="", shape = square, fillcolor="#53ac00"]
WkLfRWkLlR [label="", shape = square, fillcolor="#46b900"]
WkLfRWNkLlR [label="", shape = square, fillcolor="#27d800"]
WkLfRf [label="", shape = square, fillcolor="#689700"]
WkLfRl [label="", shape = square, fillcolor="#758a00"]
WkLfRlWNkLlR [label="", shape = square, fillcolor="#837c00"]
WkLfRlWkLlR [label="", shape = square, fillcolor="#7f8000"]
WNyLfRWLR [label="", shape = square, fillcolor="#df200"]
WNyLfRWNbLR [label="", shape = square, fillcolor="#2fd00"]
WNyLfRWNbLlR [label="", shape = square, fillcolor="#ff00ff"]
WLfR [label="", shape = square, fillcolor="#5fa000"]
WbLfR [label="", shape = square, fillcolor="#639c00"]
WbLfRl [label="", shape = square, fillcolor="#6b9400"]
WbLfRll [label="", shape = square, fillcolor="#6d9200"]
WgLfR [label="", shape = square, fillcolor="#619e00"]
WNgLfR [label="", shape = square, fillcolor="#55aa00"]
WNbLfR [label="", shape = square, fillcolor="#56a900"]
WNyLfRWLlR [label="", shape = square, fillcolor="#6f900"]
WNyLfRWbLlR [label="", shape = square, fillcolor="#18e700"]
WNyLfRWLrR [label="", shape = square, fillcolor="#10ef00"]
WNyLfRWNbLrR [label="", shape = square, fillcolor="#8f700"]
f [label="", shape = square, fillcolor="#788700"]
ff [label="", shape = square, fillcolor="#7e8100"]
WLlR [label="", shape = square, fillcolor="#6f9000"]
s [label="", shape = square, fillcolor="#689700"]
sWLR [label="", shape = square, fillcolor="#659a00"]
WNbLflR [label="", shape = square, fillcolor="#da2500"]
WNbLffR [label="", shape = square, fillcolor="#718e00"]
WNbLffRl [label="", shape = square, fillcolor="#827d00"]
WbLffRl [label="", shape = square, fillcolor="#7d8200"]
WLffRl [label="", shape = square, fillcolor="#708f00"]
WLffR [label="", shape = square, fillcolor="#6a9500"]
WNbLlR [label="", shape = square, fillcolor="#748b00"]
WNbLllR [label="", shape = square, fillcolor="#6b9400"]
WNbLllrR [label="", shape = square, fillcolor="#679800"]
WNbLfflR [label="", shape = square, fillcolor="#689700"]
WNbLfRWLR [label="", shape = square, fillcolor="#56a900"]
WNbLfRWNbLR [label="", shape = square, fillcolor="#47b800"]
WNbLfRWbLR [label="", shape = square, fillcolor="#52ad00"]
WNbLfRWbLlR [label="", shape = square, fillcolor="#4db200"]
WNbLfRWgLlR [label="", shape = square, fillcolor="#7f8000"]
WbLfRWgLlR [label="", shape = square, fillcolor="#7b8400"]
WbLfRWNgLlR [label="", shape = square, fillcolor="#768900"]
WNbLfRWNgLlR [label="", shape = square, fillcolor="#7b8400"]
r [label="", shape = square, fillcolor="#659a00"]
WNgLR [label="", shape = square, fillcolor="#59a600"]
WNgLRWLR [label="", shape = square, fillcolor="#4fb000"]
WNgLRWNbLR [label="", shape = square, fillcolor="#4ab500"]
WNgLfRWNbLR [label="", shape = square, fillcolor="#45ba00"]
WNgLfRWNbLlR [label="", shape = square, fillcolor="#17e800"]
WNgLfRWbLlR [label="", shape = square, fillcolor="#28d700"]
WgLfRWbLlR [label="", shape = square, fillcolor="#22dd00"]
WgLfRWNbLlR [label="", shape = square, fillcolor="#1de200"]
WNyLfRl [label="", shape = square, fillcolor="#40bf00"]
WNyLfRll [label="", shape = square, fillcolor="#44bb00"]
WNyLfRWNyLR [label="", shape = square, fillcolor="#23dc00"]
WNyLfRWNyLlR [label="", shape = square, fillcolor="#3ac500"]
WNyLfRlWNyLlR [label="", shape = square, fillcolor="#4fb000"]
WNyLfRlWNyLrR [label="", shape = square, fillcolor="#4ab500"]
WNyLfRllWNyLfR [label="", shape = square, fillcolor="#40bf00"]
WNyLfRWLlRWNyLfR [label="", shape = square, fillcolor="#45ba00"]
WNyLfRWLlRWNbLfR [label="", shape = square, fillcolor="#40bf00"]
WNyLfRlWNbLfR [label="", shape = square, fillcolor="#49b600"]
WNyLfRWNbLfR [label="", shape = square, fillcolor="#18e700"]
WNyLfRWbLfR [label="", shape = square, fillcolor="#18e700"]
WNyLfRWbLR [label="", shape = square, fillcolor="#13ec00"]
WkLfRWNyLlR [label="", shape = square, fillcolor="#31ce00"]
WNkLfRWNyLlR [label="", shape = square, fillcolor="#3bc400"]
WNyLfRWyLlR [label="", shape = square, fillcolor="#36c900"]
fff [label="", shape = square, fillcolor="#7e8100"]
ffff [label="", shape = square, fillcolor="#7d8200"]
fffWLR [label="", shape = square, fillcolor="#8b7400"]
fffWLfR [label="", shape = square, fillcolor="#906f00"]
WNbLsR [label="", shape = square, fillcolor="#5ea100"]
WbLsR [label="", shape = square, fillcolor="#639c00"]
WNgLsR [label="", shape = square, fillcolor="#52ad00"]
WNyLsR [label="", shape = square, fillcolor="#41be00"]
WkLfRWNyLR [label="", shape = square, fillcolor="#37c800"]
WkLfRWNrLlR [label="", shape = square, fillcolor="#0ff00"]
WNkLfRWNrLlR [label="", shape = square, fillcolor="#0ff00"]
WNyLfRWNrLlR [label="", shape = square, fillcolor="#0ff00"]
WyLfR [label="", shape = square, fillcolor="#4eb100"]
WkLfRlWLR [label="", shape = square, fillcolor="#768900"]
WkLfRWLlR [label="", shape = square, fillcolor="#41be00"]
WkLfRWNgLlR [label="", shape = square, fillcolor="#14eb00"]
WkLfRWNbLlR [label="", shape = square, fillcolor="#ff00ff"]
WLsR [label="", shape = square, fillcolor="#6f9000"]
WNkLrR [label="", shape = square, fillcolor="#5fa000"]
WLrR [label="", shape = square, fillcolor="#649b00"]
WNbLrR [label="", shape = square, fillcolor="#5ca300"]
WNgLrR [label="", shape = square, fillcolor="#4fb000"]
WNyLrR [label="", shape = square, fillcolor="#3cc300"]
WNyLfRlWLR [label="", shape = square, fillcolor="#46b900"]
WNyLfRlWNbLR [label="", shape = square, fillcolor="#53ac00"]
fWLR [label="", shape = square, fillcolor="#857a00"]
fWNbLR [label="", shape = square, fillcolor="#817e00"]
fWNbLfR [label="", shape = square, fillcolor="#817e00"]
fWNbLlfR [label="", shape = square, fillcolor="#7c8300"]
fWNbLlR [label="", shape = square, fillcolor="#788700"]
fWNbLlRl [label="", shape = square, fillcolor="#738c00"]
WNbLRll [label="", shape = square, fillcolor="#56a900"]
WNbLfRll [label="", shape = square, fillcolor="#51ae00"]
WNkLfRll [label="", shape = square, fillcolor="#53ac00"]
sWNyLfRl [label="", shape = square, fillcolor="#45ba00"]
WyLfRll [label="", shape = square, fillcolor="#758a00"]
WkLlR [label="", shape = square, fillcolor="#6f9000"]
WkLllR [label="", shape = square, fillcolor="#956a00"]
WkLllRf [label="", shape = square, fillcolor="#906f00"]
WkLRf [label="", shape = square, fillcolor="#877800"]
WkLRllf [label="", shape = square, fillcolor="#7d8200"]
WkLRll [label="", shape = square, fillcolor="#758a00"]
WkLfRWNkLR [label="", shape = square, fillcolor="#48b700"]
WkLfRlWNbLR [label="", shape = square, fillcolor="#798600"]
WkLfRlWNkLR [label="", shape = square, fillcolor="#7e8100"]
WkLfRlWkLR [label="", shape = square, fillcolor="#7a8500"]
WkLfsR [label="", shape = square, fillcolor="#689700"]
WkLflR [label="", shape = square, fillcolor="#689700"]
WNyLffR [label="", shape = square, fillcolor="#51ae00"]
WNyLfffR [label="", shape = square, fillcolor="#6b9400"]
WbLffR [label="", shape = square, fillcolor="#788700"]
WbLfffR [label="", shape = square, fillcolor="#748b00"]
WyLfffR [label="", shape = square, fillcolor="#6f9000"]
WNbLfffR [label="", shape = square, fillcolor="#6a9500"]
WNkLfffR [label="", shape = square, fillcolor="#6f9000"]
WNyLRfff [label="", shape = square, fillcolor="#46b900"]
WNyLRl [label="", shape = square, fillcolor="#5ca300"]
WNyLRll [label="", shape = square, fillcolor="#57a800"]
WNyLRllf [label="", shape = square, fillcolor="#758a00"]
WNkLfRWNkLlR [label="", shape = square, fillcolor="#17e800"]
WNyLfRWNkLlR [label="", shape = square, fillcolor="#12ed00"]
WNyLfRWkLlR [label="", shape = square, fillcolor="#2dd200"]
WyLfRWkLlR [label="", shape = square, fillcolor="#4fb000"]
WLWkLfRR [label="", shape = square, fillcolor="#827d00"]
WLWkLfRlR [label="", shape = square, fillcolor="#7e8100"]
WNkLWkLfRlR [label="", shape = square, fillcolor="#798600"]
WkLWkLfRlR [label="", shape = square, fillcolor="#758a00"]
WNkLfR [label="", shape = square, fillcolor="#4ab500"]
WyLfRWyLfR [label="", shape = square, fillcolor="#58a700"]
WyLfRf [label="", shape = square, fillcolor="#659a00"]
WyLfRfl [label="", shape = square, fillcolor="#728d00"]
WkLfRfl [label="", shape = square, fillcolor="#6d9200"]
WNbLfRWNbLlR [label="", shape = square, fillcolor="#27d800"]
WLRfff [label="", shape = square, fillcolor="#708f00"]
WLfffR [label="", shape = square, fillcolor="#6e9100"]
WNrLfR [label="", shape = square, fillcolor="#50af00"]
WNbLfRr [label="", shape = square, fillcolor="#609f00"]
WNbLfRrl [label="", shape = square, fillcolor="#659a00"]
WbLlR [label="", shape = square, fillcolor="#6e9100"]
WbLlRWLR [label="", shape = square, fillcolor="#659a00"]
WbLRWLR [label="", shape = square, fillcolor="#609f00"]
WbLfRWLR [label="", shape = square, fillcolor="#5ba400"]
WNbLfRWLlR [label="", shape = square, fillcolor="#43bc00"]
WLRff [label="", shape = square, fillcolor="#6b9400"]
WNyLfllR [label="", shape = square, fillcolor="#3ac500"]
WNyLfRWLRl [label="", shape = square, fillcolor="#13ec00"]
WyLRWLR [label="", shape = square, fillcolor="#37c800"]
WyLRWLfR [label="", shape = square, fillcolor="#31ce00"]
WyLRWNbLfR [label="", shape = square, fillcolor="#2cd300"]
WyLRWNbLR [label="", shape = square, fillcolor="#27d800"]
WyLfRWNbLR [label="", shape = square, fillcolor="#21de00"]
WyLfRWNyLR [label="", shape = square, fillcolor="#44bb00"]
WyLfRWNyLlR [label="", shape = square, fillcolor="#3fc000"]
fWLfR [label="", shape = square, fillcolor="#827d00"]
WNyLfRlf [label="", shape = square, fillcolor="#3dc200"]
WNyLfWNbLlRR [label="", shape = square, fillcolor="#36c900"]
WNrLfrR [label="", shape = square, fillcolor="#7c8300"]
WNrLffR [label="", shape = square, fillcolor="#778800"]
WNrLfffR [label="", shape = square, fillcolor="#728d00"]
WLffsR [label="", shape = square, fillcolor="#609f00"]
WNrLffsR [label="", shape = square, fillcolor="#5ba400"]
WNyLffsR [label="", shape = square, fillcolor="#56a900"]
WNyLffRWLlR [label="", shape = square, fillcolor="#0ff00"]
WNyLffRWNrLlR [label="", shape = square, fillcolor="#0ff00"]
WNkLfRWkLlR [label="", shape = square, fillcolor="#3bc400"]
WkLfRWbLlR [label="", shape = square, fillcolor="#32cd00"]
WLfRs [label="", shape = square, fillcolor="#6a9500"]
WLRs [label="", shape = square, fillcolor="#659a00"]
WgLR [label="", shape = square, fillcolor="#5ea100"]
WNgLfRl [label="", shape = square, fillcolor="#6a9500"]
WkLfllR [label="", shape = square, fillcolor="#6d9200"]
WkLfRWkLllR [label="", shape = square, fillcolor="#4bb400"]
WkLffR [label="", shape = square, fillcolor="#7b8400"]
WkLfffR [label="", shape = square, fillcolor="#807f00"]
WkLfflR [label="", shape = square, fillcolor="#807f00"]
l [label="", shape = square, fillcolor="#817e00"]
ll [label="", shape = square, fillcolor="#7c8300"]
llr [label="", shape = square, fillcolor="#897600"]
llrr [label="", shape = square, fillcolor="#8e7100"]
WrLlR [label="", shape = square, fillcolor="#6b9400"]
WkLsR [label="", shape = square, fillcolor="#a55a00"]
WkLsRWLR [label="", shape = square, fillcolor="#b64900"]
WkLsRWLlR [label="", shape = square, fillcolor="#b24d00"]
WkLsRWkLlR [label="", shape = square, fillcolor="#ae5100"]
WkLslR [label="", shape = square, fillcolor="#ba4500"]
WkLsllR [label="", shape = square, fillcolor="#be4100"]
WkLslfR [label="", shape = square, fillcolor="#ae5100"]
WkLrR [label="", shape = square, fillcolor="#778800"]
WkLfrR [label="", shape = square, fillcolor="#986700"]
WkLsrfrffWNgLsRrR [label="", shape = square, fillcolor="#758a00"]
WNyLfRWLllR [label="", shape = square, fillcolor="#0ff00"]
WNyLfRWNbLllR [label="", shape = square, fillcolor="#0ff00"]
WNyLfRWNgLlR [label="", shape = square, fillcolor="#0ff00"]
WNbLlRl [label="", shape = square, fillcolor="#758a00"]
WyLfRWLR [label="", shape = square, fillcolor="#13ec00"]
WyLfRWNbLlR [label="", shape = square, fillcolor="#0ff00"]
WNyLfRWNkLR [label="", shape = square, fillcolor="#27d800"]
WNyLfRWkLR [label="", shape = square, fillcolor="#33cc00"]
WNyLfRlr [label="", shape = square, fillcolor="#45ba00"]
WNbLsfR [label="", shape = square, fillcolor="#639c00"]
WbLrR [label="", shape = square, fillcolor="#619e00"]
WNbLfrR [label="", shape = square, fillcolor="#5ba400"]
WNgLfflR [label="", shape = square, fillcolor="#5fa000"]
WNgLfRlf [label="", shape = square, fillcolor="#8b7400"]
WNrLfRlf [label="", shape = square, fillcolor="#877800"]
WrLfRlf [label="", shape = square, fillcolor="#837c00"]
WyLfRlf [label="", shape = square, fillcolor="#7e8100"]
WkLfRlf [label="", shape = square, fillcolor="#7a8500"]
WNyLflfR [label="", shape = square, fillcolor="#3cc300"]
WNyLfflR [label="", shape = square, fillcolor="#36c900"]
WNyLffrR [label="", shape = square, fillcolor="#56a900"]
WNyLsRll [label="", shape = square, fillcolor="#4bb400"]
WNyLsRWLR [label="", shape = square, fillcolor="#2dd200"]
WNyLsRWLlR [label="", shape = square, fillcolor="#55aa00"]
WNyLsRWbLlR [label="", shape = square, fillcolor="#50af00"]
WNyLsRWkLlR [label="", shape = square, fillcolor="#4bb400"]
WNbLffrR [label="", shape = square, fillcolor="#758a00"]
WNbLflrR [label="", shape = square, fillcolor="#ff000"]
WLflrR [label="", shape = square, fillcolor="#ff000"]
WNkLfRl [label="", shape = square, fillcolor="#58a700"]
WNkLRll [label="", shape = square, fillcolor="#58a700"]
WLsrR [label="", shape = square, fillcolor="#738c00"]
WkLRWLR [label="", shape = square, fillcolor="#5ea100"]
WkLRWNbLR [label="", shape = square, fillcolor="#59a600"]
WkLRWNbLlR [label="", shape = square, fillcolor="#55aa00"]
WkLRWbLlR [label="", shape = square, fillcolor="#50af00"]
WkLRWkLlR [label="", shape = square, fillcolor="#4bb400"]
WNbLfWLRR [label="", shape = square, fillcolor="#728d00"]
WNbLfWNbLRR [label="", shape = square, fillcolor="#6d9200"]
WNbLfWbLRR [label="", shape = square, fillcolor="#6a9500"]
WNbLfWyLRR [label="", shape = square, fillcolor="#659a00"]
WNbLfWyLlRR [label="", shape = square, fillcolor="#609f00"]
WNyLfWLRR [label="", shape = square, fillcolor="#30cf00"]
WkLfRWLRWLR [label="", shape = square, fillcolor="#59a600"]
WkLfRWyLRWkLlR [label="", shape = square, fillcolor="#55aa00"]
WkLfRWyLlRWkLlR [label="", shape = square, fillcolor="#50af00"]
WkLRWyLlR [label="", shape = square, fillcolor="#857a00"]
WkLRWyLlrR [label="", shape = square, fillcolor="#8a7500"]
WyLlWLRR [label="", shape = square, fillcolor="#936c00"]
WyLlWNbLRR [label="", shape = square, fillcolor="#8f7000"]
WkLlWNbLRR [label="", shape = square, fillcolor="#8b7400"]
WkLlWNkLRR [label="", shape = square, fillcolor="#867900"]
WkLlWkLRR [label="", shape = square, fillcolor="#827d00"]
WkLlWyLRR [label="", shape = square, fillcolor="#7d8200"]
WkLlWyLlRR [label="", shape = square, fillcolor="#798600"]
WkLlRWLR [label="", shape = square, fillcolor="#0ff00"]
WkLlRWNbLR [label="", shape = square, fillcolor="#0ff00"]
WkLlRWNbLlR [label="", shape = square, fillcolor="#0ff00"]
WLfRr [label="", shape = square, fillcolor="#778800"]
WLfRrWLR [label="", shape = square, fillcolor="#738c00"]
WNbLfRrWLR [label="", shape = square, fillcolor="#6e9100"]
WNbLfRrWNbLR [label="", shape = square, fillcolor="#738c00"]
WNbLfRWLRr [label="", shape = square, fillcolor="#5ba400"]
WNbLfRWLrR [label="", shape = square, fillcolor="#6a9500"]
WNbLfRWNbLrR [label="", shape = square, fillcolor="#659a00"]
WkLfRWyLfR [label="", shape = square, fillcolor="#758a00"]
WyLfRWLlR [label="", shape = square, fillcolor="#0ff00"]
WNyLfRr [label="", shape = square, fillcolor="#30cf00"]
WLfRWLlR [label="", shape = square, fillcolor="#619e00"]
WLRWLlR [label="", shape = square, fillcolor="#758a00"]
WNyLsRWNyLR [label="", shape = square, fillcolor="#0ff00"]
WNyLsRWNbLR [label="", shape = square, fillcolor="#0ff00"]
WNyLsRWNbLlR [label="", shape = square, fillcolor="#ff00ff"]
WNkLfRWNbLR [label="", shape = square, fillcolor="#4ab500"]
WNgLfRWNbLRWLR [label="", shape = square, fillcolor="#689700"]
WNgLfRWNbLRWNbLR [label="", shape = square, fillcolor="#639c00"]
WNgLfRWbLRWNbLR [label="", shape = square, fillcolor="#5ea100"]
WNgLfRWkLRWNbLR [label="", shape = square, fillcolor="#59a600"]
WNgLfRWkLR [label="", shape = square, fillcolor="#55aa00"]
WNgLfRWkLlR [label="", shape = square, fillcolor="#50af00"]
WgLfRWkLlR [label="", shape = square, fillcolor="#4bb400"]
WNyLfRWNgLR [label="", shape = square, fillcolor="#0ff00"]
WkLfRlWyLlR [label="", shape = square, fillcolor="#837c00"]
WkLfRWLrR [label="", shape = square, fillcolor="#50af00"]
WkLfRWkLrR [label="", shape = square, fillcolor="#4bb400"]
WNyLfRWLfR [label="", shape = square, fillcolor="#26d900"]
WNyLfRs [label="", shape = square, fillcolor="#639c00"]
WNyLWLRfRs [label="", shape = square, fillcolor="#5fa000"]
WNyLWLRRs [label="", shape = square, fillcolor="#5aa500"]
WNyLWLfRRs [label="", shape = square, fillcolor="#55aa00"]
WNyLWLfRR [label="", shape = square, fillcolor="#50af00"]
WNyLWLfRsR [label="", shape = square, fillcolor="#4bb400"]
WNyLWNbLfRsR [label="", shape = square, fillcolor="#46b900"]
WNyLfWNbLRsR [label="", shape = square, fillcolor="#8a7500"]
WNyLfWNbLRR [label="", shape = square, fillcolor="#867900"]
WNyLfsWNbLRR [label="", shape = square, fillcolor="#827d00"]
WNyLfsR [label="", shape = square, fillcolor="#7d8200"]
WNbLfsR [label="", shape = square, fillcolor="#788700"]
WNbLfWNbLRsR [label="", shape = square, fillcolor="#728d00"]
WNbLfsWNbLRR [label="", shape = square, fillcolor="#679800"]
WLfRWLR [label="", shape = square, fillcolor="#669900"]
WNbLfRWkLlR [label="", shape = square, fillcolor="#33cc00"]
WyLfRWyLlR [label="", shape = square, fillcolor="#4bb400"]
WkLlfRWyLR [label="", shape = square, fillcolor="#669900"]
WkLRWyLR [label="", shape = square, fillcolor="#5ca300"]
WkLflRWyLR [label="", shape = square, fillcolor="#6d9200"]
WNbLfRl [label="", shape = square, fillcolor="#52ad00"]
WNbLfRWLRl [label="", shape = square, fillcolor="#5ba400"]
WNgLfRWNgLlR [label="", shape = square, fillcolor="#1fe000"]
WgLfRWNgLlR [label="", shape = square, fillcolor="#1ae500"]
WkLfRWgLlR [label="", shape = square, fillcolor="#37c800"]
WkLfWLlRR [label="", shape = square, fillcolor="#7f8000"]
WLRf [label="", shape = square, fillcolor="#639c00"]
WNbLRf [label="", shape = square, fillcolor="#5da200"]
WNyLfWLRRl [label="", shape = square, fillcolor="#45ba00"]
WNyLfRlWNkLR [label="", shape = square, fillcolor="#7a8500"]
WNyLfRlWkLR [label="", shape = square, fillcolor="#758a00"]
WLRWLR [label="", shape = square, fillcolor="#56a900"]
WNbLRWLR [label="", shape = square, fillcolor="#51ae00"]
WNbLRWNbLR [label="", shape = square, fillcolor="#4cb300"]
WbLfllR [label="", shape = square, fillcolor="#6d9200"]
WbLflR [label="", shape = square, fillcolor="#689700"]
WyLfRl [label="", shape = square, fillcolor="#45ba00"]
WNbLfRWNkLrR [label="", shape = square, fillcolor="#798600"]
WNgLfRWNkLrR [label="", shape = square, fillcolor="#758a00"]
WbLRs [label="", shape = square, fillcolor="#6e9100"]
WbLfRs [label="", shape = square, fillcolor="#699600"]
WbLfRsf [label="", shape = square, fillcolor="#659a00"]
WNbLfRsf [label="", shape = square, fillcolor="#609f00"]
WNbLfRs [label="", shape = square, fillcolor="#5ba400"]
WNbLfsRf [label="", shape = square, fillcolor="#768900"]
WbLfsRf [label="", shape = square, fillcolor="#728d00"]
WkLfsRf [label="", shape = square, fillcolor="#6d9200"]
start -> WLR
WLR -> WNbLR
WLR -> WLfR
WNbLR -> WbLR
WNbLR -> WNyLR
WbLR -> WkLR
WkLR -> WkLfR
WkLfR -> WkLfRWLR
WkLfRWLR -> WkLfRWNbLR
WkLfRWNbLR -> WkLfRWbLR
WkLfRWbLR -> WkLfRWyLR
WkLfRWbLR -> WkLfRWkLR
WkLfRWyLR -> WkLfRWyLlR
WkLfRWyLrR -> WkLfRWyLlR
WkLWyLlRfR -> WNkLWyLlRfR
WNkLWyLlRfR -> WNkLR
WNkLR -> WNkLlR
WNkLR -> WNkLrR
WNkLlR -> WNkLlRf
WNkLlR -> WkLlR
WNkLlRf -> WNkLlR
WNkLlRf -> WNkLlRWLRf
WNkLlRWLRf -> WNkLlRWLR
WNkLlRWLR -> WNkLlRWLfR
WNkLlRWLfR -> WNkLlRWNbLfR
WNkLlRWNbLfR -> WNkLlRWbLfR
WNkLlRWbLfR -> WkLlRWbLfR
WkLlRWbLfR -> WyLlRWbLfR
WyLlRWbLfR -> WyLlRWkLfR
WyLlRWkLfR -> WLR
WyLlRWkLfR -> WyLlR
WkLfRr -> WkLfRrr
WkLfRr -> WkLfR
WkLfRrr -> WkLfRlr
WkLfRrr -> WkLfRr
WkLfRlr -> WkLfRll
WkLfRll -> WkLfR
WkLfRll -> WkLfRl
WLRWkLfR -> WNbLRWkLfR
WLRWkLfR -> WLR
WNbLRWkLfR -> WbLRWkLfR
WbLRWkLfR -> WyLRWkLfR
WyLRWkLfR -> WyLlRWkLfR
WNyLR -> WNyLfR
WNyLfR -> WNyLfRWLR
WNyLfR -> WNyLfRl
WNyLflR -> WNyLfR
WkLfWLRR -> WkLfWNbLRR
WkLfWLRR -> WkLfR
WkLfWLRR -> WkLfWLlRR
WkLfWNbLRR -> WkLfWbLRR
WkLfWbLRR -> WkLfWyLRR
WkLfWyLRR -> WkLfWyLlRR
WkLfWyLlRR -> WNkLfWyLlRR
WkLfWyLlRR -> WkLR
WNkLfWyLlRR -> WNyLfWyLlRR
WNyLfWyLlRR -> WNyLfWyLRR
WNyLfWyLlRR -> WyLlR
WNyLfWyLRR -> WNyLfWyLlRR
WyLflR -> WyLR
WyLflR -> WyLfR
WyLR -> WyLfR
WyLR -> WNyLR
WyLlRf -> WyLlR
WyLlRWLR -> WyLlRWNbLR
WyLlRWNbLR -> WyLlRWbLR
WyLlRWbLR -> WyLlRWkLR
WyLlRWkLR -> WyLlRWkLfR
WkLWLRR -> WkLWNbLRR
WkLWNbLRR -> WkLWbLRR
WkLWbLRR -> WkLWyLRR
WkLWyLRR -> WkLWyLlRR
WkLWyLlRR -> WkLfWyLlRR
WkLfRWkLR -> WkLfRWkLlR
WkLfRWkLlR -> WkLfRWNkLlR
WkLfRWkLlR -> WkLfR
WkLfRWkLlR -> WkLfRWyLlR
WkLfRWNkLlR -> WkLfRWNgLlR
WkLfRWNkLlR -> WkLfRWkLlR
WkLfRWNkLlR -> WkLfRWNbLlR
WkLfRf -> WkLfR
WkLfRl -> WkLfR
WkLfRl -> WkLfRll
WkLfRl -> WkLfRlWLR
WkLfRlWNkLlR -> WkLfRlWkLlR
WkLfRlWkLlR -> WkLfRl
WNyLfRWLR -> WNyLfRWNbLR
WNyLfRWLR -> WNyLfRWLlR
WNyLfRWNbLR -> WNyLfRWNbLlR
WNyLfRWNbLlR -> WNyLfRWNyLlR
WLfR -> WNbLfR
WbLfR -> WNbLfR
WbLfRl -> WbLfRll
WbLfRl -> WNbLfRl
WbLfRll -> WbLfR
WgLfR -> WNgLfR
WgLfR -> WLR
WNgLfR -> WgLfR
WNgLfR -> WNyLfR
WNbLfR -> WNyLfR
WNyLfRWLlR -> WNyLfRWNbLlR
WNyLfRWbLlR -> WNyLfRWNbLlR
WNyLfRWLrR -> WNyLfRWNbLrR
WNyLfRWLrR -> WNyLfRWLR
WNyLfRWNbLrR -> WNyLfRWNbLR
f -> ff
ff -> fff
WLlR -> WLR
WLlR -> WNbLlR
s -> sWLR
s -> WLR
sWLR -> WLR
WNbLflR -> WNbLfR
WNbLflR -> WNbLR
WNbLflR -> WNbLfflR
WNbLflR -> WNbLflrR
WNbLffR -> WNbLfflR
WNbLffRl -> WbLffRl
WbLffRl -> WNbLffRl
WbLffRl -> WLffRl
WLffRl -> WLR
WLffR -> WLR
WNbLlR -> WNbLllR
WNbLlR -> WbLlR
WNbLlR -> WNbLlRl
WNbLllR -> WNbLllrR
WNbLllrR -> WNbLR
WNbLfflR -> WNbLffR
WNbLfflR -> WNgLfflR
WNbLfflR -> WNbLfR
WNbLfRWLR -> WNbLfRWNbLR
WNbLfRWLR -> WNbLfRWLrR
WNbLfRWLR -> WNbLfRWLlR
WNbLfRWNbLR -> WNbLfRWbLR
WNbLfRWNbLR -> WNbLfRWNbLlR
WNbLfRWbLR -> WNbLfRWbLlR
WNbLfRWbLlR -> WNbLfRWgLlR
WNbLfRWbLlR -> WNbLfRWNbLlR
WNbLfRWbLlR -> WNbLfRWkLlR
WNbLfRWgLlR -> WbLfRWgLlR
WbLfRWgLlR -> WbLfRWNgLlR
WbLfRWNgLlR -> WNbLfRWNgLlR
WbLfRWNgLlR -> WbLfR
WNbLfRWNgLlR -> WbLfRWNgLlR
r -> WLR
WNgLR -> WNgLfR
WNgLRWLR -> WNgLRWNbLR
WNgLRWNbLR -> WNgLfRWNbLR
WNgLfRWNbLR -> WNgLfRWNbLlR
WNgLfRWNbLR -> WNgLfRWNbLRWLR
WNgLfRWNbLlR -> WNgLfRWbLlR
WNgLfRWNbLlR -> WNyLfRWNbLlR
WNgLfRWNbLlR -> WNgLfRWNgLlR
WNgLfRWbLlR -> WgLfRWbLlR
WgLfRWbLlR -> WgLfRWNbLlR
WgLfRWNbLlR -> WNgLfRWNbLlR
WNyLfRl -> WNyLfRll
WNyLfRl -> WNyLfR
WNyLfRll -> WNyLfR
WNyLfRll -> WNyLfRl
WNyLfRWNyLR -> WNyLfRWNyLlR
WNyLfRWNyLR -> WNyLfRWNbLR
WNyLfRWNyLlR -> WNyLfR
WNyLfRWNyLlR -> WNyLfRWyLlR
WNyLfRlWNyLlR -> WNyLfRlWNyLrR
WNyLfRlWNyLrR -> WNyLfRl
WNyLfRllWNyLfR -> WNyLfR
WNyLfRWLlRWNyLfR -> WNyLfRWLlRWNbLfR
WNyLfRWLlRWNbLfR -> WNyLfR
WNyLfRlWNbLfR -> WNyLfR
WNyLfRlWNbLfR -> WNyLfRlWNbLR
WNyLfRWbLfR -> WNyLfRWbLR
WNyLfRWbLR -> WNyLfRWbLlR
WNyLfRWbLR -> WNyLfRWNbLR
WkLfRWNyLlR -> WNkLfRWNyLlR
WkLfRWNyLlR -> WkLfRWNkLlR
WNkLfRWNyLlR -> WNyLfRWNyLlR
WNkLfRWNyLlR -> WkLfRWNyLlR
fff -> ffff
ffff -> fff
ffff -> WLR
fffWLR -> fffWLfR
fffWLR -> fff
fffWLfR -> fffWLR
WbLsR -> WNbLsR
WNgLsR -> WNyLsR
WNgLsR -> WNgLR
WNyLsR -> WNyLR
WNyLsR -> WNyLsRWLR
WkLfRWNyLR -> WkLfRWNyLlR
WkLfRWNrLlR -> WNkLfRWNrLlR
WNkLfRWNrLlR -> WNyLfRWNrLlR
WNyLfRWNrLlR -> WNyLfRWNbLlR
WyLfR -> WNyLfR
WkLfRlWLR -> WkLfRl
WkLfRlWLR -> WkLfR
WkLfRlWLR -> WkLfRlWNbLR
WkLfRWLlR -> WkLfRWkLlR
WkLfRWLlR -> WkLfR
WkLfRWLlR -> WkLfRWyLlR
WkLfRWLlR -> WkLfRWNbLlR
WkLfRWNgLlR -> WkLfRWNbLlR
WkLfRWNbLlR -> WkLfRWbLlR
WkLfRWNbLlR -> WkLfRWyLlR
WLsR -> WLR
WLsR -> WLsrR
WNkLrR -> WLrR
WNkLrR -> WNbLrR
WNkLrR -> WNgLrR
WLrR -> WNkLrR
WNbLrR -> WNkLrR
WNbLrR -> WNgLrR
WNbLrR -> WNbLR
WNgLrR -> WNyLrR
WNgLrR -> WNgLR
WNyLrR -> WNyLR
WNyLfRlWLR -> WNyLfRlWNbLR
WNyLfRlWLR -> WNyLfR
WNyLfRlWNbLR -> WNyLfRl
WNyLfRlWNbLR -> WNyLfR
WNyLfRlWNbLR -> WNyLfRlWNkLR
fWLR -> fWNbLR
fWNbLR -> fWNbLfR
fWNbLR -> f
fWNbLfR -> fWNbLlfR
fWNbLlfR -> fWNbLlR
fWNbLlR -> fWNbLlRl
fWNbLlRl -> f
fWNbLlRl -> WNbLRll
WNbLRll -> WNbLfRll
WNbLfRll -> WNkLfRll
WNbLfRll -> WNyLfRll
WNkLfRll -> WNyLfRll
WNkLfRll -> WNkLRll
WNkLfRll -> WNkLfR
sWNyLfRl -> WNyLfRl
WyLfRll -> WkLfRll
WkLllR -> WkLllRf
WkLllRf -> WkLRf
WkLRf -> WkLRllf
WkLRllf -> WkLR
WkLRllf -> WkLRll
WkLRll -> WkLfRll
WkLfRWNkLR -> WkLfRWNkLlR
WkLfRWNkLR -> WkLfRWkLR
WkLfRlWNbLR -> WkLfRlWNkLR
WkLfRlWNbLR -> WkLfR
WkLfRlWNbLR -> WkLfRlWLR
WkLfRlWNkLR -> WkLfRlWkLR
WkLfRlWkLR -> WkLfRl
WkLfsR -> WkLfR
WkLflR -> WkLfR
WNyLffR -> WNyLfffR
WNyLffR -> WNyLffRWLlR
WNyLffR -> WNyLffrR
WNyLffR -> WLR
WNyLfffR -> WLR
WbLffR -> WbLfffR
WbLfffR -> WyLfffR
WyLfffR -> WNbLfffR
WyLfffR -> WNyLfffR
WNbLfffR -> WyLfffR
WNbLfffR -> WNbLfR
WNkLfffR -> WNyLfffR
WNyLRfff -> WNyLR
WNyLRl -> WNyLRll
WNyLRll -> WNyLRllf
WNyLRll -> WNyLsRll
WNyLRll -> WNyLfRll
WNkLfRWNkLlR -> WNyLfRWNkLlR
WNyLfRWNkLlR -> WNyLfRWNbLlR
WNyLfRWkLlR -> WyLfRWkLlR
WNyLfRWkLlR -> WNyLfRWNkLlR
WyLfRWkLlR -> WkLfRWkLlR
WyLfRWkLlR -> WyLfR
WLWkLfRR -> WLWkLfRlR
WLWkLfRlR -> WNkLWkLfRlR
WNkLWkLfRlR -> WkLWkLfRlR
WkLWkLfRlR -> WLR
WNkLfR -> WNyLfR
WyLfRWyLfR -> WyLfR
WyLfRf -> WyLfRfl
WyLfRf -> WyLfR
WyLfRfl -> WkLfRfl
WkLfRfl -> WkLfR
WNbLfRWNbLlR -> WNyLfRWNbLlR
WLRfff -> WLR
WLfffR -> WLffR
WLfffR -> WNyLfffR
WNrLfR -> WLfR
WNrLfR -> WNgLfR
WNrLfR -> WNyLfR
WNbLfRr -> WNbLfR
WNbLfRr -> WNbLfRWLRr
WNbLfRrl -> WNbLfRr
WbLlR -> WbLlRWLR
WbLlR -> WkLlR
WbLlRWLR -> WbLRWLR
WbLRWLR -> WbLfRWLR
WbLfRWLR -> WNbLfRWLR
WNbLfRWLlR -> f
WNbLfRWLlR -> WNbLfRWNbLlR
WLRff -> WLR
WNyLfllR -> WNyLfR
WNyLfllR -> WNyLflR
WNyLfRWLRl -> WNyLfRWLR
WyLRWLR -> WyLRWLfR
WyLRWLfR -> WyLRWNbLfR
WyLRWNbLfR -> WyLRWNbLR
WyLRWNbLR -> WyLfRWNbLR
WyLfRWNbLR -> WyLfRWNyLR
WyLfRWNbLR -> WyLfRWNbLlR
WyLfRWNyLR -> WyLfRWNyLlR
WyLfRWNyLlR -> WNyLfRWNyLlR
fWLfR -> f
WNyLfRlf -> WNyLfRl
WNyLfRlf -> WNyLfR
WNyLfWNbLlRR -> WNyLfR
WNrLfrR -> WNrLffR
WNrLffR -> WNrLfffR
WNrLfffR -> WLfffR
WLffsR -> WNrLffsR
WNrLffsR -> WNyLffsR
WNyLffsR -> WNyLffR
WNyLffRWLlR -> WNyLffRWNrLlR
WNyLffRWNrLlR -> WNyLfRWNrLlR
WNkLfRWkLlR -> WNyLfRWkLlR
WNkLfRWkLlR -> WkLfRWkLlR
WkLfRWbLlR -> WkLfRWNbLlR
WkLfRWbLlR -> WkLfRWyLlR
WkLfRWbLlR -> WkLfRWkLlR
WLfRs -> WLRs
WLRs -> WLR
WgLR -> WNgLR
WNgLfRl -> WNyLfRl
WNgLfRl -> WNgLfRlf
WkLfllR -> WkLfR
WkLfllR -> WkLflR
WkLfRWkLllR -> WkLfRWkLlR
WkLffR -> WkLfffR
WkLffR -> WkLfflR
WkLffR -> WkLR
WkLffR -> WkLfR
WkLfffR -> WkLffR
WkLfflR -> WkLffR
l -> ll
ll -> llr
ll -> WLR
llr -> llrr
llr -> ll
llrr -> llr
WrLlR -> WLR
WkLsR -> WkLsRWLR
WkLsR -> WkLslR
WkLsR -> WkLR
WkLsRWLR -> WkLsRWLlR
WkLsRWLlR -> WkLsRWkLlR
WkLsRWkLlR -> WkLsR
WkLslR -> WkLsllR
WkLslR -> WkLslfR
WkLsllR -> WkLslR
WkLslfR -> WkLsR
WkLrR -> WkLR
WkLfrR -> WkLsrfrffWNgLsRrR
WNyLfRWLllR -> WNyLfRWNbLllR
WNyLfRWNbLllR -> WNyLfRWNbLlR
WNyLfRWNgLlR -> WNyLfRWNbLlR
WyLfRWLR -> WyLfRWNbLR
WyLfRWLR -> WyLfRWLlR
WyLfRWNbLlR -> WNyLfRWNbLlR
WNyLfRWNkLR -> WNyLfRWkLR
WNyLfRWNkLR -> WNyLfRWNkLlR
WNyLfRWkLR -> WNyLfRWkLlR
WNyLfRlr -> WNyLfRl
WNbLsfR -> WNbLsR
WbLrR -> WNbLrR
WNbLfrR -> WNbLfR
WNgLfflR -> WNgLfR
WNgLfRlf -> WNrLfRlf
WNrLfRlf -> WrLfRlf
WrLfRlf -> WyLfRlf
WyLfRlf -> WkLfRlf
WkLfRlf -> WkLfRl
WNyLflfR -> WNyLfR
WNyLflfR -> WNyLflR
WNyLfflR -> WNyLfR
WNyLffrR -> WNyLffR
WNyLsRll -> WNyLsR
WNyLsRWLR -> WNyLsRWLlR
WNyLsRWLR -> WNyLsRWNyLR
WNyLsRWLlR -> WNyLsRWbLlR
WNyLsRWbLlR -> WNyLsRWkLlR
WNyLsRWkLlR -> WNyLsR
WNbLffrR -> WNbLffR
WNbLflrR -> WLflrR
WLflrR -> WNbLflrR
WNkLfRl -> WNkLfRll
WNkLRll -> WNkLfRll
WLsrR -> WLsR
WkLRWLR -> WkLRWNbLR
WkLRWNbLR -> WkLRWNbLlR
WkLRWNbLlR -> WkLRWbLlR
WkLRWbLlR -> WkLRWkLlR
WkLRWkLlR -> WkLfRWkLlR
WNbLfWLRR -> WNbLfWNbLRR
WNbLfWNbLRR -> WNbLfWbLRR
WNbLfWNbLRR -> WNbLfsWNbLRR
WNbLfWbLRR -> WNbLfWyLRR
WNbLfWyLRR -> WNbLfWyLlRR
WNbLfWyLlRR -> WNbLfR
WNyLfWLRR -> WNyLfR
WkLfRWLRWLR -> WkLfRWLR
WkLfRWyLRWkLlR -> WkLfRWyLlRWkLlR
WkLfRWyLlRWkLlR -> WkLfRWyLlR
WkLRWyLlR -> WkLRWyLlrR
WkLRWyLlR -> WyLlR
WkLRWyLlrR -> WkLRWyLlR
WyLlWLRR -> WyLlWNbLRR
WyLlWNbLRR -> WkLlWNbLRR
WkLlWNbLRR -> WkLlWNkLRR
WkLlWNkLRR -> WkLlWkLRR
WkLlWkLRR -> WkLlWyLRR
WkLlWyLRR -> WkLlWyLlRR
WkLlWyLlRR -> WkLlR
WkLlRWLR -> WkLlRWNbLR
WkLlRWNbLR -> WkLlRWNbLlR
WkLlRWNbLlR -> WkLfRWNbLlR
WLfRr -> WLfRrWLR
WLfRrWLR -> WNbLfRrWLR
WNbLfRrWLR -> WNbLfRrWNbLR
WNbLfRrWLR -> WNbLfRr
WNbLfRrWNbLR -> WNbLfRrWLR
WNbLfRWLRr -> WNbLfRWLR
WNbLfRWLrR -> WNbLfRWNbLrR
WNbLfRWNbLrR -> WNbLfRWNbLR
WNbLfRWNbLrR -> WNbLfRWNkLrR
WyLfRWLlR -> WyLfRWNbLlR
WNyLfRr -> WNyLfR
WLfRWLlR -> WLRWLlR
WLfRWLlR -> WNbLfRWLlR
WNyLsRWNyLR -> WNyLsRWNbLR
WNyLsRWNbLR -> WNyLsRWNbLlR
WNkLfRWNbLR -> WNgLfRWNbLR
WNgLfRWNbLRWLR -> WNgLfRWNbLRWNbLR
WNgLfRWNbLRWNbLR -> WNgLfRWbLRWNbLR
WNgLfRWbLRWNbLR -> WNgLfRWkLRWNbLR
WNgLfRWkLRWNbLR -> WNgLfRWkLR
WNgLfRWkLR -> WNgLfRWkLlR
WNgLfRWkLlR -> WgLfRWkLlR
WgLfRWkLlR -> WkLfRWkLlR
WNyLfRWNgLR -> WNyLfRWNgLlR
WkLfRlWyLlR -> WkLfRlWkLlR
WkLfRWLrR -> WkLfRWkLrR
WkLfRWkLrR -> WkLfRWkLlR
WNyLfRWLfR -> WNyLfRWNbLfR
WNyLfRWLfR -> WNyLfR
WNyLfRs -> WNyLWLRfRs
WNyLWLRfRs -> WNyLWLRRs
WNyLWLRRs -> WNyLWLfRRs
WNyLWLfRRs -> WNyLWLfRR
WNyLWLfRR -> WNyLWLfRsR
WNyLWLfRsR -> WNyLWNbLfRsR
WNyLWNbLfRsR -> WNyLR
WNyLfWNbLRsR -> WNyLfWNbLRR
WNyLfWNbLRR -> WNyLfsWNbLRR
WNyLfsWNbLRR -> WNyLfsR
WNyLfsR -> WNbLfsR
WNbLfsR -> WNbLfWNbLRsR
WNbLfsR -> WNbLfsRf
WNbLfWNbLRsR -> WNbLfWNbLRR
WNbLfsWNbLRR -> WNbLR
WLfRWLR -> WLfRWLlR
WNbLfRWkLlR -> WNyLfRWkLlR
WyLfRWyLlR -> WkLfRWyLlR
WkLlfRWyLR -> WkLRWyLR
WkLRWyLR -> WkLfRWyLR
WkLflRWyLR -> WkLflR
WNbLfRl -> WNbLfRWLRl
WNbLfRl -> WNyLfRl
WNbLfRWLRl -> WNbLfRWLR
WNgLfRWNgLlR -> WgLfRWNgLlR
WgLfRWNgLlR -> WkLfRWNgLlR
WkLfRWgLlR -> WkLfRWbLlR
WkLfWLlRR -> WkLfWLRR
WLRf -> WNbLRf
WLRf -> WLR
WNbLRf -> WNbLR
WNyLfWLRRl -> WNyLfRl
WNyLfRlWNkLR -> WNyLfRlWkLR
WLRWLR -> WNbLRWLR
WNbLRWLR -> WNbLRWNbLR
WNbLRWNbLR -> WNbLfRWNbLR
WbLfllR -> WbLflR
WbLflR -> WbLfR
WyLfRl -> WNyLfRl
WNbLfRWNkLrR -> WNgLfRWNkLrR
WNgLfRWNkLrR -> WLR
WbLRs -> WbLfRs
WbLfRs -> WbLfRsf
WbLfRsf -> WNbLfRsf
WNbLfRsf -> WNbLfRs
WNbLfRs -> WNbLfR
WNbLfsRf -> WbLfsRf
WbLfsRf -> WkLfsRf
WkLfsRf -> WkLfsR
}