digraph graph_name {
  graph [
    charset = "UTF-8";
    label = "sample graph",
    labelloc = "t",
    labeljust = "c",
    bgcolor = "#ffffff",
    fontcolor = white,
    fontsize = 18,
    style = "filled",
    rankdir = TB,
    margin = 0.2,
    splines = spline,
    ranksep = 1.0,
    nodesep = 0.9
  ];

  node [
    colorscheme = "rdylgn11"
    style = "solid,filled",
    fontsize = 16,
    fontcolor = 6,
    fontname = "Migu 1M",
    color = 5,
    fillcolor = 11,
    fixedsize = true,
    height = 1.0,
    width = 1.0
  ];

  edge [
    style = solid,
    fontsize = 14,
    fontcolor = black,
    fontname = "Migu 1M",
    color = black,
    labelfloat = true,
    labeldistance = 2.5,
    labelangle = 70
  ];
  start [label="", shape = square, fillcolor="#0000ff"]
f [label="", shape = square, fillcolor="#649b00"]
fr [label="", shape = square, fillcolor="#798600"]
frr [label="", shape = square, fillcolor="#7d8200"]
R2LR [label="", shape = square, fillcolor="#51ae00"]
R2LfR [label="", shape = square, fillcolor="#45ba00"]
R2LfRr [label="", shape = square, fillcolor="#4ab500"]
R2LrfR [label="", shape = square, fillcolor="#58a700"]
R2LrR [label="", shape = square, fillcolor="#5ca300"]
R2LrrR [label="", shape = square, fillcolor="#39c600"]
R2LfrR [label="", shape = square, fillcolor="#34cb00"]
fR2LR [label="", shape = square, fillcolor="#4db200"]
fR2LrR [label="", shape = square, fillcolor="#4bb400"]
fR2LrRf [label="", shape = square, fillcolor="#45ba00"]
fR2LrRR2LR [label="", shape = square, fillcolor="#54ab00"]
fR3LrRR2LR [label="", shape = square, fillcolor="#5aa500"]
fR3LrR [label="", shape = square, fillcolor="#4bb400"]
fR3LrRf [label="", shape = square, fillcolor="#49b600"]
fR3LrfR [label="", shape = square, fillcolor="#5ea100"]
fR3LrRl [label="", shape = square, fillcolor="#0ff00"]
fR4LrRl [label="", shape = square, fillcolor="#ff00ff"]
fR4LrRf [label="", shape = square, fillcolor="#ff00ff"]
s [label="", shape = square, fillcolor="#6a9500"]
fs [label="", shape = square, fillcolor="#758a00"]
frrf [label="", shape = square, fillcolor="#807f00"]
R2LRfrr [label="", shape = square, fillcolor="#659a00"]
R2LfrrR [label="", shape = square, fillcolor="#ff00ff"]
frrR2LR [label="", shape = square, fillcolor="#817e00"]
frrR3LR [label="", shape = square, fillcolor="#7e8100"]
sR2LR [label="", shape = square, fillcolor="#50af00"]
sR2LrR [label="", shape = square, fillcolor="#3fc000"]
sR2LrRR2LR [label="", shape = square, fillcolor="#55aa00"]
fR2LrRR3LR [label="", shape = square, fillcolor="#5aa500"]
fR4LrRR3LR [label="", shape = square, fillcolor="#bf400"]
fR4LrR [label="", shape = square, fillcolor="#6f900"]
R4LfrR [label="", shape = square, fillcolor="#5ba400"]
fR4LR [label="", shape = square, fillcolor="#ff000"]
fsr [label="", shape = square, fillcolor="#728d00"]
fsrr [label="", shape = square, fillcolor="#738c00"]
fR9LR [label="", shape = square, fillcolor="#52ad00"]
fR3LRf [label="", shape = square, fillcolor="#6e9100"]
frR3LRf [label="", shape = square, fillcolor="#7f8000"]
frR3LR [label="", shape = square, fillcolor="#857a00"]
frR3LfR [label="", shape = square, fillcolor="#867900"]
frrR3LfR [label="", shape = square, fillcolor="#867900"]
frrR2LfR [label="", shape = square, fillcolor="#897600"]
frR6LfR [label="", shape = square, fillcolor="#8d7200"]
frR5LfR [label="", shape = square, fillcolor="#887700"]
frR4LfR [label="", shape = square, fillcolor="#847b00"]
frR3LrR [label="", shape = square, fillcolor="#758a00"]
fR2LRr [label="", shape = square, fillcolor="#52ad00"]
fR2LRR3LR [label="", shape = square, fillcolor="#659a00"]
R3LfR2LrRR [label="", shape = square, fillcolor="#0ff00"]
R2LfR2LrRR [label="", shape = square, fillcolor="#ff00ff"]
frrff [label="", shape = square, fillcolor="#847b00"]
frR2LR [label="", shape = square, fillcolor="#807f00"]
frR2LRf [label="", shape = square, fillcolor="#847b00"]
fR3LRr [label="", shape = square, fillcolor="#57a800"]
fR2LRrf [label="", shape = square, fillcolor="#5fa000"]
fR5LrRR3LR [label="", shape = square, fillcolor="#5fa000"]
fR2LrR3LfRR [label="", shape = square, fillcolor="#669900"]
fR2LrRR3LfR [label="", shape = square, fillcolor="#609f00"]
R2LrRR3LfR [label="", shape = square, fillcolor="#699600"]
R2LrRR3LR [label="", shape = square, fillcolor="#5da200"]
fR2LrRR2LfR [label="", shape = square, fillcolor="#639c00"]
fR6LrR [label="", shape = square, fillcolor="#ef100"]
fR6LrRf [label="", shape = square, fillcolor="#8f700"]
fR5LrRf [label="", shape = square, fillcolor="#3fc00"]
R2LfrRR3LR [label="", shape = square, fillcolor="#56a900"]
fR3LR [label="", shape = square, fillcolor="#45ba00"]
fR3LlRf [label="", shape = square, fillcolor="#4eb100"]
ss [label="", shape = square, fillcolor="#6e9100"]
fR2LRrr [label="", shape = square, fillcolor="#57a800"]
fR2LrRr [label="", shape = square, fillcolor="#3dc200"]
ff [label="", shape = square, fillcolor="#669900"]
fff [label="", shape = square, fillcolor="#609f00"]
frR2LrR [label="", shape = square, fillcolor="#7b8400"]
frl [label="", shape = square, fillcolor="#798600"]
R2LRfrl [label="", shape = square, fillcolor="#609f00"]
R2LfrlR [label="", shape = square, fillcolor="#1be400"]
R3LfrR [label="", shape = square, fillcolor="#20df00"]
R3LR [label="", shape = square, fillcolor="#57a800"]
R3LrR [label="", shape = square, fillcolor="#679800"]
fR2LRf [label="", shape = square, fillcolor="#6e9100"]
fR2LlR [label="", shape = square, fillcolor="#56a900"]
sl [label="", shape = square, fillcolor="#6f9000"]
sr [label="", shape = square, fillcolor="#837c00"]
srr [label="", shape = square, fillcolor="#936c00"]
srR2LRr [label="", shape = square, fillcolor="#8c7300"]
srR2LR [label="", shape = square, fillcolor="#887700"]
srrR2LR [label="", shape = square, fillcolor="#926d00"]
srs [label="", shape = square, fillcolor="#916e00"]
srss [label="", shape = square, fillcolor="#8d7200"]
srrf [label="", shape = square, fillcolor="#976800"]
srR2LrR [label="", shape = square, fillcolor="#956a00"]
srR2LrRf [label="", shape = square, fillcolor="#996600"]
sR2LrRR2LrR [label="", shape = square, fillcolor="#5aa500"]
sR2LrRr [label="", shape = square, fillcolor="#12ed00"]
sR3LrRr [label="", shape = square, fillcolor="#df200"]
sR3LrR [label="", shape = square, fillcolor="#7f800"]
sR3LrRf [label="", shape = square, fillcolor="#0ff00"]
sR4LrRf [label="", shape = square, fillcolor="#ff00ff"]
frrR2LRf [label="", shape = square, fillcolor="#857a00"]
frR3LRr [label="", shape = square, fillcolor="#897600"]
frrfR3LR [label="", shape = square, fillcolor="#857a00"]
ffr [label="", shape = square, fillcolor="#6e9100"]
frf [label="", shape = square, fillcolor="#7d8200"]
frfR3LR [label="", shape = square, fillcolor="#817e00"]
frff [label="", shape = square, fillcolor="#788700"]
r [label="", shape = square, fillcolor="#679800"]
frrl [label="", shape = square, fillcolor="#817e00"]
fR2LrrR [label="", shape = square, fillcolor="#5fa000"]
fR4LrfR [label="", shape = square, fillcolor="#2cd300"]
R2LRfR2LrR [label="", shape = square, fillcolor="#59a600"]
R2LRf [label="", shape = square, fillcolor="#4bb400"]
R2LR2LrRRf [label="", shape = square, fillcolor="#2fd00"]
R2LR2LrRR [label="", shape = square, fillcolor="#0ff00"]
fR2LrRlff [label="", shape = square, fillcolor="#7d8200"]
frlff [label="", shape = square, fillcolor="#788700"]
frrr [label="", shape = square, fillcolor="#5ea100"]
fR3LrRR3LR [label="", shape = square, fillcolor="#5fa000"]
fR3LrRfs [label="", shape = square, fillcolor="#4eb100"]
fR3LrRff [label="", shape = square, fillcolor="#4eb100"]
fR3LrRR2LfR [label="", shape = square, fillcolor="#649b00"]
frR4LR [label="", shape = square, fillcolor="#807f00"]
frrR4LfR [label="", shape = square, fillcolor="#877800"]
frlR2LR [label="", shape = square, fillcolor="#857a00"]
R2LsR [label="", shape = square, fillcolor="#679800"]
R2LsRR2LrRR3LR [label="", shape = square, fillcolor="#758a00"]
R2LsRR2LrR [label="", shape = square, fillcolor="#708f00"]
R10LsR [label="", shape = square, fillcolor="#5aa500"]
R10LR [label="", shape = square, fillcolor="#56a900"]
fR2LlfR [label="", shape = square, fillcolor="#59a600"]
fR2LrfR [label="", shape = square, fillcolor="#58a700"]
frR2LfR [label="", shape = square, fillcolor="#827d00"]
fR3LrRs [label="", shape = square, fillcolor="#55aa00"]
fR3LRs [label="", shape = square, fillcolor="#5aa500"]
fR3LrsR [label="", shape = square, fillcolor="#619e00"]
fR3LrRR2LrrflfR [label="", shape = square, fillcolor="#6a9500"]
fR3LrRR2LsrlfR [label="", shape = square, fillcolor="#659a00"]
frR4LrR [label="", shape = square, fillcolor="#738c00"]
R3LfR [label="", shape = square, fillcolor="#2ad500"]
R3LfrrR [label="", shape = square, fillcolor="#0ff00"]
fR2LRR2LR [label="", shape = square, fillcolor="#5ea100"]
fR8LrRr [label="", shape = square, fillcolor="#10ef00"]
fR7LrRr [label="", shape = square, fillcolor="#bf400"]
fR7LrRf [label="", shape = square, fillcolor="#5fa00"]
fR5LrR [label="", shape = square, fillcolor="#af500"]
fR2LrrrR [label="", shape = square, fillcolor="#649b00"]
fR4LrrR [label="", shape = square, fillcolor="#639c00"]
fR3LrrR [label="", shape = square, fillcolor="#5fa000"]
fR2LlRR2LR [label="", shape = square, fillcolor="#619e00"]
fR2LlRR3LR [label="", shape = square, fillcolor="#699600"]
fR2LrRR10LR [label="", shape = square, fillcolor="#58a700"]
fR2LfrR [label="", shape = square, fillcolor="#679800"]
R2LrRR2LR [label="", shape = square, fillcolor="#6a9500"]
R2LrRR2LfR [label="", shape = square, fillcolor="#6e9100"]
l [label="", shape = square, fillcolor="#689700"]
frrR4LR [label="", shape = square, fillcolor="#837c00"]
fl [label="", shape = square, fillcolor="#6c9300"]
fll [label="", shape = square, fillcolor="#748b00"]
fR2LlRf [label="", shape = square, fillcolor="#2fd00"]
fR4LlRf [label="", shape = square, fillcolor="#0ff00"]
fR4LrRR2LR [label="", shape = square, fillcolor="#bf400"]
rr [label="", shape = square, fillcolor="#6d9200"]
rrr [label="", shape = square, fillcolor="#699600"]
rrrR2LR [label="", shape = square, fillcolor="#6d9200"]
R3LrRR2LR [label="", shape = square, fillcolor="#778800"]
R3LrRR2LfR [label="", shape = square, fillcolor="#738c00"]
R3LrRR3LfR [label="", shape = square, fillcolor="#708f00"]
fR3LrRR3LfR [label="", shape = square, fillcolor="#5fa000"]
fR2LrRR2LsR [label="", shape = square, fillcolor="#788700"]
frrfR3LfR [label="", shape = square, fillcolor="#897600"]
fR2LrRR4LfR [label="", shape = square, fillcolor="#16e900"]
fR4LrRR4LfR [label="", shape = square, fillcolor="#10ef00"]
fR4LlR [label="", shape = square, fillcolor="#28d700"]
fR4LlRr [label="", shape = square, fillcolor="#2fd00"]
fR4LrRr [label="", shape = square, fillcolor="#0ff00"]
R2LRfr [label="", shape = square, fillcolor="#5ea100"]
R4LRfr [label="", shape = square, fillcolor="#6e9100"]
R2LRr [label="", shape = square, fillcolor="#56a900"]
R4LrR [label="", shape = square, fillcolor="#6e9100"]
fR8LrR [label="", shape = square, fillcolor="#bf400"]
R2LfrrrR [label="", shape = square, fillcolor="#0ff00"]
fR2LrRl [label="", shape = square, fillcolor="#5ca300"]
fllR2LR [label="", shape = square, fillcolor="#738c00"]
R3LflR [label="", shape = square, fillcolor="#2fd000"]
sR2LRr [label="", shape = square, fillcolor="#55aa00"]
sR3LrRs [label="", shape = square, fillcolor="#df200"]
sR4LrR [label="", shape = square, fillcolor="#0ff00"]
sR4LrRs [label="", shape = square, fillcolor="#ff00ff"]
fsf [label="", shape = square, fillcolor="#788700"]
fsfR2LR [label="", shape = square, fillcolor="#7c8300"]
sff [label="", shape = square, fillcolor="#6e9100"]
fR2LrlR [label="", shape = square, fillcolor="#5ea100"]
R2LfR2LlRR [label="", shape = square, fillcolor="#0ff00"]
fR5LR [label="", shape = square, fillcolor="#10ef00"]
fR2LR2LrRR [label="", shape = square, fillcolor="#2fd00"]
fR3LrRR2LRf [label="", shape = square, fillcolor="#5fa000"]
fR2LRrR2LR [label="", shape = square, fillcolor="#57a800"]
fR2LrR2LRR [label="", shape = square, fillcolor="#5ca300"]
R2LfrRR3LfR [label="", shape = square, fillcolor="#778800"]
R2LRR3LfR [label="", shape = square, fillcolor="#6e9100"]
R3LR2LrRfR [label="", shape = square, fillcolor="#6f9000"]
frrR2LfffR [label="", shape = square, fillcolor="#906f00"]
fR2LrrRf [label="", shape = square, fillcolor="#758a00"]
fR2LrRR6LR [label="", shape = square, fillcolor="#15ea00"]
fR7LrRR6LR [label="", shape = square, fillcolor="#10ef00"]
fR7LrR [label="", shape = square, fillcolor="#bf400"]
fR2LrRs [label="", shape = square, fillcolor="#50af00"]
R2LflR [label="", shape = square, fillcolor="#51ae00"]
flR2LR [label="", shape = square, fillcolor="#708f00"]
R4LR [label="", shape = square, fillcolor="#748b00"]
R4LfR [label="", shape = square, fillcolor="#6b9400"]
frfff [label="", shape = square, fillcolor="#837c00"]
frfR2LR [label="", shape = square, fillcolor="#817e00"]
R3LRR2LR [label="", shape = square, fillcolor="#8f7000"]
R2LRR2LR [label="", shape = square, fillcolor="#8b7400"]
frrR10LR [label="", shape = square, fillcolor="#817e00"]
fR2LRR3LfR [label="", shape = square, fillcolor="#659a00"]
sR2LfR [label="", shape = square, fillcolor="#649b00"]
sR6LfR [label="", shape = square, fillcolor="#609f00"]
frs [label="", shape = square, fillcolor="#609f00"]
R2LfrfR [label="", shape = square, fillcolor="#3dc200"]
R3LfrfR [label="", shape = square, fillcolor="#25da00"]
R2LrR2LRR [label="", shape = square, fillcolor="#6a9500"]
R2LrR2LfRR [label="", shape = square, fillcolor="#659a00"]
R2LfRR2LrR [label="", shape = square, fillcolor="#4fb000"]
fR2LrRR2LRr [label="", shape = square, fillcolor="#58a700"]
fR2LrRR2LrR [label="", shape = square, fillcolor="#5ba400"]
R2LrRf [label="", shape = square, fillcolor="#609f00"]
R2LfrRR2LfrR [label="", shape = square, fillcolor="#4cb300"]
R2LfRR2LfrR [label="", shape = square, fillcolor="#51ae00"]
R2LfllR [label="", shape = square, fillcolor="#3fc000"]
R2LrfrR [label="", shape = square, fillcolor="#609f00"]
rrR2LfR [label="", shape = square, fillcolor="#867900"]
ffrR2LR [label="", shape = square, fillcolor="#857a00"]
fR2LfR [label="", shape = square, fillcolor="#728d00"]
fR2LfRr [label="", shape = square, fillcolor="#768900"]
fR3LrlR [label="", shape = square, fillcolor="#50af00"]
fR3LrRR2LlR [label="", shape = square, fillcolor="#5fa000"]
R2LlR [label="", shape = square, fillcolor="#6e9100"]
fR2LR2LRrR [label="", shape = square, fillcolor="#57a800"]
R2LfrRR2LR [label="", shape = square, fillcolor="#738c00"]
fR2LrRR3LrR [label="", shape = square, fillcolor="#609f00"]
frR2LRr [label="", shape = square, fillcolor="#847b00"]
fR3LRrr [label="", shape = square, fillcolor="#59a600"]
fR10LRrr [label="", shape = square, fillcolor="#55aa00"]
fR10LRr [label="", shape = square, fillcolor="#50af00"]
fR10LrRr [label="", shape = square, fillcolor="#4bb400"]
fR10LrR [label="", shape = square, fillcolor="#50af00"]
fR5LrfR [label="", shape = square, fillcolor="#31ce00"]
start -> f
f -> fr
f -> fR2LR
fr -> frr
fr -> f
frr -> frrR2LR
R2LR -> R2LfR
R2LfR -> R2LfrR
R2LfRr -> R2LfR
R2LrfR -> R2LrR
R2LrfR -> R2LrrR
R2LrrR -> R2LfrR
R2LfrR -> R2LfrrR
fR2LR -> fR2LrR
fR2LrR -> fR2LrRR2LR
fR2LrRf -> fR2LrR
fR2LrRR2LR -> fR2LrR
fR3LrRR2LR -> fR3LrR
fR3LrRR2LR -> fR3LrRR2LfR
fR3LrR -> fR3LrRf
fR3LrR -> fR4LrR
fR3LrRf -> fR3LrR
fR3LrRf -> f
fR3LrfR -> fR3LrR
fR3LrfR -> fR2LrfR
fR3LrRl -> fR4LrRl
fR4LrRl -> fR4LrRf
fR4LrRl -> fR4LrR
s -> f
fs -> fsr
fs -> fsf
frrf -> frr
R2LRfrr -> R2LR
R2LfrrR -> R3LfrrR
frrR2LR -> frr
frrR3LR -> frr
sR2LR -> sR2LrR
sR2LR -> sR2LfR
sR2LrR -> sR2LrRR2LR
sR2LrRR2LR -> f
sR2LrRR2LR -> sR2LrR
fR2LrRR3LR -> fR2LrR
fR2LrRR3LR -> f
fR4LrRR3LR -> fR4LrR
fR4LrR -> fR4LrRf
R4LfrR -> R2LfrR
R4LfrR -> R4LR
fR4LR -> fR4LrR
fsr -> fsrr
fsr -> f
fsrr -> f
fR9LR -> fR2LR
fR3LRf -> f
frR3LRf -> frR3LR
frR3LRf -> f
frR3LRf -> fr
frR3LR -> frR3LfR
frR3LfR -> frR3LR
frR3LfR -> frR4LfR
frrR3LfR -> frr
frrR3LfR -> frrR3LR
frrR2LfR -> frrR3LfR
frR6LfR -> frR5LfR
frR5LfR -> frR4LfR
frR4LfR -> fr
frR3LrR -> fr
frR3LrR -> frR4LrR
frR3LrR -> R2LR
fR2LRr -> fR2LR
fR2LRR3LR -> f
fR2LRR3LR -> fR2LrRR3LR
fR2LRR3LR -> fR2LRR3LfR
R3LfR2LrRR -> R2LfR2LrRR
R2LfR2LrRR -> f
frrff -> frrf
frR2LR -> frR2LfR
frR2LRf -> frR3LRf
fR3LRr -> fR2LRr
fR2LrR3LfRR -> fR2LrR
fR2LrR3LfRR -> f
fR2LrRR3LfR -> f
fR2LrRR3LfR -> fR2LrRR3LR
R2LrRR3LfR -> R2LrRR3LR
R2LrRR3LR -> R2LrR
R2LrRR3LR -> R2LfrRR3LR
R2LrRR3LR -> fR2LrRR3LR
fR2LrRR2LfR -> fR2LrRR3LfR
fR2LrRR2LfR -> fR3LrRR2LfR
fR2LrRR2LfR -> fR2LrRR2LR
fR6LrR -> fR6LrRf
fR6LrRf -> fR5LrRf
fR5LrRf -> fR4LrRf
fR5LrRf -> fR5LrR
R2LfrRR3LR -> f
R2LfrRR3LR -> R2LfrR
fR3LR -> fR3LrR
fR3LlRf -> fR3LrRf
ss -> f
ss -> s
fR2LRrr -> fR2LRr
fR2LRrr -> fR2LR
fR2LrRr -> fR2LrR
fR2LrRr -> fR8LrRr
ff -> fff
ff -> f
fff -> R2LR
frR2LrR -> frR2LR
frR2LrR -> frR3LrR
frR2LrR -> f
frl -> R2LRfrl
frl -> frrl
frl -> frlff
R2LRfrl -> R2LR
R2LfrlR -> R2LfrR
R2LfrlR -> R2LfrrR
R3LfrR -> R3LfrrR
R3LR -> R3LfR
fR2LRf -> f
sl -> s
sr -> srr
srr -> srrR2LR
srR2LRr -> srR2LR
srR2LR -> sr
srrR2LR -> srr
srrR2LR -> sr
srs -> srss
srss -> sr
srrf -> srr
srR2LrR -> srR2LrRf
srR2LrR -> sr
srR2LrRf -> srR2LrR
sR2LrRR2LrR -> sR2LrRR2LR
sR2LrRr -> sR3LrRr
sR3LrRr -> sR3LrR
sR3LrR -> sR3LrRf
sR3LrR -> sR3LrRs
sR3LrR -> sR4LrR
sR3LrRf -> sR4LrRf
frrR2LRf -> frrR2LR
frR3LRr -> frR3LR
frrfR3LR -> frr
frrfR3LR -> frrf
ffr -> f
frf -> frff
frfR3LR -> frf
frff -> f
frff -> fr
r -> f
r -> rr
r -> R2LRr
frrl -> frr
fR2LrrR -> fR2LrR
fR2LrrR -> f
fR4LrfR -> fR4LrR
fR4LrfR -> fR3LrfR
R2LRfR2LrR -> R2LRf
R2LRfR2LrR -> R2LR
R2LRf -> R2LR2LrRRf
R2LRf -> R2LR
R2LRf -> f
R2LRf -> R2LRfR2LrR
R2LR2LrRRf -> R2LR2LrRR
R2LR2LrRR -> R2LfR2LrRR
fR2LrRlff -> f
frlff -> f
frrr -> frr
frrr -> f
frrr -> fr
frrr -> R2LfrrrR
fR3LrRR3LR -> fR3LrRR2LR
fR3LrRfs -> fR3LrRf
fR3LrRff -> fR3LrRf
fR3LrRR2LfR -> fR3LrR
fR3LrRR2LfR -> fR3LrRR2LR
fR3LrRR2LfR -> f
frR4LR -> fr
frrR4LfR -> frr
frrR4LfR -> fr
frlR2LR -> frrR2LR
R2LsR -> f
R2LsR -> R2LR
R2LsRR2LrRR3LR -> R2LsRR2LrR
R2LsRR2LrR -> R2LsR
R10LsR -> R10LR
R10LR -> R2LR
fR2LlfR -> fR2LlR
fR2LlfR -> fR2LR
fR2LrfR -> fR2LrR
fR2LrfR -> fR3LrfR
frR2LfR -> frR2LR
fR3LrRs -> fR3LrR
fR3LrRs -> fR3LRs
fR3LRs -> fR3LrRs
fR3LrsR -> f
fR3LrsR -> fR3LrR
fR3LrRR2LrrflfR -> fR3LrR
fR3LrRR2LsrlfR -> fR3LrR
frR4LrR -> f
R3LfR -> R3LfrR
R3LfR -> R3LflR
R3LfrrR -> R2LfrrR
fR2LRR2LR -> fR2LR
fR2LRR2LR -> fR2LRR3LR
fR8LrRr -> fR7LrRr
fR7LrRr -> fR7LrRf
fR7LrRf -> fR6LrRf
fR7LrRf -> fR4LrRf
fR5LrR -> fR4LrR
fR5LrR -> fR5LrRf
fR2LrrrR -> fR2LrrR
fR4LrrR -> fR3LrrR
fR3LrrR -> fR3LrR
fR2LlRR2LR -> fR2LlRR3LR
fR2LlRR2LR -> fR2LlR
fR2LlRR3LR -> fR2LRR3LR
fR2LrRR10LR -> fR2LrRR2LR
fR2LfrR -> fR2LR
fR2LfrR -> fR2LfR
R2LrRR2LR -> R2LrRR2LfR
R2LrRR2LR -> fR2LrRR2LR
R2LrRR2LfR -> R2LrRR3LfR
R2LrRR2LfR -> R2LrRR2LR
l -> f
frrR4LR -> fr
fl -> fll
fl -> f
fll -> fl
fll -> fllR2LR
fR2LlRf -> fR4LlRf
fR4LlRf -> fR4LrRf
fR4LrRR2LR -> fR4LrR
rr -> rrr
rrr -> rrrR2LR
rrr -> R2LR
rrrR2LR -> rrr
R3LrRR2LR -> R3LrRR2LfR
R3LrRR2LfR -> R3LrRR3LfR
R3LrRR2LfR -> R3LrR
R3LrRR3LfR -> R3LrR
fR2LrRR2LsR -> f
frrfR3LfR -> frrf
fR2LrRR4LfR -> fR4LrRR4LfR
fR4LrRR4LfR -> fR4LrR
fR4LlR -> fR4LlRr
fR4LlR -> fR4LlRf
fR4LlR -> f
fR4LlRr -> fR4LrRr
fR4LrRr -> fR4LrRl
R2LRfr -> R2LR
R2LRfr -> R4LRfr
R2LRfr -> R2LRf
R4LRfr -> f
R2LRr -> R2LR
R4LrR -> f
fR8LrR -> fR4LrR
R2LfrrrR -> R2LfrrR
fR2LrRl -> fR2LrR
fR2LrRl -> f
fllR2LR -> f
R3LflR -> R3LfR
sR2LRr -> sR2LR
sR3LrRs -> sR3LrR
sR4LrR -> sR4LrRs
fsf -> fsfR2LR
fsf -> fs
fsf -> f
fsfR2LR -> fsf
sff -> f
fR2LrlR -> fR2LrR
fR2LrlR -> r
fR2LrlR -> fR3LrlR
R2LfR2LlRR -> R2LfR2LrRR
fR5LR -> fR5LrR
fR2LR2LrRR -> R2LR2LrRR
fR3LrRR2LRf -> fR3LrRR2LR
fR2LRrR2LR -> fR2LR
fR2LrR2LRR -> fR2LrR
fR2LrR2LRR -> f
R2LfrRR3LfR -> R2LRR3LfR
R2LRR3LfR -> R2LrRR3LfR
R3LR2LrRfR -> fR2LrRR3LfR
frrR2LfffR -> frr
fR2LrrRf -> ff
fR2LrRR6LR -> fR7LrRR6LR
fR7LrRR6LR -> fR7LrR
fR7LrR -> fR7LrRf
fR2LrRs -> fR2LrR
R2LflR -> fl
R2LflR -> R2LfR
R2LflR -> R2LfllR
flR2LR -> fl
R4LR -> R4LfR
R4LR -> frR4LR
R4LR -> f
R4LfR -> f
R4LfR -> R4LfrR
R4LfR -> R4LR
frfff -> s
frfR2LR -> frf
R3LRR2LR -> R2LRR2LR
R2LRR2LR -> frr
frrR10LR -> frr
fR2LRR3LfR -> fR2LrRR3LfR
sR2LfR -> sR6LfR
sR6LfR -> R2LR
frs -> R2LR
R2LfrfR -> R3LfrfR
R2LfrfR -> R2LfR
R3LfrfR -> R3LfrR
R2LrR2LRR -> R2LrR2LfRR
R2LrR2LfRR -> R2LrR
R2LfRR2LrR -> R2LfR
fR2LrRR2LRr -> fR2LrRR2LR
fR2LrRR2LrR -> fR2LrRR2LR
fR2LrRR2LrR -> fR2LrRR3LrR
fR2LrRR2LrR -> fR2LrR
R2LrRf -> R2LrR
R2LfrRR2LfrR -> R2LfRR2LfrR
R2LfrRR2LfrR -> R2LfrR
R2LfRR2LfrR -> R2LfrRR2LfrR
R2LfllR -> R2LfR
R2LfllR -> R2LfrlR
R2LrfrR -> R2LR
rrR2LfR -> frR2LfR
ffrR2LR -> frrR2LR
fR2LfR -> frR2LfR
fR2LfR -> fR2LrfR
fR2LfRr -> fR2LfR
fR3LrlR -> fR3LrR
fR3LrRR2LlR -> fR3LrRR2LR
R2LlR -> f
fR2LR2LRrR -> fR2LR
R2LfrRR2LR -> f
fR2LrRR3LrR -> fR2LrRR2LrR
frR2LRr -> frR2LR
fR3LRrr -> fR10LRrr
fR10LRrr -> fR10LRr
fR10LRr -> fR10LrRr
fR10LrRr -> fR10LrR
fR10LrRr -> fR2LrRr
fR10LrR -> fR10LrRr
fR5LrfR -> fR4LrfR
}