digraph graph_name {
  graph [
    charset = "UTF-8";
    label = "sample graph",
    labelloc = "t",
    labeljust = "c",
    bgcolor = "#ffffff",
    fontcolor = white,
    fontsize = 18,
    style = "filled",
    rankdir = TB,
    margin = 0.2,
    splines = spline,
    ranksep = 1.0,
    nodesep = 0.9
  ];

  node [
    colorscheme = "rdylgn11"
    style = "solid,filled",
    fontsize = 16,
    fontcolor = 6,
    fontname = "Migu 1M",
    color = 5,
    fillcolor = 11,
    fixedsize = true,
    height = 1.0,
    width = 1.0
  ];

  edge [
    style = solid,
    fontsize = 14,
    fontcolor = black,
    fontname = "Migu 1M",
    color = black,
    labelfloat = true,
    labeldistance = 2.5,
    labelangle = 70
  ];
  start [label="", shape = square, fillcolor="#0000ff"]
WLR [label="", shape = square, fillcolor="#748b00"]
WNbLR [label="", shape = square, fillcolor="#708f00"]
WNyLR [label="", shape = square, fillcolor="#6a9500"]
WNyLrR [label="", shape = square, fillcolor="#6b9400"]
WNyLrRWLR [label="", shape = square, fillcolor="#699600"]
WNyLrRWNbLR [label="", shape = square, fillcolor="#659a00"]
WNyLrRWbLR [label="", shape = square, fillcolor="#699600"]
WNyLrRWNrLR [label="", shape = square, fillcolor="#609f00"]
WNyLrRWNrLlR [label="", shape = square, fillcolor="#5aa500"]
WNyLrRWNrLlRWLR [label="", shape = square, fillcolor="#778800"]
WNyLrRWNrLlRWLRWLR [label="", shape = square, fillcolor="#7b8400"]
WNyLrRWNrLlRWNbLR [label="", shape = square, fillcolor="#748b00"]
WNyLrRWNrLlRWNrLR [label="", shape = square, fillcolor="#758a00"]
WNyLrRWNrLlRWNyLR [label="", shape = square, fillcolor="#708f00"]
WNyLrRWNrLlRWNyLrR [label="", shape = square, fillcolor="#738c00"]
WLrRWNrLlRWNyLrR [label="", shape = square, fillcolor="#778800"]
WNyLrRWLlR [label="", shape = square, fillcolor="#649b00"]
WNyLrRWNbLlR [label="", shape = square, fillcolor="#619e00"]
WNyLrRWNrLlRWNyLlR [label="", shape = square, fillcolor="#768900"]
R2LR [label="", shape = square, fillcolor="#2dd200"]
R2LrR [label="", shape = square, fillcolor="#679800"]
R2LrrR [label="", shape = square, fillcolor="#728d00"]
R2LrrrR [label="", shape = square, fillcolor="#6e9100"]
R2LrrrlR [label="", shape = square, fillcolor="#6a9500"]
R2LrrrllR [label="", shape = square, fillcolor="#5aa500"]
R2LrrrlRWLR [label="", shape = square, fillcolor="#7b8400"]
R2LrrrlRWNbLR [label="", shape = square, fillcolor="#778800"]
R2LrrrlRWNbLlR [label="", shape = square, fillcolor="#738c00"]
WNbLlR [label="", shape = square, fillcolor="#748b00"]
WNbLrrrllR [label="", shape = square, fillcolor="#887700"]
R2LrrrllWNbLlRR [label="", shape = square, fillcolor="#649b00"]
R2LWNyLrrrllRR [label="", shape = square, fillcolor="#4bb400"]
R2LWNyLrrrlRR [label="", shape = square, fillcolor="#47b800"]
WNyLrRWNrLrR [label="", shape = square, fillcolor="#3ec100"]
WLR2LRR [label="", shape = square, fillcolor="#6d9200"]
WNbLR2LRR [label="", shape = square, fillcolor="#788700"]
WNyLR2LRR [label="", shape = square, fillcolor="#738c00"]
WNyLrrR [label="", shape = square, fillcolor="#6f9000"]
WNyLrRWNrLlRWyLR [label="", shape = square, fillcolor="#24db00"]
WNyLrRWrLlRWyLR [label="", shape = square, fillcolor="#1fe000"]
WyLrRWrLlRWyLR [label="", shape = square, fillcolor="#19e600"]
WyLrRWrLlRWyLrR [label="", shape = square, fillcolor="#1fe000"]
WyLrRWrLlR [label="", shape = square, fillcolor="#af500"]
R2LWyLrRWrLlRR [label="", shape = square, fillcolor="#5fa00"]
WLRR2LWyLrRWrLlRR [label="", shape = square, fillcolor="#50af00"]
WNbLRR2LWyLrRWrLlRR [label="", shape = square, fillcolor="#54ab00"]
R2LrRR2LR [label="", shape = square, fillcolor="#976800"]
R2LrRR2LlR [label="", shape = square, fillcolor="#936c00"]
R3LrRR2LlR [label="", shape = square, fillcolor="#906f00"]
R3LrRR2LlRR2LR [label="", shape = square, fillcolor="#916e00"]
R3LrRR2LlRR2LrR [label="", shape = square, fillcolor="#906f00"]
R3LrRR2LlRR4LrR [label="", shape = square, fillcolor="#837c00"]
R3LrRR2LlRR3LrR [label="", shape = square, fillcolor="#7f8000"]
R3LrRR2LlRR3LR [label="", shape = square, fillcolor="#877800"]
R3LrRR2LlrR [label="", shape = square, fillcolor="#4fb000"]
WLrR [label="", shape = square, fillcolor="#758a00"]
WNbLrR [label="", shape = square, fillcolor="#728d00"]
WNyLrRWNrLlRWLrR [label="", shape = square, fillcolor="#7c8300"]
WNyLrRWNrLlRWNbLrR [label="", shape = square, fillcolor="#778800"]
WNyLR2LRrR [label="", shape = square, fillcolor="#788700"]
WNyLR2LrRR [label="", shape = square, fillcolor="#748b00"]
WNbLR2LrRR [label="", shape = square, fillcolor="#798600"]
R2LrRWNbLR [label="", shape = square, fillcolor="#6b9400"]
R2LWNbLRrR [label="", shape = square, fillcolor="#31ce00"]
R2LWNbLRR [label="", shape = square, fillcolor="#2cd300"]
R2LWNbLrRR [label="", shape = square, fillcolor="#0ff00"]
R2LWNbLrRR2LRR [label="", shape = square, fillcolor="#0ff00"]
R2LWNbLrRWLRR [label="", shape = square, fillcolor="#0ff00"]
R2LWNbLrRWNbLRR [label="", shape = square, fillcolor="#0ff00"]
R2LWNbLrRWNbLRWLRR [label="", shape = square, fillcolor="#0ff00"]
R2LWNbLrRWNbLrRR [label="", shape = square, fillcolor="#0ff00"]
R2LWNbLrRWNrLrRR [label="", shape = square, fillcolor="#0ff00"]
R2LWNbLrRWNrLlRR [label="", shape = square, fillcolor="#0ff00"]
R2LWNyLrRWNrLlRR [label="", shape = square, fillcolor="#0ff00"]
R2LWNyLrRWNrLlRRf [label="", shape = square, fillcolor="#ff00ff"]
f [label="", shape = square, fillcolor="#55aa00"]
WNyLRWLR [label="", shape = square, fillcolor="#699600"]
WNyLRWNbLR [label="", shape = square, fillcolor="#659a00"]
WNyLRWNrLR [label="", shape = square, fillcolor="#619e00"]
WLRWNyLRWNrLR [label="", shape = square, fillcolor="#7d8200"]
WLWNyLRWNrLRR [label="", shape = square, fillcolor="#5aa500"]
WLWNyLrRWNrLRR [label="", shape = square, fillcolor="#55aa00"]
WLWNyLrRWNrLlRR [label="", shape = square, fillcolor="#51ae00"]
WNbLWNyLrRWNrLlRR [label="", shape = square, fillcolor="#4cb300"]
WNbLWNyLrRWNrLlRRf [label="", shape = square, fillcolor="#748b00"]
WNrLWNyLrRWNrLlRRf [label="", shape = square, fillcolor="#5aa500"]
WNrLWNyLrRWNrLlRR [label="", shape = square, fillcolor="#55aa00"]
R10LR [label="", shape = square, fillcolor="#bb4400"]
R10LfR [label="", shape = square, fillcolor="#cd3200"]
R10LfRR2LR [label="", shape = square, fillcolor="#d92600"]
R10LfRR2LfR [label="", shape = square, fillcolor="#d62900"]
R10LlR [label="", shape = square, fillcolor="#a25d00"]
R3LlR [label="", shape = square, fillcolor="#9e6100"]
R3LlRr [label="", shape = square, fillcolor="#a15e00"]
R3LlRrr [label="", shape = square, fillcolor="#9d6200"]
R3LlRrrR2LR [label="", shape = square, fillcolor="#996600"]
R3LlRrrR2LlR [label="", shape = square, fillcolor="#956a00"]
R3LRrrR2LlR [label="", shape = square, fillcolor="#916e00"]
R3LrRrrR2LlR [label="", shape = square, fillcolor="#8d7200"]
R3LrR [label="", shape = square, fillcolor="#7a8500"]
R3LrRl [label="", shape = square, fillcolor="#629d00"]
R3LrRll [label="", shape = square, fillcolor="#5ea100"]
R3LrRllR2LrR [label="", shape = square, fillcolor="#54ab00"]
R3LrRllR3LrR [label="", shape = square, fillcolor="#4fb000"]
R2LWLRR [label="", shape = square, fillcolor="#27d800"]
R2LWkLRR [label="", shape = square, fillcolor="#0ff00"]
R2LWkLrRR [label="", shape = square, fillcolor="#0ff00"]
R2LWkLrWLRRR [label="", shape = square, fillcolor="#bf400"]
R2LWkLrWkLRRR [label="", shape = square, fillcolor="#6f900"]
R2LWkLrWkLlRRR [label="", shape = square, fillcolor="#0ff00"]
R2LWkLrRWkLlRR [label="", shape = square, fillcolor="#0ff00"]
R2LWkLrRWbLlRR [label="", shape = square, fillcolor="#0ff00"]
R2LWkLrRWNbLlRR [label="", shape = square, fillcolor="#0ff00"]
R2LWkLrRWNrLlRR [label="", shape = square, fillcolor="#0ff00"]
R2LWNkLrRWNrLlRR [label="", shape = square, fillcolor="#0ff00"]
WNyLrRWNrLlRf [label="", shape = square, fillcolor="#5ea100"]
R2LRWNyLrRWNrLlR [label="", shape = square, fillcolor="#37c800"]
WNyLrRWNrLRWLR [label="", shape = square, fillcolor="#837c00"]
WNyLrRWNrLRWLlR [label="", shape = square, fillcolor="#877800"]
WNyLrRR2LR [label="", shape = square, fillcolor="#5da200"]
WNyLrRR2LlR [label="", shape = square, fillcolor="#58a700"]
R3LR [label="", shape = square, fillcolor="#7e8100"]
R3LrRR2LR [label="", shape = square, fillcolor="#996600"]
R3LRR2LlRR3LrR [label="", shape = square, fillcolor="#8d7200"]
R2LWNyLRR [label="", shape = square, fillcolor="#44bb00"]
R2LWNyLrRR [label="", shape = square, fillcolor="#3fc000"]
R2LWNyLrRWLRR [label="", shape = square, fillcolor="#0ff00"]
R2LWNyLrRWNbLRR [label="", shape = square, fillcolor="#0ff00"]
R2LWNyLrRWNrLRR [label="", shape = square, fillcolor="#0ff00"]
R2LWNyLrWLRRR [label="", shape = square, fillcolor="#857a00"]
R2LWNyLrWNbLRRR [label="", shape = square, fillcolor="#817e00"]
R2LWNyLrWNrLRRR [label="", shape = square, fillcolor="#7d8200"]
R2LWNyLrWNrLlRRR [label="", shape = square, fillcolor="#798600"]
R2LWNyLrWNrLlRRRf [label="", shape = square, fillcolor="#758a00"]
R2LRf [label="", shape = square, fillcolor="#887700"]
R2LWNyLrRRf [label="", shape = square, fillcolor="#44bb00"]
R2LWNyLrRRR2LR [label="", shape = square, fillcolor="#778800"]
R2LWNyLrRRR2LWNrLlRR [label="", shape = square, fillcolor="#6d9200"]
R2LWNyLrRRR2LWNrLlRfR [label="", shape = square, fillcolor="#728d00"]
R2LWNyLrRRR2LWNrLlRRf [label="", shape = square, fillcolor="#728d00"]
R10LWNyLrRRR2LWNrLlRR [label="", shape = square, fillcolor="#58a700"]
R10LWNyLrRRR10LWNrLlRR [label="", shape = square, fillcolor="#53ac00"]
R10LWNyLrRR [label="", shape = square, fillcolor="#44bb00"]
R3LWNyLrRR [label="", shape = square, fillcolor="#0ff00"]
R3LWNyLrRWLRR [label="", shape = square, fillcolor="#0ff00"]
R3LWNyLrRWNbLRR [label="", shape = square, fillcolor="#0ff00"]
R3LWNyLrRWNrLRR [label="", shape = square, fillcolor="#0ff00"]
R3LWNyLrRWNrLlRR [label="", shape = square, fillcolor="#0ff00"]
WNyLrRWNkLR [label="", shape = square, fillcolor="#649b00"]
WNkLR [label="", shape = square, fillcolor="#847b00"]
WNkLrR [label="", shape = square, fillcolor="#807f00"]
WNkLrRWLR [label="", shape = square, fillcolor="#7c8300"]
WNkLrRWNbLR [label="", shape = square, fillcolor="#6f9000"]
WNkLrRWNrLR [label="", shape = square, fillcolor="#6b9400"]
WNkLrRWNrLlR [label="", shape = square, fillcolor="#679800"]
WNkLRWNrLlR [label="", shape = square, fillcolor="#6b9400"]
R3LrRWNrLlRWNyLrR [label="", shape = square, fillcolor="#4fb000"]
WNbLWNyLrRR [label="", shape = square, fillcolor="#857a00"]
WNbLWNyLrRWLRR [label="", shape = square, fillcolor="#55aa00"]
WNbLWNyLrRWLlRR [label="", shape = square, fillcolor="#51ae00"]
rWNbLWNyLrRWNrLlRR [label="", shape = square, fillcolor="#0ff00"]
WNbLWNyLrRWNrLlRrR [label="", shape = square, fillcolor="#ff00ff"]
R4LWNyLrRWNrLlRR [label="", shape = square, fillcolor="#25da00"]
R4LWNyLrRWNrLlRRf [label="", shape = square, fillcolor="#887700"]
R3LWNyLrRWNrLlRRf [label="", shape = square, fillcolor="#847b00"]
R3LWNyLrRRf [label="", shape = square, fillcolor="#7b8400"]
R3LWNyLrRRWNrLlRf [label="", shape = square, fillcolor="#728d00"]
R2LWNyLrRRWNrLlRf [label="", shape = square, fillcolor="#6e9100"]
WNrLlRf [label="", shape = square, fillcolor="#5fa000"]
R3LrRR2LlRR4LR [label="", shape = square, fillcolor="#926d00"]
WNyLrRWNrLrRWNyLrRWNrLrR [label="", shape = square, fillcolor="#52ad00"]
WNyLrRWNrLrRWNyLrR [label="", shape = square, fillcolor="#48b700"]
R2LWNyLrRWNrLrRR [label="", shape = square, fillcolor="#0ff00"]
R2LWNyLrRWNrLrRRf [label="", shape = square, fillcolor="#0ff00"]
WbLWNyLrRWNrLlRRf [label="", shape = square, fillcolor="#788700"]
WNbLRf [label="", shape = square, fillcolor="#6d9200"]
R2LWNyLrRWNrLlRRs [label="", shape = square, fillcolor="#ff00ff"]
WNyLrRWNyLR [label="", shape = square, fillcolor="#649b00"]
WNyLrRWNrLlrRWNyLR [label="", shape = square, fillcolor="#679800"]
WNrLlrR [label="", shape = square, fillcolor="#59a600"]
WNrLlR [label="", shape = square, fillcolor="#54ab00"]
WNrLrlR [label="", shape = square, fillcolor="#4fb000"]
WNrLR [label="", shape = square, fillcolor="#6e9100"]
R2LR3LrRWNrLlRR [label="", shape = square, fillcolor="#0ff00"]
R2LR3LrRWNrLlRRf [label="", shape = square, fillcolor="#ff00ff"]
WyLrR [label="", shape = square, fillcolor="#6f9000"]
WNyLRWNyLR [label="", shape = square, fillcolor="#659a00"]
R2LRWNyLRWNrLR [label="", shape = square, fillcolor="#37c800"]
R2LWNyLRWNrLRR [label="", shape = square, fillcolor="#0ff00"]
R2LWNyLrRWNrLlRRr [label="", shape = square, fillcolor="#ff00ff"]
WbLrR [label="", shape = square, fillcolor="#768900"]
WNyLrRWNyLrR [label="", shape = square, fillcolor="#43bc00"]
WNyLrRWNkLlR [label="", shape = square, fillcolor="#5ea100"]
R2LWNyLrRWNrLlRWNyLrRR [label="", shape = square, fillcolor="#0ff00"]
R2LWNyLrRWNrLlRWNbLrRR [label="", shape = square, fillcolor="#0ff00"]
R2LWNyLrRWNrLlRWNbLRR [label="", shape = square, fillcolor="#0ff00"]
WNbLWLRR [label="", shape = square, fillcolor="#5ba400"]
WNbLWNbLRR [label="", shape = square, fillcolor="#57a800"]
WNbLWbLRR [label="", shape = square, fillcolor="#916e00"]
WNbLWyLRR [label="", shape = square, fillcolor="#8d7200"]
WNbLWyLR2LRRR [label="", shape = square, fillcolor="#897600"]
WNbLWyLR2LlRRR [label="", shape = square, fillcolor="#857a00"]
WNbLrWyLR2LlRRR [label="", shape = square, fillcolor="#817e00"]
WNbLWNrLRR [label="", shape = square, fillcolor="#14eb00"]
WNbLWNrLWLRRR [label="", shape = square, fillcolor="#ff000"]
WNbLWNrLWNbLRRR [label="", shape = square, fillcolor="#9f600"]
WNbLWNrLWNyLRRR [label="", shape = square, fillcolor="#4fb00"]
WNbLWNrLrWNyLRRR [label="", shape = square, fillcolor="#0ff00"]
WNbLWNrLrWyLRRR [label="", shape = square, fillcolor="#0ff00"]
WNbLWNrLrWyLRRrR [label="", shape = square, fillcolor="#0ff00"]
WNbLWNrLRrR [label="", shape = square, fillcolor="#0ff00"]
WNbLWNrLR2LRRrR [label="", shape = square, fillcolor="#0ff00"]
WNbLWNyLR2LRRrR [label="", shape = square, fillcolor="#0ff00"]
WNbLWNyLR2LRRR [label="", shape = square, fillcolor="#0ff00"]
WNbLWNyLR2LlRRrR [label="", shape = square, fillcolor="#0ff00"]
WNbLWyLR2LlRRrR [label="", shape = square, fillcolor="#0ff00"]
WNbLWyLRrR [label="", shape = square, fillcolor="#0ff00"]
WNbLWyLWLRRrR [label="", shape = square, fillcolor="#0ff00"]
WNbLWyLWNbLRRrR [label="", shape = square, fillcolor="#0ff00"]
WNbLWyLWNrLRRrR [label="", shape = square, fillcolor="#0ff00"]
WNbLWyLWNrLlRRrR [label="", shape = square, fillcolor="#ff00ff"]
R4LrR [label="", shape = square, fillcolor="#50af00"]
R4LrRR2LR [label="", shape = square, fillcolor="#4bb400"]
R4LrRR2LlR [label="", shape = square, fillcolor="#46b900"]
R2LRR4LrRR2LlR [label="", shape = square, fillcolor="#42bd00"]
R2LR4LrRR2LlRR [label="", shape = square, fillcolor="#679800"]
R2LR3LrRR2LlRR [label="", shape = square, fillcolor="#629d00"]
R2LR3LrRR2LlRRR2LR [label="", shape = square, fillcolor="#679800"]
R2LR3LrRR [label="", shape = square, fillcolor="#50af00"]
R2LR3LrRWLRR [label="", shape = square, fillcolor="#4bb400"]
R2LR3LrRWLlRR [label="", shape = square, fillcolor="#46b900"]
R2LR3LrRWNbLlRR [label="", shape = square, fillcolor="#42bd00"]
WyLR [label="", shape = square, fillcolor="#738c00"]
WLrRWLR [label="", shape = square, fillcolor="#679800"]
WLrRWLlR [label="", shape = square, fillcolor="#629d00"]
WLrRWLlRWLR [label="", shape = square, fillcolor="#708f00"]
WLrRWLlRWLrR [label="", shape = square, fillcolor="#6c9300"]
WLrRWLlRf [label="", shape = square, fillcolor="#4bb400"]
R2LRWLrRWLlRf [label="", shape = square, fillcolor="#47b800"]
R2LWLrRWLlRfR [label="", shape = square, fillcolor="#0ff00"]
R2LWLrRWLlRR [label="", shape = square, fillcolor="#0ff00"]
R2LWLrRWLlRRf [label="", shape = square, fillcolor="#0ff00"]
R2LWNbLrRWLlRRf [label="", shape = square, fillcolor="#0ff00"]
R2LWNbLrRWNbLlRRf [label="", shape = square, fillcolor="#0ff00"]
R2LWNbLrRWbLlRRf [label="", shape = square, fillcolor="#0ff00"]
R2LWbLrRWbLlRRf [label="", shape = square, fillcolor="#0ff00"]
R2LWkLrRWbLlRRf [label="", shape = square, fillcolor="#0ff00"]
R2LWkLrRWkLlRRf [label="", shape = square, fillcolor="#0ff00"]
R2LWkLrRWyLlRRf [label="", shape = square, fillcolor="#0ff00"]
R2LWNkLrRWyLlRRf [label="", shape = square, fillcolor="#0ff00"]
R2LWNyLrRWyLlRRf [label="", shape = square, fillcolor="#0ff00"]
R2LWNyLrRWNyLlRRf [label="", shape = square, fillcolor="#0ff00"]
R2LlR [label="", shape = square, fillcolor="#a25d00"]
R3LlRR2LR [label="", shape = square, fillcolor="#936c00"]
R3LlRR2LlR [label="", shape = square, fillcolor="#8f7000"]
R3LlRR2LlRR2LR [label="", shape = square, fillcolor="#8b7400"]
R3LlRR2LlRR2LrR [label="", shape = square, fillcolor="#877800"]
R3LlRR2LlRR3LrR [label="", shape = square, fillcolor="#837c00"]
R2LRR2LR [label="", shape = square, fillcolor="#669900"]
R2LRR2LRR2LR [label="", shape = square, fillcolor="#629d00"]
R2LRR2LRR2LRWLR [label="", shape = square, fillcolor="#5da200"]
R2LRR2LRR2LRWNbLR [label="", shape = square, fillcolor="#59a600"]
R2LRR2LRR2LRWNbLRWLR [label="", shape = square, fillcolor="#54ab00"]
R2LRR2LRR2LRWNbLRWLRWLR [label="", shape = square, fillcolor="#4fb000"]
R2LRWNyLrR [label="", shape = square, fillcolor="#37c800"]
R2LWNyLrRlR [label="", shape = square, fillcolor="#956a00"]
R2LWNyLrRllR [label="", shape = square, fillcolor="#916e00"]
WLRR2LWNyLrRllR [label="", shape = square, fillcolor="#8d7200"]
WLR2LWNyLrRllRR [label="", shape = square, fillcolor="#ab5400"]
WNbLR2LWNyLrRllRR [label="", shape = square, fillcolor="#a75800"]
WNbLR2LWNyLrRRR [label="", shape = square, fillcolor="#9e6100"]
WNbLR2LWNyLrRWLRRR [label="", shape = square, fillcolor="#9a6500"]
WNbLR2LWNyLrRWNbLRRR [label="", shape = square, fillcolor="#976800"]
WNbLR2LWNyLrRWNrLRRR [label="", shape = square, fillcolor="#936c00"]
WNbLR2LWNyLrRWNrLlRRR [label="", shape = square, fillcolor="#8f7000"]
WNrLRWNbLR2LWNyLrRWNrLlRRR [label="", shape = square, fillcolor="#916e00"]
WNbLRWNbLR2LWNyLrRWNrLlRRR [label="", shape = square, fillcolor="#8d7200"]
WNbLWNbLR2LWNyLrRWNrLlRRRR [label="", shape = square, fillcolor="#8d7200"]
WNbLWNyLrWNrLlRRR [label="", shape = square, fillcolor="#a75800"]
WNyLrWNrLlRR [label="", shape = square, fillcolor="#a35c00"]
WNyLrWNrLlRRWNbLR [label="", shape = square, fillcolor="#a05f00"]
WNyLrWNrLlRRWbLR [label="", shape = square, fillcolor="#a35c00"]
WNyLrWNrLlRRWNbLfR [label="", shape = square, fillcolor="#946b00"]
WNyLR2LRrWNrLlRRWNbLfR [label="", shape = square, fillcolor="#906f00"]
WNyLR2LRRWNbLfR [label="", shape = square, fillcolor="#827d00"]
WNyLR2LrRRWNbLfR [label="", shape = square, fillcolor="#7e8100"]
WNyLR2LrRRWNrLlR [label="", shape = square, fillcolor="#629d00"]
WNyLR2LrRRWNrLR [label="", shape = square, fillcolor="#59a600"]
WNyLR2LrRRWNrLR2LRR [label="", shape = square, fillcolor="#54ab00"]
WNyLR2LrRRWNrLR2LlRR [label="", shape = square, fillcolor="#4fb000"]
R3LrRR2LlRR4LlR [label="", shape = square, fillcolor="#996600"]
WLRWNyLrRWNrLlR [label="", shape = square, fillcolor="#887700"]
WNyLrRWNrLWNbLlRR [label="", shape = square, fillcolor="#6a9500"]
r [label="", shape = square, fillcolor="#4fb000"]
R3LrRR2LRl [label="", shape = square, fillcolor="#a55a00"]
R3LrRR2LRlR2LR [label="", shape = square, fillcolor="#a25d00"]
R3LrRR2LlR2LRR [label="", shape = square, fillcolor="#936c00"]
R3LrRR2LR2LrRlR [label="", shape = square, fillcolor="#956a00"]
R3LrRR2LR2LrRR [label="", shape = square, fillcolor="#916e00"]
R3LrRR2LlR2LrRR [label="", shape = square, fillcolor="#8d7200"]
R3LR2LlR2LrRRrR [label="", shape = square, fillcolor="#9a6500"]
R3LR2LlR2LrRRR [label="", shape = square, fillcolor="#966900"]
R3LrR2LlR2LrRRR [label="", shape = square, fillcolor="#926d00"]
R2LfR [label="", shape = square, fillcolor="#827d00"]
R3LfR [label="", shape = square, fillcolor="#7e8100"]
R3LrRr [label="", shape = square, fillcolor="#7e8100"]
WrLR [label="", shape = square, fillcolor="#b64900"]
WrLrR [label="", shape = square, fillcolor="#b24d00"]
WrLrlR [label="", shape = square, fillcolor="#af5000"]
WrLR2LRrlR [label="", shape = square, fillcolor="#ab5400"]
WrLR2LRR [label="", shape = square, fillcolor="#a25d00"]
WrLR2LrlRR [label="", shape = square, fillcolor="#996600"]
WrLR2LrRRl [label="", shape = square, fillcolor="#906f00"]
WNrLR2LrRRl [label="", shape = square, fillcolor="#8c7300"]
WNyLR2LrRRl [label="", shape = square, fillcolor="#887700"]
WyLR2LrRRl [label="", shape = square, fillcolor="#847b00"]
WyLR2LrRR [label="", shape = square, fillcolor="#807f00"]
WyLR2LrRRWLR [label="", shape = square, fillcolor="#7c8300"]
WyLR2LrRRWrLR [label="", shape = square, fillcolor="#788700"]
WyLR2LrRRWrLlR [label="", shape = square, fillcolor="#748b00"]
WNyLR2LrRRWrLlR [label="", shape = square, fillcolor="#788700"]
WyLR2LrRRWNrLlR [label="", shape = square, fillcolor="#679800"]
WNyLRWNrLlR [label="", shape = square, fillcolor="#5ea100"]
WNyLrRWNrLlWNyLrRR [label="", shape = square, fillcolor="#6f9000"]
WNyLrRWNrLR2LRR [label="", shape = square, fillcolor="#847b00"]
WNyLrRWNrLR2LlRR [label="", shape = square, fillcolor="#807f00"]
WNyLrRWNrLR2LlRRWNyLrR [label="", shape = square, fillcolor="#8d7200"]
WNyLrRWNrLR2LlRRWLrR [label="", shape = square, fillcolor="#897600"]
WNyLRWNrLlRWNyLrR [label="", shape = square, fillcolor="#778800"]
WNyLrRR2LRWNrLlR [label="", shape = square, fillcolor="#55aa00"]
WNyLrRR2LWNrLlRR [label="", shape = square, fillcolor="#4bb400"]
R2LRWNyLrRR2LWNrLlRR [label="", shape = square, fillcolor="#47b800"]
R2LWNyLrRR2LWNrLlRRR [label="", shape = square, fillcolor="#847b00"]
R3LWNyLrRR2LWNrLlRRR [label="", shape = square, fillcolor="#807f00"]
R3LWNyLrRR3LWNrLlRRR [label="", shape = square, fillcolor="#9b6400"]
R2LWNyLrRR3LWNrLlRRR [label="", shape = square, fillcolor="#976800"]
R2LWNyLrRR3LWNrLfRRR [label="", shape = square, fillcolor="#a35c00"]
R2LWNyLlRR3LWNrLfRRR [label="", shape = square, fillcolor="#a75800"]
R3LWNyLfRR2LWNrLlRRR [label="", shape = square, fillcolor="#6c9300"]
R3LWyLfRR2LWNrLlRRR [label="", shape = square, fillcolor="#50af00"]
R3LWyLrRR2LWNrLlRRR [label="", shape = square, fillcolor="#4bb400"]
R2LWyLrRR2LWNrLlRRR [label="", shape = square, fillcolor="#47b800"]
R2LWrLRR [label="", shape = square, fillcolor="#29d600"]
R2LWyLRR [label="", shape = square, fillcolor="#24db00"]
R2LWyLrRR [label="", shape = square, fillcolor="#1fe000"]
R2LWyLrRWLRR [label="", shape = square, fillcolor="#19e600"]
R2LWyLrRWrLRR [label="", shape = square, fillcolor="#14eb00"]
R2LWyLrRWNrLRR [label="", shape = square, fillcolor="#19e600"]
R2LWyLrRWrLlRRf [label="", shape = square, fillcolor="#0ff00"]
R2LWNyLrRWrLlRRf [label="", shape = square, fillcolor="#0ff00"]
start -> WLR
WLR -> WNbLR
WNbLR -> WNyLR
WNyLR -> WNyLrR
WNyLrR -> WNyLrRWLR
WNyLrRWLR -> WNyLrRWNbLR
WNyLrRWNbLR -> WNyLrRWNrLR
WNyLrRWbLR -> WNyLrRWNbLR
WNyLrRWNrLR -> WNyLrRWNrLlR
WNyLrRWNrLlR -> WNyLrRWNrLlRWLR
WNyLrRWNrLlR -> R2LRWNyLrRWNrLlR
WNyLrRWNrLlRWLR -> WNyLrRWNrLlRWNbLR
WNyLrRWNrLlRWLRWLR -> WNyLrRWNrLlRWLR
WNyLrRWNrLlRWNbLR -> WNyLrRWNrLlRWNyLR
WNyLrRWNrLlRWNrLR -> WNyLrRWNrLlRWNyLR
WNyLrRWNrLlRWNyLR -> WNyLrRWNrLlRWNyLrR
WNyLrRWNrLlRWNyLrR -> WLR
WNyLrRWNrLlRWNyLrR -> WNyLrRWNrLlR
WLrRWNrLlRWNyLrR -> WNyLrRWNrLlRWNyLrR
WNyLrRWLlR -> WNyLrRWNbLlR
WNyLrRWNbLlR -> WNyLrRWNrLlR
WNyLrRWNrLlRWNyLlR -> WNyLrRWNrLlRWNyLR
WNyLrRWNrLlRWNyLlR -> WNyLrRWNrLlRWNyLrR
R2LR -> R2LWNyLrRWNrLlRR
R2LrR -> R2LrrR
R2LrR -> R2LrRR2LR
R2LrR -> R2LWNbLRrR
R2LrR -> R4LrR
R2LrrR -> R2LrrrR
R2LrrrR -> R2LrrrlR
R2LrrrlR -> R2LrrrllR
R2LrrrlR -> R2LrrrlRWLR
R2LrrrllR -> R2LrrrlR
R2LrrrllR -> R2LR
R2LrrrllR -> R2LrrrllWNbLlRR
R2LrrrlRWLR -> R2LrrrlRWNbLR
R2LrrrlRWNbLR -> R2LrrrlRWNbLlR
R2LrrrlRWNbLlR -> R2LrrrlR
WNbLlR -> WNbLR
WNbLrrrllR -> WNbLR
R2LrrrllWNbLlRR -> R2LrrrllR
R2LWNyLrrrllRR -> R2LWNyLrrrlRR
R2LWNyLrrrlRR -> R2LR
WNyLrRWNrLrR -> WLR
WNyLrRWNrLrR -> R2LWNyLrRWNrLrRR
WNyLrRWNrLrR -> WNyLrRWNrLlR
WLR2LRR -> WNbLR2LRR
WLR2LRR -> f
WNbLR2LRR -> WNyLR2LRR
WNyLR2LRR -> WNyLR
WNyLR2LRR -> WNyLR2LrRR
WNyLrrR -> WNyLrR
WNyLrRWNrLlRWyLR -> WNyLrRWrLlRWyLR
WNyLrRWrLlRWyLR -> WyLrRWrLlRWyLR
WyLrRWrLlRWyLR -> WyLrRWrLlRWyLrR
WyLrRWrLlRWyLR -> WyLrRWrLlR
WyLrRWrLlRWyLrR -> WyLrRWrLlRWyLR
WyLrRWrLlR -> R2LWyLrRWrLlRR
R2LWyLrRWrLlRR -> WLRR2LWyLrRWrLlRR
R2LWyLrRWrLlRR -> R2LWyLrRWrLlRRf
WLRR2LWyLrRWrLlRR -> WNbLRR2LWyLrRWrLlRR
WLRR2LWyLrRWrLlRR -> R2LR
WNbLRR2LWyLrRWrLlRR -> WLRR2LWyLrRWrLlRR
R2LrRR2LR -> R2LrRR2LlR
R2LrRR2LlR -> R3LrRR2LlR
R3LrRR2LlR -> R3LrRR2LlRR2LR
R3LrRR2LlRR2LR -> R3LrRR2LlRR2LrR
R3LrRR2LlRR2LR -> R3LrRR2LlRR3LR
R3LrRR2LlRR2LR -> R3LrRR2LlRR4LR
R3LrRR2LlRR2LrR -> R3LrRR2LlRR4LrR
R3LrRR2LlRR2LrR -> R3LrRR2LlR
R3LrRR2LlRR4LrR -> R3LrRR2LlRR3LrR
R3LrRR2LlRR3LrR -> R3LrRR2LlRR3LR
R3LrRR2LlRR3LrR -> R3LRR2LlRR3LrR
R3LrRR2LlRR3LrR -> R2LR
R3LrRR2LlRR3LrR -> R3LrRR2LlR
R3LrRR2LlRR3LR -> R3LrRR2LlR
R3LrRR2LlRR3LR -> R3LrRR2LlRR3LrR
WLrR -> WNbLrR
WNbLrR -> WNyLrR
WNbLrR -> WbLrR
WNyLrRWNrLlRWLrR -> WNyLrRWNrLlRWNbLrR
WNyLrRWNrLlRWNbLrR -> WNyLrRWNrLlRWNyLrR
WNyLR2LRrR -> WNyLR2LRR
WNyLR2LrRR -> WNbLR2LrRR
WNyLR2LrRR -> WNyLR2LrRRWNrLlR
WNbLR2LrRR -> WNbLR
R2LrRWNbLR -> R2LrR
R2LWNbLRrR -> R2LWNbLRR
R2LWNbLRR -> R2LWNbLrRR
R2LWNbLRR -> R2LWNyLRR
R2LWNbLrRR -> R2LWNbLrRR2LRR
R2LWNbLrRR -> R2LWNbLrRWLRR
R2LWNbLrRR2LRR -> R2LWNbLrRR
R2LWNbLrRWLRR -> R2LWNbLrRWNbLRR
R2LWNbLrRWNbLRR -> R2LWNbLrRWNbLRWLRR
R2LWNbLrRWNbLRR -> R2LWNbLrRWNbLrRR
R2LWNbLrRWNbLRWLRR -> R2LWNbLrRWNbLRR
R2LWNbLrRWNbLrRR -> R2LWNbLrRWNrLrRR
R2LWNbLrRWNrLrRR -> R2LWNbLrRWNrLlRR
R2LWNbLrRWNrLlRR -> R2LWNyLrRWNrLlRR
R2LWNyLrRWNrLlRR -> R2LWNyLrRWNrLlRRf
f -> WLR
f -> R2LR
WNyLRWLR -> WNyLRWNbLR
WNyLRWNbLR -> WNyLRWNrLR
WNyLRWNrLR -> WLRWNyLRWNrLR
WNyLRWNrLR -> R2LRWNyLRWNrLR
WNyLRWNrLR -> WNyLrRWNrLR
WLRWNyLRWNrLR -> WLR
WLWNyLRWNrLRR -> WLWNyLrRWNrLRR
WLWNyLrRWNrLRR -> WLWNyLrRWNrLlRR
WLWNyLrRWNrLlRR -> WNbLWNyLrRWNrLlRR
WNbLWNyLrRWNrLlRR -> WNbLWNyLrRWNrLlRRf
WNbLWNyLrRWNrLlRR -> WNbLR
WNbLWNyLrRWNrLlRRf -> WNrLWNyLrRWNrLlRRf
WNbLWNyLrRWNrLlRRf -> WbLWNyLrRWNrLlRRf
WNbLWNyLrRWNrLlRRf -> WNbLRf
WNrLWNyLrRWNrLlRRf -> WNrLWNyLrRWNrLlRR
WNrLWNyLrRWNrLlRR -> WLWNyLrRWNrLlRR
R10LR -> R10LfR
R10LR -> R10LlR
R10LfR -> R10LfRR2LR
R10LfR -> R10LR
R10LfRR2LR -> R10LfRR2LfR
R10LfRR2LfR -> R10LfR
R10LlR -> R3LlR
R3LlR -> R3LlRr
R3LlR -> R3LlRR2LR
R3LlRr -> R3LlRrr
R3LlRrr -> R3LlRrrR2LR
R3LlRrrR2LR -> R3LlRrrR2LlR
R3LlRrrR2LlR -> R3LRrrR2LlR
R3LRrrR2LlR -> R3LrRrrR2LlR
R3LrRrrR2LlR -> R3LrR
R3LrR -> R3LrRR2LR
R3LrRl -> R3LrRll
R3LrRll -> R3LrRllR2LrR
R3LrRllR2LrR -> R3LrRllR3LrR
R2LWLRR -> R2LWNbLRR
R2LWkLRR -> R2LWkLrRR
R2LWkLrRR -> R2LWkLrWLRRR
R2LWkLrRR -> R2LWkLrRWkLlRR
R2LWkLrWLRRR -> R2LWkLrWkLRRR
R2LWkLrWkLRRR -> R2LWkLrWkLlRRR
R2LWkLrWkLlRRR -> R2LWkLrRR
R2LWkLrRWkLlRR -> R2LWkLrRWbLlRR
R2LWkLrRWbLlRR -> R2LWkLrRWNbLlRR
R2LWkLrRWNbLlRR -> R2LWkLrRWNrLlRR
R2LWkLrRWNrLlRR -> R2LWNkLrRWNrLlRR
R2LWNkLrRWNrLlRR -> R2LWNyLrRWNrLlRR
WNyLrRWNrLlRf -> WNyLrRWNrLlR
R2LRWNyLrRWNrLlR -> R2LR
WNyLrRWNrLRWLR -> WNyLrRWNrLRWLlR
WNyLrRWNrLRWLR -> WNyLrRWNrLlRWLR
WNyLrRWNrLRWLlR -> WNyLrRWNrLRWLR
WNyLrRR2LR -> WNyLrRR2LlR
WNyLrRR2LlR -> R2LR
WNyLrRR2LlR -> WNyLrR
R3LR -> R3LrR
R3LrRR2LR -> R3LrRR2LlR
R3LRR2LlRR3LrR -> WLR
R2LWNyLRR -> R2LWNyLrRR
R2LWNyLrRWLRR -> R2LWNyLrRWNbLRR
R2LWNyLrRWNbLRR -> R2LWNyLrRWNrLRR
R2LWNyLrRWNrLRR -> R2LWNyLrRWNrLlRR
R2LWNyLrWLRRR -> R2LWNyLrWNbLRRR
R2LWNyLrWNbLRRR -> R2LWNyLrWNrLRRR
R2LWNyLrWNrLRRR -> R2LWNyLrWNrLlRRR
R2LWNyLrWNrLlRRR -> R2LWNyLrWNrLlRRRf
R2LWNyLrWNrLlRRRf -> R2LRf
R2LWNyLrWNrLlRRRf -> R2LWNyLrRRf
R2LRf -> R2LWNyLrWNrLlRRRf
R2LWNyLrRRf -> R2LWNyLrRR
R2LWNyLrRRR2LR -> R2LWNyLrRRR2LWNrLlRR
R2LWNyLrRRR2LWNrLlRR -> R2LWNyLrRRR2LWNrLlRfR
R2LWNyLrRRR2LWNrLlRR -> R2LWNyLrRRR2LWNrLlRRf
R2LWNyLrRRR2LWNrLlRR -> R10LWNyLrRRR2LWNrLlRR
R2LWNyLrRRR2LWNrLlRfR -> R2LWNyLrRRR2LWNrLlRR
R2LWNyLrRRR2LWNrLlRRf -> R2LWNyLrRRR2LWNrLlRR
R10LWNyLrRRR2LWNrLlRR -> R10LWNyLrRRR10LWNrLlRR
R10LWNyLrRRR10LWNrLlRR -> R10LWNyLrRR
R10LWNyLrRR -> R2LWNyLrRR
R3LWNyLrRR -> R3LWNyLrRWLRR
R3LWNyLrRWLRR -> R3LWNyLrRWNbLRR
R3LWNyLrRWNbLRR -> R3LWNyLrRWNrLRR
R3LWNyLrRWNrLRR -> R3LWNyLrRWNrLlRR
R3LWNyLrRWNrLlRR -> R2LWNyLrRWNrLlRR
WNyLrRWNkLR -> WNyLrRWNrLR
WNkLR -> WNkLrR
WNkLrR -> WNkLrRWLR
WNkLrRWLR -> WNkLrR
WNkLrRWLR -> WNkLrRWNbLR
WNkLrRWNbLR -> WNkLrRWNrLR
WNkLrRWNrLR -> WNkLrRWNrLlR
WNkLrRWNrLlR -> WNkLRWNrLlR
WNkLrRWNrLlR -> WNyLrRWNrLlR
WNkLRWNrLlR -> WNkLrRWNrLlR
WNbLWNyLrRR -> WNbLWNyLrRWLRR
WNbLWNyLrRR -> WNbLWNyLrWNrLlRRR
WNbLWNyLrRWLRR -> WNbLWNyLrRWLlRR
WNbLWNyLrRWLlRR -> WNbLWNyLrRWNrLlRR
rWNbLWNyLrRWNrLlRR -> WNbLWNyLrRWNrLlRrR
R4LWNyLrRWNrLlRR -> R4LWNyLrRWNrLlRRf
R4LWNyLrRWNrLlRR -> R3LWNyLrRWNrLlRR
R4LWNyLrRWNrLlRRf -> R3LWNyLrRWNrLlRRf
R3LWNyLrRWNrLlRRf -> R3LWNyLrRRf
R3LWNyLrRRf -> R3LWNyLrRRWNrLlRf
R3LWNyLrRRWNrLlRf -> R2LWNyLrRRWNrLlRf
R2LWNyLrRRWNrLlRf -> WNrLlRf
WNrLlRf -> f
R3LrRR2LlRR4LR -> R3LrRR2LlRR4LrR
R3LrRR2LlRR4LR -> R3LrRR2LlRR4LlR
WNyLrRWNrLrRWNyLrRWNrLrR -> WNyLrRWNrLrRWNyLrR
WNyLrRWNrLrRWNyLrR -> WNyLrRWNrLrR
R2LWNyLrRWNrLrRR -> R2LWNyLrRWNrLrRRf
R2LWNyLrRWNrLrRRf -> R2LWNyLrRWNrLlRRf
WbLWNyLrRWNrLlRRf -> WNbLWNyLrRWNrLlRRf
WNbLRf -> WNyLrRWNrLlR
WNyLrRWNyLR -> WNyLrRWNrLR
WNyLrRWNrLlrRWNyLR -> WNrLlrR
WNrLlrR -> WNrLlR
WNrLlR -> WNrLrlR
WNrLR -> WNyLR
R2LR3LrRWNrLlRR -> R2LR3LrRWNrLlRRf
WyLrR -> WNyLrR
WNyLRWNyLR -> WNyLRWNrLR
R2LRWNyLRWNrLR -> R2LR
R2LWNyLRWNrLRR -> R2LWNyLrRWNrLRR
R2LWNyLrRWNrLlRRr -> R2LWNyLrRWNrLlRR
WbLrR -> WNbLrR
WNyLrRWNyLrR -> WNyLrRWNrLrR
WNyLrRWNkLlR -> WNyLrRWNrLlR
R2LWNyLrRWNrLlRWNyLrRR -> R2LWNyLrRWNrLlRWNbLrRR
R2LWNyLrRWNrLlRWNbLrRR -> R2LWNyLrRWNrLlRWNbLRR
R2LWNyLrRWNrLlRWNbLRR -> R2LWNyLrRWNrLlRR
WNbLWLRR -> WNbLWNbLRR
WNbLWNbLRR -> WNbLWbLRR
WNbLWNbLRR -> WNbLWNrLRR
WNbLWbLRR -> WNbLWyLRR
WNbLWyLRR -> WNbLWyLR2LRRR
WNbLWyLR2LRRR -> WNbLWyLR2LlRRR
WNbLWyLR2LlRRR -> WNbLrWyLR2LlRRR
WNbLrWyLR2LlRRR -> WNbLrR
WNbLWNrLRR -> WNbLWNrLWLRRR
WNbLWNrLWLRRR -> WNbLWNrLWNbLRRR
WNbLWNrLWNbLRRR -> WNbLWNrLWNyLRRR
WNbLWNrLWNyLRRR -> WNbLWNrLrWNyLRRR
WNbLWNrLrWNyLRRR -> WNbLWNrLrWyLRRR
WNbLWNrLrWyLRRR -> WNbLWNrLrWyLRRrR
WNbLWNrLrWyLRRrR -> WNbLWNrLRrR
WNbLWNrLRrR -> WNbLWNrLR2LRRrR
WNbLWNrLR2LRRrR -> WNbLWNyLR2LRRrR
WNbLWNyLR2LRRrR -> WNbLWNyLR2LRRR
WNbLWNyLR2LRRrR -> WNbLWNyLR2LlRRrR
WNbLWNyLR2LRRR -> WNbLWNyLR2LRRrR
WNbLWNyLR2LlRRrR -> WNbLWyLR2LlRRrR
WNbLWyLR2LlRRrR -> WNbLWyLRrR
WNbLWyLRrR -> WNbLWyLWLRRrR
WNbLWyLWLRRrR -> WNbLWyLWNbLRRrR
WNbLWyLWNbLRRrR -> WNbLWyLWNrLRRrR
WNbLWyLWNrLRRrR -> WNbLWyLWNrLlRRrR
R4LrR -> R4LrRR2LR
R4LrRR2LR -> R4LrRR2LlR
R4LrRR2LlR -> R2LRR4LrRR2LlR
R2LRR4LrRR2LlR -> R2LR
R2LR4LrRR2LlRR -> R2LR3LrRR2LlRR
R2LR3LrRR2LlRR -> R2LR3LrRR2LlRRR2LR
R2LR3LrRR2LlRR -> R2LR3LrRR
R2LR3LrRR2LlRRR2LR -> R2LR3LrRR2LlRR
R2LR3LrRR -> R2LR3LrRWLRR
R2LR3LrRWLRR -> R2LR3LrRWLlRR
R2LR3LrRWLlRR -> R2LR3LrRWNbLlRR
R2LR3LrRWNbLlRR -> R2LR
WyLR -> WyLrR
WLrRWLR -> WLrRWLlR
WLrRWLlR -> WLrRWLlRWLR
WLrRWLlR -> WLrRWLlRf
WLrRWLlRWLR -> WLrRWLlRWLrR
WLrRWLlRWLrR -> WLrRWLlR
WLrRWLlRf -> R2LRWLrRWLlRf
R2LRWLrRWLlRf -> R2LR
R2LWLrRWLlRfR -> R2LWLrRWLlRR
R2LWLrRWLlRR -> R2LWLrRWLlRRf
R2LWLrRWLlRRf -> R2LWNbLrRWLlRRf
R2LWNbLrRWLlRRf -> R2LWNbLrRWNbLlRRf
R2LWNbLrRWNbLlRRf -> R2LWNbLrRWbLlRRf
R2LWNbLrRWbLlRRf -> R2LWbLrRWbLlRRf
R2LWbLrRWbLlRRf -> R2LWkLrRWbLlRRf
R2LWkLrRWbLlRRf -> R2LWkLrRWkLlRRf
R2LWkLrRWkLlRRf -> R2LWkLrRWyLlRRf
R2LWkLrRWyLlRRf -> R2LWNkLrRWyLlRRf
R2LWNkLrRWyLlRRf -> R2LWNyLrRWyLlRRf
R2LWNyLrRWyLlRRf -> R2LWNyLrRWNyLlRRf
R2LWNyLrRWNyLlRRf -> R2LWNyLrRWNrLlRRf
R2LlR -> R3LlR
R3LlRR2LR -> R3LlRR2LlR
R3LlRR2LlR -> R3LlRR2LlRR2LR
R3LlRR2LlRR2LR -> R3LlRR2LlRR2LrR
R3LlRR2LlRR2LrR -> R3LlRR2LlRR3LrR
R3LlRR2LlRR3LrR -> R3LrRR2LlRR3LrR
R2LRR2LR -> R2LRR2LRR2LR
R2LRR2LRR2LR -> R2LRR2LRR2LRWLR
R2LRR2LRR2LRWLR -> R2LRR2LRR2LRWNbLR
R2LRR2LRR2LRWNbLR -> R2LRR2LRR2LRWNbLRWLR
R2LRR2LRR2LRWNbLRWLR -> R2LRR2LRR2LRWNbLRWLRWLR
R2LRWNyLrR -> R2LR
R2LWNyLrRlR -> R2LWNyLrRllR
R2LWNyLrRllR -> WLRR2LWNyLrRllR
WLRR2LWNyLrRllR -> WLR
WLR2LWNyLrRllRR -> WNbLR2LWNyLrRllRR
WNbLR2LWNyLrRllRR -> WNbLR2LWNyLrRRR
WNbLR2LWNyLrRRR -> WNbLR2LWNyLrRWLRRR
WNbLR2LWNyLrRWLRRR -> WNbLR2LWNyLrRWNbLRRR
WNbLR2LWNyLrRWNbLRRR -> WNbLR2LWNyLrRWNrLRRR
WNbLR2LWNyLrRWNrLRRR -> WNbLR2LWNyLrRWNrLlRRR
WNbLR2LWNyLrRWNrLlRRR -> WNrLRWNbLR2LWNyLrRWNrLlRRR
WNbLR2LWNyLrRWNrLlRRR -> WNbLR
WNrLRWNbLR2LWNyLrRWNrLlRRR -> WNbLRWNbLR2LWNyLrRWNrLlRRR
WNbLRWNbLR2LWNyLrRWNrLlRRR -> WNbLR
WNbLWNbLR2LWNyLrRWNrLlRRRR -> WNbLR
WNbLWNyLrWNrLlRRR -> WNyLrWNrLlRR
WNyLrWNrLlRR -> WNyLrWNrLlRRWNbLR
WNyLrWNrLlRRWNbLR -> WNyLrWNrLlRRWbLR
WNyLrWNrLlRRWNbLR -> WNyLrWNrLlRRWNbLfR
WNyLrWNrLlRRWbLR -> WNyLrWNrLlRRWNbLR
WNyLrWNrLlRRWNbLfR -> WNyLR2LRrWNrLlRRWNbLfR
WNyLR2LRrWNrLlRRWNbLfR -> WNyLR2LRRWNbLfR
WNyLR2LRRWNbLfR -> WNyLR2LrRRWNbLfR
WNyLR2LrRRWNbLfR -> WNyLR2LrRR
WNyLR2LrRRWNrLlR -> WNyLR2LrRRWNrLR
WNyLR2LrRRWNrLlR -> WNyLRWNrLlR
WNyLR2LrRRWNrLR -> WNyLR2LrRRWNrLR2LRR
WNyLR2LrRRWNrLR2LRR -> WNyLR2LrRRWNrLR2LlRR
R3LrRR2LlRR4LlR -> R3LrRR2LlR
WLRWNyLrRWNrLlR -> WLR
WNyLrRWNrLWNbLlRR -> WNyLrRWNrLR
R3LrRR2LRl -> R3LrRR2LRlR2LR
R3LrRR2LRlR2LR -> R3LrRR2LR
R3LrRR2LlR2LRR -> R3LrRR2LlR
R3LrRR2LR2LrRlR -> R3LrRR2LR2LrRR
R3LrRR2LR2LrRR -> R3LrRR2LlR2LrRR
R3LrRR2LlR2LrRR -> R3LrR
R3LR2LlR2LrRRrR -> R3LR2LlR2LrRRR
R3LR2LlR2LrRRR -> R3LrR2LlR2LrRRR
R3LrR2LlR2LrRRR -> WLR
R2LfR -> R3LfR
R3LfR -> R3LrR
R3LrRr -> R3LrR
WrLR -> WrLrR
WrLrR -> WrLrlR
WrLrlR -> WrLR2LRrlR
WrLR2LRrlR -> WrLR2LRR
WrLR2LRR -> WrLR2LrlRR
WrLR2LrlRR -> WrLR2LrRRl
WrLR2LrRRl -> WNrLR2LrRRl
WNrLR2LrRRl -> WNyLR2LrRRl
WNyLR2LrRRl -> WyLR2LrRRl
WyLR2LrRRl -> WyLR2LrRR
WyLR2LrRR -> WyLR2LrRRWLR
WyLR2LrRRWLR -> WyLR2LrRRWrLR
WyLR2LrRRWrLR -> WyLR2LrRRWrLlR
WyLR2LrRRWrLlR -> WNyLR2LrRRWrLlR
WyLR2LrRRWrLlR -> WyLR2LrRRWNrLlR
WNyLR2LrRRWrLlR -> WyLR2LrRRWrLlR
WyLR2LrRRWNrLlR -> WNyLR2LrRRWNrLlR
WNyLRWNrLlR -> WNyLrRWNrLlR
WNyLrRWNrLlWNyLrRR -> WNyLrRWNrLR
WNyLrRWNrLR2LRR -> WNyLrRWNrLR2LlRR
WNyLrRWNrLR2LlRR -> WNyLrRWNrLR2LlRRWNyLrR
WNyLrRWNrLR2LlRR -> WNyLrRWNrLR
WNyLrRWNrLR2LlRRWNyLrR -> WNyLrRWNrLR2LlRRWLrR
WNyLrRWNrLR2LlRRWLrR -> WNyLrRWNrLR2LlRR
WNyLRWNrLlRWNyLrR -> WNyLrRWNrLlRWNyLrR
WNyLrRR2LRWNrLlR -> WNyLrRR2LWNrLlRR
WNyLrRR2LWNrLlRR -> R2LRWNyLrRR2LWNrLlRR
R2LRWNyLrRR2LWNrLlRR -> R2LR
R2LWNyLrRR2LWNrLlRRR -> R3LWNyLrRR2LWNrLlRRR
R3LWNyLrRR2LWNrLlRRR -> R3LWNyLrRR3LWNrLlRRR
R3LWNyLrRR2LWNrLlRRR -> R3LWNyLfRR2LWNrLlRRR
R3LWNyLrRR3LWNrLlRRR -> R2LWNyLrRR3LWNrLlRRR
R2LWNyLrRR3LWNrLlRRR -> R2LWNyLrRR3LWNrLfRRR
R2LWNyLrRR3LWNrLlRRR -> R2LWNyLrRR2LWNrLlRRR
R2LWNyLrRR3LWNrLfRRR -> R2LWNyLlRR3LWNrLfRRR
R2LWNyLrRR3LWNrLfRRR -> R2LWNyLrRR3LWNrLlRRR
R2LWNyLlRR3LWNrLfRRR -> R2LWNyLrRR3LWNrLfRRR
R3LWNyLfRR2LWNrLlRRR -> R3LWNyLrRR2LWNrLlRRR
R3LWNyLfRR2LWNrLlRRR -> R3LWyLfRR2LWNrLlRRR
R3LWyLfRR2LWNrLlRRR -> R3LWyLrRR2LWNrLlRRR
R3LWyLrRR2LWNrLlRRR -> R2LWyLrRR2LWNrLlRRR
R2LWyLrRR2LWNrLlRRR -> R2LR
R2LWrLRR -> R2LWyLRR
R2LWyLRR -> R2LWyLrRR
R2LWyLrRR -> R2LWyLrRWLRR
R2LWyLrRWLRR -> R2LWyLrRWrLRR
R2LWyLrRWrLRR -> R2LWyLrRWNrLRR
R2LWyLrRWrLRR -> R2LWyLrRWrLlRR
R2LWyLrRWNrLRR -> R2LWyLrRWrLRR
R2LWyLrRWrLlRRf -> R2LWNyLrRWrLlRRf
R2LWNyLrRWrLlRRf -> R2LWNyLrRWNrLlRRf
}