digraph graph_name {
  graph [
    charset = "UTF-8";
    label = "sample graph",
    labelloc = "t",
    labeljust = "c",
    bgcolor = "#ffffff",
    fontcolor = white,
    fontsize = 18,
    style = "filled",
    rankdir = TB,
    margin = 0.2,
    splines = spline,
    ranksep = 1.0,
    nodesep = 0.9
  ];

  node [
    colorscheme = "rdylgn11"
    style = "solid,filled",
    fontsize = 16,
    fontcolor = 6,
    fontname = "Migu 1M",
    color = 5,
    fillcolor = 11,
    fixedsize = true,
    height = 1.0,
    width = 1.0
  ];

  edge [
    style = solid,
    fontsize = 14,
    fontcolor = black,
    fontname = "Migu 1M",
    color = black,
    labelfloat = true,
    labeldistance = 2.5,
    labelangle = 70
  ];
  start [label="", shape = square, fillcolor="#ffc0cb"]
s [label="", shape = square, fillcolor="#00ff00"]
sR2LR [label="", shape = square, fillcolor="#00ff00"]
sR2LsR [label="", shape = square, fillcolor="#00ff00"]
sR2LsrR [label="", shape = square, fillcolor="#00ff00"]
sR4LsrR [label="", shape = square, fillcolor="#00ff00"]
sR4LsrRs [label="", shape = square, fillcolor="#00ff00"]
sR4LsrRss [label="", shape = square, fillcolor="#000000"]
f [label="", shape = square, fillcolor="#ff0000"]
ff [label="", shape = square, fillcolor="#00000ff"]
ffr [label="", shape = square, fillcolor="#00000ff"]
ffrf [label="", shape = square, fillcolor="#00000ff"]
ffrfl [label="", shape = square, fillcolor="#00000ff"]
ffrflf [label="", shape = square, fillcolor="#00000ff"]
ffrfr [label="", shape = square, fillcolor="#00000ff"]
ffrfrf [label="", shape = square, fillcolor="#00000ff"]
R2LR [label="", shape = square, fillcolor="#ff0000"]
R2LfR [label="", shape = square, fillcolor="#00ffff"]
R2LfRr [label="", shape = square, fillcolor="#ff00ff"]
R2LfRrf [label="", shape = square, fillcolor="#ffff00"]
R2LfRrfr [label="", shape = square, fillcolor="#ffff00"]
R2LfRrfrf [label="", shape = square, fillcolor="#ffff00"]
R2LffR [label="", shape = square, fillcolor="#7d7d7d"]
R2LffrR [label="", shape = square, fillcolor="#7d7d7d"]
R2LfrR [label="", shape = square, fillcolor="#7d7d7d"]
fR2LfrR [label="", shape = square, fillcolor="#7dff7d"]
fR7LfrR [label="", shape = square, fillcolor="#7dff7d"]
fR4LfrR [label="", shape = square, fillcolor="#7dff7d"]
fR5LfrR [label="", shape = square, fillcolor="#7dff7d"]
fR4LfrRf [label="", shape = square, fillcolor="#ff7d7d"]
fR4LfrRff [label="", shape = square, fillcolor="#000000"]
ffl [label="", shape = square, fillcolor="#00000ff"]
R2LfflR [label="", shape = square, fillcolor="#7d7d7d"]
R4LfflR [label="", shape = square, fillcolor="#7d7d7d"]
R4LffR [label="", shape = square, fillcolor="#7d7d7d"]
R4LffrR [label="", shape = square, fillcolor="#7d7d7d"]
R4LR [label="", shape = square, fillcolor="#7d7d7d"]
R4LfR [label="", shape = square, fillcolor="#7d7d7d"]
R4LffrfR [label="", shape = square, fillcolor="#7d7d7d"]
R2LffrfR [label="", shape = square, fillcolor="#7d7d7d"]
R2LffrfRR2LR [label="", shape = square, fillcolor="#7d7d7d"]
fR2LR [label="", shape = square, fillcolor="#7dff7d"]
fR2LrR [label="", shape = square, fillcolor="#ff0000"]
fR2LrfR [label="", shape = square, fillcolor="#7dff7d"]
fR2LfrfR [label="", shape = square, fillcolor="#7dff7d"]
fR2LfrfrR [label="", shape = square, fillcolor="#7dff7d"]
fR3LfrfrR [label="", shape = square, fillcolor="#7dff7d"]
fR4LfrfrR [label="", shape = square, fillcolor="#7dff7d"]
R2LfRR3LrfRfR2LfRR2LRR2LR [label="", shape = square, fillcolor="#7d007d"]
R2LfRR3LrfRf [label="", shape = square, fillcolor="#7d007d"]
R2LfRR4LrfRf [label="", shape = square, fillcolor="#000000"]
R2LfsR [label="", shape = square, fillcolor="#00ffff"]
R2LfsrR [label="", shape = square, fillcolor="#00ffff"]
R4LfrR [label="", shape = square, fillcolor="#7d7d7d"]
fR2LfR [label="", shape = square, fillcolor="#7dff7d"]
fR2LffR [label="", shape = square, fillcolor="#7dff7d"]
fR2LffrR [label="", shape = square, fillcolor="#7dff7d"]
R10LR [label="", shape = square, fillcolor="#007d7d"]
R10LfR [label="", shape = square, fillcolor="#007d7d"]
R10LffR [label="", shape = square, fillcolor="#007d7d"]
R10LffrR [label="", shape = square, fillcolor="#007d7d"]
R10LffrfR [label="", shape = square, fillcolor="#7d7d00"]
R10LffrfrR [label="", shape = square, fillcolor="#7d7d00"]
fR4LR [label="", shape = square, fillcolor="#9463fa"]
fR4LfR [label="", shape = square, fillcolor="#ff7d7d"]
fR4LfrRR2LR [label="", shape = square, fillcolor="#7dff7d"]
fR4LfrRR2LfR [label="", shape = square, fillcolor="#000000"]
R2LfRR2LR [label="", shape = square, fillcolor="#a912d4"]
R2LrfR [label="", shape = square, fillcolor="#7d7d7d"]
R2LrR [label="", shape = square, fillcolor="#7d7d7d"]
R2LfRR4LR [label="", shape = square, fillcolor="#ffc12b"]
R2LfRR4LrR [label="", shape = square, fillcolor="#7cdf4"]
R2LfRR4LrfR [label="", shape = square, fillcolor="#7d007d"]
fflR2LR [label="", shape = square, fillcolor="#00000ff"]
fflR3LR [label="", shape = square, fillcolor="#00000ff"]
fflR3LRf [label="", shape = square, fillcolor="#00000ff"]
ffrR3LRf [label="", shape = square, fillcolor="#af623"]
ffrR4LRf [label="", shape = square, fillcolor="#519531"]
R5LffrR [label="", shape = square, fillcolor="#3eeb7c"]
R5LffrRf [label="", shape = square, fillcolor="#fab474"]
R5LRf [label="", shape = square, fillcolor="#f3152f"]
fR5LRf [label="", shape = square, fillcolor="#ff7d7d"]
fR5LfrRf [label="", shape = square, fillcolor="#ff7d7d"]
R2LsR [label="", shape = square, fillcolor="#169051"]
R2LsRR2LR [label="", shape = square, fillcolor="#ed90"]
R2LsRR2LrR [label="", shape = square, fillcolor="#695af7"]
R2LsRR2LrfR [label="", shape = square, fillcolor="#9118a2"]
R2LsRR10LrfR [label="", shape = square, fillcolor="#7b447c"]
R2LsRR6LrfR [label="", shape = square, fillcolor="#bf53a1"]
R2LsRR4LrfR [label="", shape = square, fillcolor="#d0249c"]
R2LsRR5LrfR [label="", shape = square, fillcolor="#d9f29f"]
R2LsRR4LrfRf [label="", shape = square, fillcolor="#000000"]
R2LfRR2LfR [label="", shape = square, fillcolor="#7d007d"]
R2LfRR2LrfR [label="", shape = square, fillcolor="#7d007d"]
R2LfRR2LffR [label="", shape = square, fillcolor="#7d007d"]
R2LfRR2LfrR [label="", shape = square, fillcolor="#7d007d"]
R2LfRR2LfrRf [label="", shape = square, fillcolor="#7d007d"]
R2LfRR2LfRf [label="", shape = square, fillcolor="#7d007d"]
R2LfRR2LrfRf [label="", shape = square, fillcolor="#7d007d"]
R2LfRrfR2LR [label="", shape = square, fillcolor="#ffff00"]
R2LfRrfR2LrR [label="", shape = square, fillcolor="#ffff00"]
R2LfRrff [label="", shape = square, fillcolor="#ffff00"]
R2LfRrfl [label="", shape = square, fillcolor="#ffff00"]
R2LfRrfrR2LR [label="", shape = square, fillcolor="#ffff00"]
R3LfRrfR2LrR [label="", shape = square, fillcolor="#ffff00"]
R3LfR [label="", shape = square, fillcolor="#ffff00"]
R2LfRrR2LR [label="", shape = square, fillcolor="#ff00ff"]
R2LfRrR2LfR [label="", shape = square, fillcolor="#ff00ff"]
R2LfRrR2LfrR [label="", shape = square, fillcolor="#ff00ff"]
R2LfRrR4LfrR [label="", shape = square, fillcolor="#ff00ff"]
R2LfRrR3LfrR [label="", shape = square, fillcolor="#ff00ff"]
R2LfRR3LfrrR [label="", shape = square, fillcolor="#7d007d"]
R2LfRR3LfrR [label="", shape = square, fillcolor="#7d007d"]
R2LRf [label="", shape = square, fillcolor="#ff0000"]
ffrR2LR [label="", shape = square, fillcolor="#00000ff"]
ffrR2LfR [label="", shape = square, fillcolor="#00000ff"]
ffrR2LfrR [label="", shape = square, fillcolor="#00000ff"]
ffrR4LfrR [label="", shape = square, fillcolor="#00000ff"]
frR4LfrR [label="", shape = square, fillcolor="#00000ff"]
R5LR [label="", shape = square, fillcolor="#ebd8bf"]
R5LfR [label="", shape = square, fillcolor="#d954e2"]
R5LffR [label="", shape = square, fillcolor="#d74cb9"]
R2LfrfR [label="", shape = square, fillcolor="#7d7d7d"]
R2LfrRf [label="", shape = square, fillcolor="#ff0000"]
R2LffrRf [label="", shape = square, fillcolor="#efcd5d"]
R4LffrRf [label="", shape = square, fillcolor="#7e4c21"]
R4LffrrR [label="", shape = square, fillcolor="#7d7d7d"]
R4LffrrfR [label="", shape = square, fillcolor="#7d7d7d"]
R4LfrrfR [label="", shape = square, fillcolor="#7d7d7d"]
fR4LfrrfR [label="", shape = square, fillcolor="#7d7d7d"]
ffR2LR [label="", shape = square, fillcolor="#af24d0"]
ffR2LrR [label="", shape = square, fillcolor="#8830ec"]
ffR2LrfR [label="", shape = square, fillcolor="#39d0a7"]
ffR4LrfR [label="", shape = square, fillcolor="#624b2d"]
ffR4LrfRf [label="", shape = square, fillcolor="#000000"]
R2LffrrR [label="", shape = square, fillcolor="#7d7d7d"]
R2LffrfrR [label="", shape = square, fillcolor="#7d7d7d"]
fR5LfrRR2LRf [label="", shape = square, fillcolor="#ff7d7d"]
fR5LfrRR2LR [label="", shape = square, fillcolor="#ff7d7d"]
fR5LfrRR2LfR [label="", shape = square, fillcolor="#ff7d7d"]
R2LssR [label="", shape = square, fillcolor="#a9549"]
R2LssrR [label="", shape = square, fillcolor="#5e86a7"]
R5LfrR [label="", shape = square, fillcolor="#942944"]
fR4LfrfR [label="", shape = square, fillcolor="#ff7d7d"]
fR4LfrfRf [label="", shape = square, fillcolor="#ff7d7d"]
R2LRR2LfRr [label="", shape = square, fillcolor="#ff0000"]
R2LR2LfRrR [label="", shape = square, fillcolor="#f6da7"]
R4LR2LfRrR [label="", shape = square, fillcolor="#6f1a2b"]
R4LR2LfRrRR2LR [label="", shape = square, fillcolor="#85e9ad"]
R4LR2LfRrRR2LfR [label="", shape = square, fillcolor="#e63b2"]
R4LR2LfRrRR3LfR [label="", shape = square, fillcolor="#6ccaa8"]
R4LR2LRrRR3LfR [label="", shape = square, fillcolor="#58166"]
R4LfR2LRrRR3LfR [label="", shape = square, fillcolor="#e96d1a"]
R4LfR2LRRR3LfR [label="", shape = square, fillcolor="#1975cd"]
R4LfrR2LRRR3LfR [label="", shape = square, fillcolor="#ec88bd"]
R4LfrRR3LfR [label="", shape = square, fillcolor="#22232a"]
fR4LfrRR3LfR [label="", shape = square, fillcolor="#4117b6"]
fR2LRr [label="", shape = square, fillcolor="#ff0000"]
fR2LRrf [label="", shape = square, fillcolor="#ff0000"]
fR2LRrfR2LR [label="", shape = square, fillcolor="#ff0000"]
fR2LRrfR2LRr [label="", shape = square, fillcolor="#ff0000"]
R2LfRR2LfRR2LR [label="", shape = square, fillcolor="#7d007d"]
R2LfRR2LRR2LR [label="", shape = square, fillcolor="#90c84c"]
R2LfRR2LrRR2LR [label="", shape = square, fillcolor="#bffd5"]
R2LfRrR2LfRR2LR [label="", shape = square, fillcolor="#ff00ff"]
R2LfRrR2LfRr [label="", shape = square, fillcolor="#ff00ff"]
R2LfRrR2LfRrR2LR [label="", shape = square, fillcolor="#ff00ff"]
R2LfRrR2LRrR2LR [label="", shape = square, fillcolor="#ff00ff"]
R2LfRR4LrffR [label="", shape = square, fillcolor="#7d007d"]
R10LfrR [label="", shape = square, fillcolor="#007d7d"]
R10LffrrR [label="", shape = square, fillcolor="#007d7d"]
l [label="", shape = square, fillcolor="#f08484"]
fR2LfrRf [label="", shape = square, fillcolor="#ff7d7d"]
R4LfrfR [label="", shape = square, fillcolor="#7d7d7d"]
R3LfrfR [label="", shape = square, fillcolor="#7d7d7d"]
R7LfrR [label="", shape = square, fillcolor="#d66a44"]
R7LffrR [label="", shape = square, fillcolor="#16e759"]
R7LfR [label="", shape = square, fillcolor="#5a2b7e"]
R7LR [label="", shape = square, fillcolor="#3945ae"]
ffrfrfR2LR [label="", shape = square, fillcolor="#00000ff"]
R3LffrR [label="", shape = square, fillcolor="#ff0000"]
ffrff [label="", shape = square, fillcolor="#00000ff"]
ffrffr [label="", shape = square, fillcolor="#00000ff"]
R2LffrffrR [label="", shape = square, fillcolor="#7d7d7d"]
R2LffrfRf [label="", shape = square, fillcolor="#7d7d7d"]
R2LffrffR [label="", shape = square, fillcolor="#7d7d7d"]
R2LffrRR2LR [label="", shape = square, fillcolor="#f8f611"]
R2LRR2LR [label="", shape = square, fillcolor="#c61d44"]
R2LffRR2LR [label="", shape = square, fillcolor="#954661"]
R2LfrRR2LR [label="", shape = square, fillcolor="#ddbe1e"]
R2LfRR2LrR [label="", shape = square, fillcolor="#a84fc"]
R2LfRR2LrRR2LRR2LR [label="", shape = square, fillcolor="#338aee"]
R2LfRR2LrRR2LRR3LR [label="", shape = square, fillcolor="#472e1e"]
R2LRR2LrR [label="", shape = square, fillcolor="#30a376"]
R4LfRR4LrR [label="", shape = square, fillcolor="#67bab6"]
R2LfRrfR2LfR [label="", shape = square, fillcolor="#ffff00"]
R2LRrfR2LfR [label="", shape = square, fillcolor="#ffff00"]
R2LfRl [label="", shape = square, fillcolor="#00ffff"]
R2LfRlf [label="", shape = square, fillcolor="#00ffff"]
R2LfRR2LlfR [label="", shape = square, fillcolor="#2e17ca"]
R2LfRR6LlfR [label="", shape = square, fillcolor="#fc1ab8"]
R2LfRR6LlR [label="", shape = square, fillcolor="#deb66a"]
R2LfRR6LrR [label="", shape = square, fillcolor="#e2d339"]
R2LfRR6LrfR [label="", shape = square, fillcolor="#44a664"]
R2LfRR5LrfR [label="", shape = square, fillcolor="#dbd3cb"]
R4LfflRf [label="", shape = square, fillcolor="#7d7d7d"]
ffrR3LR [label="", shape = square, fillcolor="#00000ff"]
ffrR3LfR [label="", shape = square, fillcolor="#00000ff"]
ffrR3LfrR [label="", shape = square, fillcolor="#00000ff"]
R2LffRr [label="", shape = square, fillcolor="#161bed"]
R4LffRr [label="", shape = square, fillcolor="#7c2961"]
R7LfRr [label="", shape = square, fillcolor="#6951c3"]
R7LRr [label="", shape = square, fillcolor="#18bff5"]
R7LrR [label="", shape = square, fillcolor="#caa46c"]
fR7LrR [label="", shape = square, fillcolor="#ff0000"]
fr [label="", shape = square, fillcolor="#ff0000"]
R2LRfr [label="", shape = square, fillcolor="#ff0000"]
R2LR2LRfrR [label="", shape = square, fillcolor="#65f68"]
R2LR2LRR [label="", shape = square, fillcolor="#37fec4"]
R2LR2LfrRR [label="", shape = square, fillcolor="#bae66"]
R2LR2LfRR [label="", shape = square, fillcolor="#6578e4"]
R2LR2LRfR [label="", shape = square, fillcolor="#a06356"]
fR4LR2LfRrR [label="", shape = square, fillcolor="#b8bc92"]
fR4LrR [label="", shape = square, fillcolor="#c77ba0"]
fR4LrfR [label="", shape = square, fillcolor="#24aa5"]
R2LfRrR2LRr [label="", shape = square, fillcolor="#ff00ff"]
R10LfRrfr [label="", shape = square, fillcolor="#007d7d"]
R10LfrRrfr [label="", shape = square, fillcolor="#007d7d"]
R10LrfR [label="", shape = square, fillcolor="#007d7d"]
R10LrR [label="", shape = square, fillcolor="#007d7d"]
R10LfrsR [label="", shape = square, fillcolor="#007d7d"]
R10LfrslR [label="", shape = square, fillcolor="#007d7d"]
R10LfrslrR [label="", shape = square, fillcolor="#007d7d"]
R10LfrsrR [label="", shape = square, fillcolor="#007d7d"]
R10LffrsR [label="", shape = square, fillcolor="#007d7d"]
R10LfrsfR [label="", shape = square, fillcolor="#007d7d"]
R10LffrrfR [label="", shape = square, fillcolor="#7d7d00"]
R2LRrfr [label="", shape = square, fillcolor="#ffff00"]
R2LfRR10LR [label="", shape = square, fillcolor="#1657df"]
R10LfRR10LR [label="", shape = square, fillcolor="#da7a25"]
R10LfRR10LrR [label="", shape = square, fillcolor="#6cd87f"]
R3LfRR10LrR [label="", shape = square, fillcolor="#4a93d"]
R3LfRR3LrR [label="", shape = square, fillcolor="#aca6e2"]
R2LfRR3LrR [label="", shape = square, fillcolor="#b09a5c"]
R2LfRR2LrRf [label="", shape = square, fillcolor="#7ad4"]
R2LfRR2LrfRR2LR [label="", shape = square, fillcolor="#7d007d"]
R2LfRR2LrfRr [label="", shape = square, fillcolor="#7d007d"]
R3LfRR2LrfRr [label="", shape = square, fillcolor="#7d007d"]
R10LfRR2LrfRr [label="", shape = square, fillcolor="#7d007d"]
R10LfRf [label="", shape = square, fillcolor="#007d7d"]
R9LffrfrR [label="", shape = square, fillcolor="#7d7d00"]
R9LffR [label="", shape = square, fillcolor="#7d7d00"]
R9LfrfrfR [label="", shape = square, fillcolor="#7d7d00"]
fR2LRf [label="", shape = square, fillcolor="#c6f890"]
fR2LRfl [label="", shape = square, fillcolor="#988476"]
fR2LRfr [label="", shape = square, fillcolor="#f3e612"]
fR10LRfr [label="", shape = square, fillcolor="#f54d0"]
fR10LR [label="", shape = square, fillcolor="#83528f"]
fR10LfrR [label="", shape = square, fillcolor="#c088"]
R2LRfrf [label="", shape = square, fillcolor="#e045c1"]
R2LfRfrf [label="", shape = square, fillcolor="#636915"]
R2LfRfr [label="", shape = square, fillcolor="#612835"]
R2LfRf [label="", shape = square, fillcolor="#4c74a8"]
R2LRr [label="", shape = square, fillcolor="#ff0000"]
R2LRrf [label="", shape = square, fillcolor="#ff0000"]
R5LfffR [label="", shape = square, fillcolor="#c1775c"]
R5LfffRf [label="", shape = square, fillcolor="#cea23a"]
fR2LfrRR2LfR [label="", shape = square, fillcolor="#7dff7d"]
R5LfRf [label="", shape = square, fillcolor="#aad44e"]
fR5LfRf [label="", shape = square, fillcolor="#ff7d7d"]
R2LfRR2LlR [label="", shape = square, fillcolor="#afd14"]
R2LfRR3LrfR [label="", shape = square, fillcolor="#7d007d"]
fR2LfrRR2LfrR [label="", shape = square, fillcolor="#7dff7d"]
fR2LfrRR2LfrRR2LfrR [label="", shape = square, fillcolor="#7dff7d"]
fR2LfrRR2LfrRR2LfrRR2LfrR [label="", shape = square, fillcolor="#7dff7d"]
R2LfRrR2LRf [label="", shape = square, fillcolor="#ff00ff"]
R2LfRrR2LfrRR2LfrR [label="", shape = square, fillcolor="#ff00ff"]
fR3LfrR [label="", shape = square, fillcolor="#7dff7d"]
fR3LfrRf [label="", shape = square, fillcolor="#ff7d7d"]
R2LR2LfRRf [label="", shape = square, fillcolor="#774e83"]
R5LR2LfRRf [label="", shape = square, fillcolor="#cf7af8"]
R5LR2LfRrRf [label="", shape = square, fillcolor="#5aba51"]
R5LR2LfrRRf [label="", shape = square, fillcolor="#3a9a1c"]
fR2LfRr [label="", shape = square, fillcolor="#ff0000"]
fR5LR [label="", shape = square, fillcolor="#7dff7d"]
fR5LR2LfRrR [label="", shape = square, fillcolor="#7dff7d"]
fR5LR2LfRrRf [label="", shape = square, fillcolor="#7dff7d"]
fR2LffrRf [label="", shape = square, fillcolor="#ff7d7d"]
fR2LfRf [label="", shape = square, fillcolor="#ff7d7d"]
R2LffRrf [label="", shape = square, fillcolor="#84ebd8"]
R2LffRrfrf [label="", shape = square, fillcolor="#a0ebc8"]
R2LffRrr [label="", shape = square, fillcolor="#ff00ff"]
R2LfRrr [label="", shape = square, fillcolor="#ff00ff"]
R2LfRrfrfr [label="", shape = square, fillcolor="#ffff00"]
R2LRrfrfr [label="", shape = square, fillcolor="#ffff00"]
R2LfRrfrfrR2LR [label="", shape = square, fillcolor="#ffff00"]
R2LfrfrfrR [label="", shape = square, fillcolor="#00ffff"]
R4LffrrlR [label="", shape = square, fillcolor="#7d7d7d"]
ss [label="", shape = square, fillcolor="#00ff00"]
ssr [label="", shape = square, fillcolor="#00ff00"]
ssrf [label="", shape = square, fillcolor="#00ff00"]
R2LRssrf [label="", shape = square, fillcolor="#00ff00"]
R2LRs [label="", shape = square, fillcolor="#00ff00"]
R2LsrfR [label="", shape = square, fillcolor="#ff0000"]
R2LRsrf [label="", shape = square, fillcolor="#ba5385"]
R2LssrfR [label="", shape = square, fillcolor="#d17f2d"]
R2LssrfrR [label="", shape = square, fillcolor="#7c176a"]
R2LfffrR [label="", shape = square, fillcolor="#7d7d7d"]
R3LffrfR [label="", shape = square, fillcolor="#7d7d7d"]
R2LffrfsR [label="", shape = square, fillcolor="#7d7d7d"]
R5LffrfsR [label="", shape = square, fillcolor="#7d7d7d"]
R4LffrfsR [label="", shape = square, fillcolor="#7d7d7d"]
fR5LfrRl [label="", shape = square, fillcolor="#7dff7d"]
fR4LfrRl [label="", shape = square, fillcolor="#7dff7d"]
fR4LfrRll [label="", shape = square, fillcolor="#7dff7d"]
fR4LfrRfl [label="", shape = square, fillcolor="#000000"]
R2LRff [label="", shape = square, fillcolor="#ff0000"]
fR2LfrRR2LR [label="", shape = square, fillcolor="#7dff7d"]
R2LfRrR2LrR [label="", shape = square, fillcolor="#ff00ff"]
R2LfR2LRR [label="", shape = square, fillcolor="#00ffff"]
R2LfRR6LR [label="", shape = square, fillcolor="#c92953"]
R2LfRR6LrfRf [label="", shape = square, fillcolor="#aa4a11"]
R2LfRR6LrffR [label="", shape = square, fillcolor="#2c108e"]
R2LfRlfl [label="", shape = square, fillcolor="#00ffff"]
R2LfRlflf [label="", shape = square, fillcolor="#00ffff"]
R2LfRlfrf [label="", shape = square, fillcolor="#ffff00"]
R2LfRR2LRrf [label="", shape = square, fillcolor="#c4b021"]
R2LfRR3LrfRr [label="", shape = square, fillcolor="#7d007d"]
R2LfRR3LrfRR2LR [label="", shape = square, fillcolor="#7d007d"]
R9LffrR [label="", shape = square, fillcolor="#5cd9c"]
R9LfR [label="", shape = square, fillcolor="#10e77c"]
R9LfrR [label="", shape = square, fillcolor="#72438d"]
R9LR [label="", shape = square, fillcolor="#d1a6c"]
R3LR [label="", shape = square, fillcolor="#13cde2"]
fR3LR [label="", shape = square, fillcolor="#ec1051"]
fR3LfR [label="", shape = square, fillcolor="#d4512a"]
fR6LfrR [label="", shape = square, fillcolor="#7dff7d"]
fR4LfrR2LRR [label="", shape = square, fillcolor="#7dff7d"]
R2LfRlR2LR [label="", shape = square, fillcolor="#00ffff"]
R2LfRlR2LfR [label="", shape = square, fillcolor="#00ffff"]
R2LfRlR2LfRl [label="", shape = square, fillcolor="#00ffff"]
R2LfRlR2LfRf [label="", shape = square, fillcolor="#00ffff"]
R2LfRrR2LfRf [label="", shape = square, fillcolor="#ff00ff"]
frf [label="", shape = square, fillcolor="#ff0000"]
frfr [label="", shape = square, fillcolor="#ff0000"]
frfrf [label="", shape = square, fillcolor="#ff0000"]
frfrfr [label="", shape = square, fillcolor="#ff0000"]
ffrfrr [label="", shape = square, fillcolor="#ff0000"]
R6LffrR [label="", shape = square, fillcolor="#7c26cc"]
R5LfrfR [label="", shape = square, fillcolor="#3a58f6"]
fR4LrfRf [label="", shape = square, fillcolor="#f29dd"]
fR4LfrRR2LRf [label="", shape = square, fillcolor="#7dff7d"]
R2LfRls [label="", shape = square, fillcolor="#00ffff"]
R2LfRlsl [label="", shape = square, fillcolor="#00ffff"]
R2LfRlsls [label="", shape = square, fillcolor="#00ffff"]
R2LfRR2LlRR2LR [label="", shape = square, fillcolor="#865261"]
R2LfRR2LlRR2LsR [label="", shape = square, fillcolor="#e1ecb2"]
R2LfRR2LrRR2LsR [label="", shape = square, fillcolor="#59717"]
R2LfRR2LRr [label="", shape = square, fillcolor="#00ffff"]
R2LfRR2LsRr [label="", shape = square, fillcolor="#00ffff"]
R2LfRR2LsRrR2LR [label="", shape = square, fillcolor="#00ffff"]
R2LfRR2LsRrs [label="", shape = square, fillcolor="#00ffff"]
R2LfRR10LsRrs [label="", shape = square, fillcolor="#00ffff"]
R2LfRR10LRrs [label="", shape = square, fillcolor="#00ffff"]
R2LfRR10LlRrs [label="", shape = square, fillcolor="#00ffff"]
R2LfRR10LrRrs [label="", shape = square, fillcolor="#00ffff"]
R2LfRR10LrR [label="", shape = square, fillcolor="#00ffff"]
R2LsRl [label="", shape = square, fillcolor="#d5e8d7"]
R2LsRlR2LR [label="", shape = square, fillcolor="#951b9e"]
R2LsRlR2LsR [label="", shape = square, fillcolor="#d1449b"]
R2LsRlR2LsRl [label="", shape = square, fillcolor="#2b34dc"]
R2LsRrR2LsRl [label="", shape = square, fillcolor="#ab90af"]
R2LsRrR2LsRr [label="", shape = square, fillcolor="#c7c6e"]
R2LsRrR2LRr [label="", shape = square, fillcolor="#24e529"]
R2LsRr [label="", shape = square, fillcolor="#5fff8a"]
R2LsRrs [label="", shape = square, fillcolor="#3489e8"]
R2LsRrsr [label="", shape = square, fillcolor="#426b1d"]
R10LssrR [label="", shape = square, fillcolor="#007d7d"]
R6LssrR [label="", shape = square, fillcolor="#007d7d"]
R5LssrR [label="", shape = square, fillcolor="#007d7d"]
sR5LsrR [label="", shape = square, fillcolor="#00ff00"]
sR4LsrRR2LsR [label="", shape = square, fillcolor="#000000"]
fR3LfrRR2LR [label="", shape = square, fillcolor="#7dff7d"]
fR3LfrRR2LfR [label="", shape = square, fillcolor="#7dff7d"]
R5LfrRf [label="", shape = square, fillcolor="#ed2aa"]
fR4LfrRs [label="", shape = square, fillcolor="#ea7fe3"]
fR4LfrRss [label="", shape = square, fillcolor="#000000"]
R2LRR2LfRl [label="", shape = square, fillcolor="#00ffff"]
R2LR2LfRlR [label="", shape = square, fillcolor="#ff00ff"]
R6LR2LfRlR [label="", shape = square, fillcolor="#ff00ff"]
R6LR2LfRR [label="", shape = square, fillcolor="#ff00ff"]
R6LR2LfRrR [label="", shape = square, fillcolor="#ff00ff"]
R6LR [label="", shape = square, fillcolor="#ff00ff"]
R2LfRrR6LfrR [label="", shape = square, fillcolor="#ff00ff"]
R2LfRrR4LfrRl [label="", shape = square, fillcolor="#ff00ff"]
R2LfRR4LrfRl [label="", shape = square, fillcolor="#000000"]
R5LffRl [label="", shape = square, fillcolor="#77f135"]
R5LRl [label="", shape = square, fillcolor="#fe6616"]
ffrffrff [label="", shape = square, fillcolor="#00000ff"]
ffrffrffr [label="", shape = square, fillcolor="#00000ff"]
ffrffrffrf [label="", shape = square, fillcolor="#00000ff"]
ffrffrffrff [label="", shape = square, fillcolor="#00000ff"]
ffR5LfrR [label="", shape = square, fillcolor="#7dff7d"]
R2LsRR4LrR [label="", shape = square, fillcolor="#40911"]
R2LsRR2LrRR2LR [label="", shape = square, fillcolor="#b1111e"]
R2LsRR2LrRR2LfR [label="", shape = square, fillcolor="#538bb"]
R2LsRR2LrRR2LsR [label="", shape = square, fillcolor="#6c61b"]
R2LsRR2LrRR8LsR [label="", shape = square, fillcolor="#36268c"]
R2LsRR3LrRR8LsR [label="", shape = square, fillcolor="#6ff4db"]
R2LsRR3LrRR6LsR [label="", shape = square, fillcolor="#e6b0d1"]
R2LsRR3LrR [label="", shape = square, fillcolor="#5a227f"]
R2LfrR2LfrRR [label="", shape = square, fillcolor="#7d7d7d"]
R2LfrRR2LfrR [label="", shape = square, fillcolor="#7d7d7d"]
lR2LR [label="", shape = square, fillcolor="#437c40"]
lR2LlR [label="", shape = square, fillcolor="#85e21c"]
fR2LlR [label="", shape = square, fillcolor="#20fa26"]
fR2LlRf [label="", shape = square, fillcolor="#50febe"]
fR4LlRf [label="", shape = square, fillcolor="#a2742"]
fR4LlR [label="", shape = square, fillcolor="#4d7192"]
fR4LlfR [label="", shape = square, fillcolor="#265f44"]
fl [label="", shape = square, fillcolor="#ff0000"]
ffrfrR2LR [label="", shape = square, fillcolor="#00000ff"]
R2LRrR2LfRr [label="", shape = square, fillcolor="#ff00ff"]
R10LfRR2LfR [label="", shape = square, fillcolor="#007d7d"]
R5LfRR2LfR [label="", shape = square, fillcolor="#007d7d"]
R5LfRR5LfR [label="", shape = square, fillcolor="#007d7d"]
R4LRf [label="", shape = square, fillcolor="#2a102a"]
fR4LfRf [label="", shape = square, fillcolor="#ff7d7d"]
fR4LrRf [label="", shape = square, fillcolor="#2be61f"]
ffR4LrRf [label="", shape = square, fillcolor="#f8f6a3"]
ffR4LrR [label="", shape = square, fillcolor="#3976bf"]
ffR4LrRR2LR [label="", shape = square, fillcolor="#a048ed"]
ffR4LrRR2LfR [label="", shape = square, fillcolor="#62a4fa"]
ffR4LrRff [label="", shape = square, fillcolor="#d1fe7"]
fffR4LrRf [label="", shape = square, fillcolor="#915fd6"]
R2LfRfR3LrR [label="", shape = square, fillcolor="#288231"]
R2LfR3LrRfR [label="", shape = square, fillcolor="#ff0000"]
fR5LfR [label="", shape = square, fillcolor="#7dff7d"]
ffR2LrfRR2LR [label="", shape = square, fillcolor="#a2e2e2"]
ffR4LrfRR2LR [label="", shape = square, fillcolor="#cd6559"]
R2LRrfrf [label="", shape = square, fillcolor="#ffff00"]
rfR2LR [label="", shape = square, fillcolor="#ff0000"]
r [label="", shape = square, fillcolor="#ff0000"]
R7LffrrR [label="", shape = square, fillcolor="#bdfc8"]
R7LffR [label="", shape = square, fillcolor="#3d64b9"]
R7LfrfR [label="", shape = square, fillcolor="#dc6cf2"]
R7LfffR [label="", shape = square, fillcolor="#ccfca5"]
R2LrffR [label="", shape = square, fillcolor="#ff0000"]
R2LfrfrR [label="", shape = square, fillcolor="#7d7d7d"]
R2LfrfrfR [label="", shape = square, fillcolor="#7d7d7d"]
R2LfffrfR [label="", shape = square, fillcolor="#7d7d7d"]
R2LffrrfR [label="", shape = square, fillcolor="#7d7d7d"]
R2LfRrR4LR [label="", shape = square, fillcolor="#ff00ff"]
R2LfRrR4LrrR [label="", shape = square, fillcolor="#ff00ff"]
R2LfRrR5LfrR [label="", shape = square, fillcolor="#f8369d"]
R2LfRfR5LfrR [label="", shape = square, fillcolor="#bbc811"]
R2LfRfR4LfrR [label="", shape = square, fillcolor="#9a1aaf"]
R2LfRfR4LrrR [label="", shape = square, fillcolor="#ada0dc"]
R2LfRfR4LrfR [label="", shape = square, fillcolor="#56702"]
R2LfRfR4LffR [label="", shape = square, fillcolor="#e9e5a7"]
R2LfRrR3LfR [label="", shape = square, fillcolor="#ff00ff"]
R2LfRrR3LfRr [label="", shape = square, fillcolor="#ff00ff"]
R2LfRrR4LfR [label="", shape = square, fillcolor="#ff00ff"]
R2LfRrR4LfRr [label="", shape = square, fillcolor="#ff00ff"]
R2LfrR3LfrRR [label="", shape = square, fillcolor="#7d7d7d"]
R2LfrRR3LfrR [label="", shape = square, fillcolor="#ff0000"]
R2LrrR [label="", shape = square, fillcolor="#7d7d7d"]
R2LrrRf [label="", shape = square, fillcolor="#7d7d7d"]
R4LfrRf [label="", shape = square, fillcolor="#b4a891"]
ffR2LRr [label="", shape = square, fillcolor="#67642d"]
ffR2LfRr [label="", shape = square, fillcolor="#fb9adb"]
ffR2LfR [label="", shape = square, fillcolor="#368e1c"]
fR5LffrR [label="", shape = square, fillcolor="#7dff7d"]
fR5LffR [label="", shape = square, fillcolor="#7dff7d"]
fR5LfrRff [label="", shape = square, fillcolor="#ff7d7d"]
fR4LrrfR [label="", shape = square, fillcolor="#3027fa"]
fR4LffR [label="", shape = square, fillcolor="#ff7d7d"]
fR4LffrR [label="", shape = square, fillcolor="#ff7d7d"]
R2LR2LffRR [label="", shape = square, fillcolor="#1e7ef"]
R2LR2LffRrR [label="", shape = square, fillcolor="#8b8c40"]
rR2LR2LffRR [label="", shape = square, fillcolor="#2811b2"]
rR2LR [label="", shape = square, fillcolor="#e52887"]
rR2LffR [label="", shape = square, fillcolor="#ff0000"]
fR6LR [label="", shape = square, fillcolor="#7dff7d"]
fR6LfR [label="", shape = square, fillcolor="#7dff7d"]
R5LR2LfRrR [label="", shape = square, fillcolor="#9380a8"]
R5LRR2LfRrf [label="", shape = square, fillcolor="#5c5133"]
R5LRR2LRrf [label="", shape = square, fillcolor="#28c026"]
R5LfRR2LRrf [label="", shape = square, fillcolor="#429dd4"]
R5LfRR2LR [label="", shape = square, fillcolor="#8f767"]
R5LfrfRR2LR [label="", shape = square, fillcolor="#2f06f"]
R5LfrRR2LR [label="", shape = square, fillcolor="#1ddf46"]
R4LfrRR2LR [label="", shape = square, fillcolor="#7d7d7d"]
R4LfrRR2LfR [label="", shape = square, fillcolor="#7d7d7d"]
fR4LrRR2LfR [label="", shape = square, fillcolor="#7dff7d"]
fR5LffrRf [label="", shape = square, fillcolor="#ff7d7d"]
fR5LrfRf [label="", shape = square, fillcolor="#ff7d7d"]
fR5LrRf [label="", shape = square, fillcolor="#ff7d7d"]
R2LR2LRR2LRR [label="", shape = square, fillcolor="#1f4ba2"]
R2LR2LfRR2LRR [label="", shape = square, fillcolor="#b529e3"]
R2LR2LfRR2LrRR [label="", shape = square, fillcolor="#d22eca"]
R2LfRrR2LRfr [label="", shape = square, fillcolor="#ff00ff"]
R2LfRR3LfR [label="", shape = square, fillcolor="#7d007d"]
R5LfRR5LR [label="", shape = square, fillcolor="#541a4"]
R5LfrRR5LR [label="", shape = square, fillcolor="#f29840"]
R5LffrfR [label="", shape = square, fillcolor="#dd40f3"]
R2LRR2LRR2LR [label="", shape = square, fillcolor="#9d99e2"]
R2LRR2LRR2LRR2LR [label="", shape = square, fillcolor="#eee04f"]
R2LRR2LRR2LRR2LRR2LR [label="", shape = square, fillcolor="#2d377a"]
R2LRR2LRR2LRR2LRR2LRR2LR [label="", shape = square, fillcolor="#89a659"]
R2LfRR2LrfrfR [label="", shape = square, fillcolor="#12b54d"]
R2LfRR2LrfrR [label="", shape = square, fillcolor="#236620"]
R2LffffR [label="", shape = square, fillcolor="#007d7d"]
R10LffffR [label="", shape = square, fillcolor="#007d7d"]
fR10LrR [label="", shape = square, fillcolor="#68e5e0"]
fR10LrfR [label="", shape = square, fillcolor="#1e4f4a"]
fR10LffR [label="", shape = square, fillcolor="#76b1b6"]
fR10LflR [label="", shape = square, fillcolor="#4346b"]
fR9LfrR [label="", shape = square, fillcolor="#cc16f9"]
fR8LfrR [label="", shape = square, fillcolor="#b4b68a"]
fR8LfrRf [label="", shape = square, fillcolor="#3e6c2b"]
fR8LfrfR [label="", shape = square, fillcolor="#dd76d3"]
fR9LfrfR [label="", shape = square, fillcolor="#1128fe"]
fR8LffrR [label="", shape = square, fillcolor="#1ff52"]
fR8LR [label="", shape = square, fillcolor="#f0cf"]
fR7LfrRf [label="", shape = square, fillcolor="#7174ca"]
fR7LfRf [label="", shape = square, fillcolor="#8e740"]
fR7LfR [label="", shape = square, fillcolor="#953336"]
fR7LR [label="", shape = square, fillcolor="#74a7ad"]
R6LfrR [label="", shape = square, fillcolor="#af581"]
R6LffrrR [label="", shape = square, fillcolor="#f6d630"]
R2LffRf [label="", shape = square, fillcolor="#2e181e"]
R4LfRf [label="", shape = square, fillcolor="#f6f112"]
ffrR4LR [label="", shape = square, fillcolor="#00000ff"]
ffrR4LfR [label="", shape = square, fillcolor="#00000ff"]
ffrR3LrfR [label="", shape = square, fillcolor="#00000ff"]
ffR3LrfR [label="", shape = square, fillcolor="#dd8c15"]
ffR3LrfRf [label="", shape = square, fillcolor="#ec11f9"]
R2LRffr [label="", shape = square, fillcolor="#5e55f"]
R5LRffr [label="", shape = square, fillcolor="#4e9934"]
R5LRffrr [label="", shape = square, fillcolor="#65749a"]
R2LRffrR2LR [label="", shape = square, fillcolor="#919c9"]
ffR2LRffr [label="", shape = square, fillcolor="#ff0000"]
R4LRffr [label="", shape = square, fillcolor="#766442"]
ffrR5LR [label="", shape = square, fillcolor="#00000ff"]
fR2LRfrf [label="", shape = square, fillcolor="#7dff7d"]
fR5LRfr [label="", shape = square, fillcolor="#7dff7d"]
R2LfRR2LRrfr [label="", shape = square, fillcolor="#5c8daa"]
R2LfRR4LrfrR [label="", shape = square, fillcolor="#b2593e"]
ffrfR2LR [label="", shape = square, fillcolor="#00000ff"]
fR5LRffr [label="", shape = square, fillcolor="#7dff7d"]
ffrR3LfrRf [label="", shape = square, fillcolor="#00000ff"]
R2LfrrR [label="", shape = square, fillcolor="#00ffff"]
fR4LfrRfs [label="", shape = square, fillcolor="#000000"]
R2LfR2LfRR [label="", shape = square, fillcolor="#00ffff"]
R2LfR2LfrRR [label="", shape = square, fillcolor="#00ffff"]
R2LfRR3LfrRf [label="", shape = square, fillcolor="#7d007d"]
R2LfRR3LfrRR2LR [label="", shape = square, fillcolor="#7d007d"]
R2LfRR3LfRf [label="", shape = square, fillcolor="#7d007d"]
R2LfRR3LRf [label="", shape = square, fillcolor="#7d007d"]
R2LfRR3LrRf [label="", shape = square, fillcolor="#7d007d"]
start -> f
start -> R2LR
s -> sR2LR
s -> R2LR
s -> ss
s -> sR5LsrR
sR2LR -> sR2LsR
sR2LsR -> sR2LsrR
sR2LsrR -> sR4LsrR
sR4LsrR -> sR4LsrRs
sR4LsrR -> sR4LsrRR2LsR
sR4LsrRs -> sR4LsrRss
sR4LsrRs -> sR4LsrR
f -> ff
f -> fR2LR
f -> R2LR
ff -> ffr
ff -> f
ff -> ffR2LR
ffr -> ffrf
ffr -> ffrR2LR
ffr -> f
ffr -> ff
ffrf -> ffrfr
ffrf -> ffrff
ffrfl -> ffrflf
ffrfl -> ffrf
ffrflf -> ffrfl
ffrfr -> ffrfrf
ffrfr -> ffrf
ffrfrf -> ffrfr
ffrfrf -> ffrf
ffrfrf -> ff
R2LR -> R2LfR
R2LfR -> R2LfRr
R2LfR -> R2LffR
R2LfR -> R2LfrR
R2LfR -> R2LfRR2LR
R2LfRr -> R2LfRrf
R2LfRr -> R2LfR
R2LfRr -> R2LfRrR2LR
R2LfRrf -> R2LfRrfr
R2LfRrf -> R2LfRrfR2LR
R2LfRrf -> R2LfR
R2LfRrfr -> R2LfRrfrf
R2LfRrfr -> R2LfRrfrR2LR
R2LfRrfr -> R2LfR
R2LfRrfrf -> R2LfR
R2LfRrfrf -> R2LfRrf
R2LfRrfrf -> R2LfRrfr
R2LffR -> R2LffrR
R2LffrR -> R2LfR
R2LffrR -> R2LffrfR
R2LffrR -> R5LffrR
R2LffrR -> R2LffrrR
R2LffrR -> R2LR
R2LffrR -> R2LffR
R2LfrR -> R4LfrR
R2LfrR -> R2LfR
R2LfrR -> R2LfrfR
R2LfrR -> R2LffrR
R2LfrR -> fR2LfrR
fR2LfrR -> fR4LfrR
fR2LfrR -> fR5LfrR
fR2LfrR -> fR3LfrR
fR7LfrR -> fR4LfrR
fR4LfrR -> fR4LfrRf
fR4LfrR -> fR4LfrRR2LR
fR5LfrR -> fR4LfrR
fR5LfrR -> fR5LfrRf
fR4LfrRf -> fR4LfrRff
fR4LfrRf -> fR4LfrR
fR4LfrRff -> fR5LfrRff
ffl -> R2LR
ffl -> fflR2LR
ffl -> ffr
R2LfflR -> R4LfflR
R2LfflR -> R2LffrR
R4LfflR -> R4LffR
R4LfflR -> R4LfflRf
R4LffR -> R4LffrR
R4LffR -> R4LR
R4LffR -> R4LfrfR
R4LffR -> R4LfflR
R4LffR -> R2LffR
R4LffrR -> R4LffR
R4LffrR -> R4LR
R4LffrR -> R4LffrrR
R4LffrR -> R2LffrR
R4LffrR -> R4LfR
R4LR -> R4LfR
R4LR -> R4LffrR
R4LfR -> R4LffrR
R4LfR -> R4LfrR
R4LfR -> R4LR
R4LfR -> R4LffR
R4LffrfR -> R4LR
R4LffrfR -> R4LffrrfR
R4LffrfR -> R2LffrfR
R2LffrfR -> R2LffrfrR
R2LffrfR -> R2LR
R2LffrfR -> R5LffrfR
R2LffrfRR2LR -> R2LffrfR
fR2LR -> fR2LrR
fR2LR -> f
fR2LR -> fR2LfR
fR2LR -> fR2LfrR
fR2LrR -> fR2LrfR
fR2LrR -> f
fR2LrR -> R2LfrR
fR2LrR -> fR2LfrR
fR2LrR -> fR2LR
fR2LrfR -> fR2LfrfR
fR2LrfR -> fR2LR
fR2LrfR -> fR2LrR
fR2LrfR -> fR4LrfR
fR2LfrfR -> fR2LfrfrR
fR2LfrfR -> fR2LfrR
fR2LfrfrR -> fR3LfrfrR
fR2LfrfrR -> fR2LfrR
fR3LfrfrR -> fR4LfrfrR
fR4LfrfrR -> f
fR4LfrfrR -> fR2LfrfrR
R2LfRR3LrfRfR2LfRR2LRR2LR -> R2LfRR3LrfRf
R2LfRR3LrfRf -> R2LfRR4LrfRf
R2LfRR3LrfRf -> R2LfRR3LrfRr
R2LfRR4LrfRf -> R2LfRR4LrfR
R2LfsR -> R2LfsrR
R2LfsrR -> R2LfR
R4LfrR -> f
R4LfrR -> R4LffrR
R4LfrR -> R4LR
R4LfrR -> R4LfR
R4LfrR -> R4LfrRf
R4LfrR -> R4LfrRR2LR
fR2LfR -> fR2LfrR
fR2LfR -> fR2LR
fR2LffR -> fR2LffrR
fR2LffrR -> fR2LR
fR2LffrR -> fR2LfR
fR2LffrR -> fR2LffrRf
R10LR -> R10LfR
R10LR -> R10LrR
R10LR -> R2LR
R10LR -> R10LssrR
R10LR -> f
R10LR -> fR10LR
R10LfR -> R10LffR
R10LfR -> R10LrfR
R10LfR -> R10LfrR
R10LfR -> R10LfRf
R10LfR -> R10LfRR2LfR
R10LffR -> R10LffrR
R10LffR -> R10LfrsfR
R10LffrR -> R10LffrfR
R10LffrR -> R10LffrrR
R10LffrR -> l
R10LffrR -> R10LffrsR
R10LffrfR -> R10LffrfrR
R10LffrfR -> R10LffrrfR
R10LffrfrR -> f
R10LffrfrR -> R10LffrfR
R10LffrfrR -> R9LffrfrR
fR4LR -> fR4LfR
fR4LR -> fR4LR2LfRrR
fR4LR -> fR4LrR
fR4LR -> fR4LrfR
fR4LfR -> fR4LfrR
fR4LfR -> fR4LfRf
fR4LfR -> fR4LR
fR4LfR -> fR4LffR
fR4LfrRR2LR -> fR4LfrRR2LfR
R2LfRR2LR -> R2LfR
R2LfRR2LR -> R2LfRR4LR
R2LfRR2LR -> R2LfRR2LrR
R2LfRR2LR -> R2LfRR2LrfR
R2LrfR -> R2LrR
R2LrR -> R2LfrR
R2LrR -> R2LR
R2LrR -> R2LrrR
R2LfRR4LR -> R2LfRR4LrR
R2LfRR4LrR -> R2LfRR4LrfR
R2LfRR4LrR -> R4LfRR4LrR
R2LfRR4LrR -> R2LfRR2LrR
R2LfRR4LrR -> R2LfRR3LrR
R2LfRR4LrfR -> R2LfRR4LrfRf
R2LfRR4LrfR -> R2LfRR4LrffR
fflR2LR -> fflR3LR
fflR3LR -> fflR3LRf
fflR3LRf -> ffl
ffrR3LRf -> ffrR4LRf
R5LffrR -> R5LffrRf
R5LffrR -> R5LfR
R5LffrR -> R5LffR
R5LffrR -> R5LR
R5LffrRf -> R5LRf
R5LffrRf -> R4LffrRf
R5LRf -> fR5LRf
R5LRf -> R5LfRf
R5LRf -> R5LR
R5LRf -> R5LffrRf
R5LRf -> R5LRR2LfRrf
fR5LRf -> fR5LfrRf
fR5LRf -> fR5LfRf
fR5LRf -> fR5LrfRf
fR5LfrRf -> fR4LfrRf
fR5LfrRf -> fR5LfrR
fR5LfrRf -> fR5LfrRff
R2LsR -> R2LsRR2LR
R2LsR -> R2LssR
R2LsR -> R2LR
R2LsR -> R2LsRl
R2LsRR2LR -> R2LsRR2LrR
R2LsRR2LrR -> R2LsRR2LrfR
R2LsRR2LrR -> R2LsRR4LrR
R2LsRR2LrR -> R2LsRR2LrRR2LR
R2LsRR2LrfR -> R2LsRR10LrfR
R2LsRR10LrfR -> R2LsRR6LrfR
R2LsRR6LrfR -> R2LsRR4LrfR
R2LsRR4LrfR -> R2LsRR5LrfR
R2LsRR4LrfR -> R2LsRR4LrfRf
R2LsRR5LrfR -> R2LsRR4LrfR
R2LfRR2LfR -> R2LfRR2LrfR
R2LfRR2LfR -> R2LfRR2LfRR2LR
R2LfRR2LrfR -> R2LfRR4LrfR
R2LfRR2LrfR -> R2LfRR3LrfR
R2LfRR2LrfR -> R2LfRR2LrfRf
R2LfRR2LffR -> R2LfRR2LfrR
R2LfRR2LfrR -> R2LfRR2LfrRf
R2LfRR2LfrR -> R2LfRR2LfR
R2LfRR2LfrR -> R2LfRR2LrfR
R2LfRR2LfrR -> R2LfRR3LfrR
R2LfRR2LfrRf -> R2LfRR2LfRf
R2LfRR2LfRf -> R2LfRR2LrfRf
R2LfRR2LrfRf -> R2LfRR4LrfRf
R2LfRR2LrfRf -> R2LfRR2LrfRr
R2LfRrfR2LR -> R2LfRrfR2LrR
R2LfRrfR2LR -> R2LfRrfR2LfR
R2LfRrfR2LrR -> R2LfRrf
R2LfRrfR2LrR -> R3LfRrfR2LrR
R2LfRrfR2LrR -> R2LfRr
R2LfRrff -> R2LfRrfl
R2LfRrff -> R2LfRrf
R2LfRrfl -> R2LfRrfr
R2LfRrfrR2LR -> R2LfRrfr
R2LfRrfrR2LR -> R2LfRrf
R3LfRrfR2LrR -> R3LfR
R3LfR -> R2LfR
R2LfRrR2LR -> R2LfRrR2LfR
R2LfRrR2LR -> R2LfRr
R2LfRrR2LfR -> R2LfRrR2LfrR
R2LfRrR2LfR -> R2LfRrR2LfRr
R2LfRrR2LfR -> R2LfRr
R2LfRrR2LfR -> R2LfRrR2LR
R2LfRrR2LfrR -> R2LfRrR4LfrR
R2LfRrR2LfrR -> R2LfRrR2LfrRR2LfrR
R2LfRrR2LfrR -> R2LfRr
R2LfRrR2LfrR -> R2LfRrR3LfrR
R2LfRrR2LfrR -> R2LfR
R2LfRrR4LfrR -> R2LfRrR3LfrR
R2LfRrR4LfrR -> R2LfRrR4LR
R2LfRrR4LfrR -> R2LfRrR4LrrR
R2LfRrR4LfrR -> R2LfRrR5LfrR
R2LfRrR4LfrR -> R2LfRrR4LfR
R2LfRrR3LfrR -> R2LfR
R2LfRrR3LfrR -> R2LfRrR4LfrR
R2LfRR3LfrrR -> R2LfR
R2LfRR3LfrrR -> R2LfRR3LfrR
R2LfRR3LfrR -> R2LfR
R2LfRR3LfrR -> R2LfRR3LfR
R2LfRR3LfrR -> R2LfRR3LfrRf
R2LfRR3LfrR -> R2LfRR3LfrRR2LR
R2LRf -> R2LR
ffrR2LR -> ffrR2LfR
ffrR2LR -> ffrR3LR
ffrR2LR -> ffrR4LR
ffrR2LfR -> ffrR2LfrR
ffrR2LfrR -> ffrR4LfrR
ffrR2LfrR -> f
ffrR4LfrR -> frR4LfrR
ffrR4LfrR -> ffrR3LfrR
R5LR -> R5LfR
R5LR -> R5LffrR
R5LfR -> R5LffR
R5LfR -> R5LfrR
R5LfR -> R2LfR
R5LfR -> R5LR
R5LffR -> R5LffrR
R5LffR -> R5LfffR
R5LffR -> fR5LfR
R2LfrfR -> R2LfrR
R2LfrfR -> R4LfrfR
R2LfrfR -> R2LfrfrR
R2LfrfR -> f
R2LfrfR -> R2LffrfR
R2LfrRf -> R2LRf
R2LfrRf -> R2LR
R2LffrRf -> R4LffrRf
R2LffrRf -> R5LffrRf
R4LffrRf -> R4LffrR
R4LffrRf -> R5LffrRf
R4LffrRf -> R4LRf
R4LffrrR -> R4LffrR
R4LffrrR -> R4LffrfR
R4LffrrR -> R4LffrrfR
R4LffrrfR -> R4LR
R4LffrrfR -> R4LffrrR
R4LffrrfR -> R4LffrrlR
R4LfrrfR -> fR4LfrrfR
ffR2LR -> ffR2LrR
ffR2LrR -> ffR2LrfR
ffR2LrfR -> ffR4LrfR
ffR2LrfR -> ffR2LrfRR2LR
ffR4LrfR -> ffR4LrfRf
R2LffrrR -> R2LffrR
R2LffrrR -> R4LffrrR
R2LffrrR -> R2LffR
R2LffrrR -> R2LffrfrR
R2LffrfrR -> R2LR
R2LffrfrR -> R2LfR
R2LffrfrR -> R2LffrfR
fR5LfrRR2LRf -> fR5LfrRR2LR
fR5LfrRR2LR -> fR5LfrRR2LfR
fR5LfrRR2LfR -> fR4LfrRR2LfR
R2LssR -> R2LssrR
R2LssR -> R2LsR
R2LssrR -> R2LR
R5LfrR -> fR5LfrR
R5LfrR -> R5LffrR
R5LfrR -> R5LfrRf
fR4LfrfR -> fR4LfrfRf
fR4LfrfR -> fR4LfrR
fR4LfrfRf -> fR4LfrRf
R2LRR2LfRr -> R2LR
R2LR2LfRrR -> R4LR2LfRrR
R2LR2LfRrR -> R2LR
R2LR2LfRrR -> R5LR2LfRrR
R4LR2LfRrR -> R4LR2LfRrRR2LR
R4LR2LfRrR -> R4LR
R4LR2LfRrR -> fR4LR2LfRrR
R4LR2LfRrRR2LR -> R4LR2LfRrRR2LfR
R4LR2LfRrRR2LfR -> R4LR2LfRrRR3LfR
R4LR2LfRrRR3LfR -> R4LR2LRrRR3LfR
R4LR2LRrRR3LfR -> R4LfR2LRrRR3LfR
R4LfR2LRrRR3LfR -> R4LfR2LRRR3LfR
R4LfR2LRRR3LfR -> R4LfrR2LRRR3LfR
R4LfrR2LRRR3LfR -> R4LfrRR3LfR
R4LfrRR3LfR -> fR4LfrRR3LfR
fR4LfrRR3LfR -> fR4LfrRR2LfR
fR2LRr -> fR2LRrf
fR2LRr -> f
fR2LRr -> fR2LrR
fR2LRr -> R2LR
fR2LRrf -> fR2LRrfR2LR
fR2LRrfR2LR -> fR2LRrfR2LRr
fR2LRrfR2LRr -> f
R2LfRR2LfRR2LR -> R2LfRR2LRR2LR
R2LfRR2LfRR2LR -> R2LfR
R2LfRR2LRR2LR -> R2LfRR2LrRR2LR
R2LfRR2LRR2LR -> R2LfRR2LfRR2LR
R2LfRR2LrRR2LR -> R2LfRR2LRR2LR
R2LfRR2LrRR2LR -> R2LfRR2LrRR2LRR2LR
R2LfRR2LrRR2LR -> R2LfRR2LrR
R2LfRrR2LfRR2LR -> R2LfRrR2LfR
R2LfRrR2LfRr -> R2LfRrR2LfRrR2LR
R2LfRrR2LfRr -> R2LfRrR2LfR
R2LfRrR2LfRr -> R2LfRrR2LRr
R2LfRrR2LfRr -> R2LRrR2LfRr
R2LfRrR2LfRr -> R2LfR
R2LfRrR2LfRr -> f
R2LfRrR2LfRrR2LR -> R2LfRrR2LRrR2LR
R2LfRrR2LRrR2LR -> R2LfRr
R2LfRR4LrffR -> R2LfRR4LrfR
R10LfrR -> R10LffrR
R10LfrR -> R10LfR
R10LfrR -> R10LfrsR
R10LfrR -> R10LR
R10LffrrR -> R10LffrR
l -> f
l -> R2LR
l -> lR2LR
fR2LfrRf -> fR4LfrRf
fR2LfrRf -> f
fR2LfrRf -> fR5LfrRf
R4LfrfR -> R3LfrfR
R4LfrfR -> R4LR
R7LfrR -> R7LffrR
R7LfrR -> R7LfR
R7LffrR -> R7LfR
R7LffrR -> R7LffrrR
R7LffrR -> R7LffR
R7LffrR -> R2LR
R7LfR -> R7LR
R7LfR -> R7LfRr
R7LR -> f
R7LR -> R7LrR
ffrfrfR2LR -> ffr
R3LffrR -> f
ffrff -> ffrffr
ffrffr -> R2LR
ffrffr -> ff
ffrffr -> ffrffrff
R2LffrffrR -> R2LffrfR
R2LffrfRf -> R2LffrfR
R2LffrffR -> R2LffR
R2LffrRR2LR -> R2LRR2LR
R2LffrRR2LR -> R2LffRR2LR
R2LffrRR2LR -> R2LfRR2LR
R2LRR2LR -> R2LffrRR2LR
R2LRR2LR -> R2LfRR2LR
R2LRR2LR -> f
R2LRR2LR -> R2LR
R2LRR2LR -> R2LRR2LRR2LR
R2LffRR2LR -> R2LffrRR2LR
R2LffRR2LR -> R2LffR
R2LfrRR2LR -> R2LRR2LR
R2LfRR2LrR -> R2LfR
R2LfRR2LrR -> R2LfRR2LrRf
R2LfRR2LrR -> R2LfRR2LfrR
R2LfRR2LrR -> R2LfRR2LrfR
R2LfRR2LrRR2LRR2LR -> R2LfRR2LrRR2LRR3LR
R2LfRR2LrRR2LRR3LR -> R2LfRR2LrRR2LR
R2LRR2LrR -> R2LRR2LR
R4LfRR4LrR -> R2LfRR4LrR
R2LfRrfR2LfR -> R2LRrfR2LfR
R2LRrfR2LfR -> R2LR
R2LfRl -> R2LfRlf
R2LfRl -> R2LfRlR2LR
R2LfRl -> R2LfRls
R2LfRl -> R2LfR
R2LfRl -> R2LRR2LfRl
R2LfRl -> R2LfRlfl
R2LfRlf -> R2LfR
R2LfRlf -> R2LfRlfl
R2LfRR2LlfR -> R2LfRR6LlfR
R2LfRR6LlfR -> R2LfRR6LlR
R2LfRR6LlR -> R2LfRR6LrR
R2LfRR6LrR -> R2LfRR6LrfR
R2LfRR6LrfR -> R2LfRR5LrfR
R2LfRR6LrfR -> R2LfRR6LrfRf
R2LfRR6LrfR -> R2LfRR6LrffR
R2LfRR5LrfR -> R2LfRR4LrfR
R4LfflRf -> R4LfflR
ffrR3LR -> ffrR3LfR
ffrR3LfR -> ffrR3LfrR
ffrR3LfR -> ffrR3LrfR
ffrR3LfrR -> ffr
ffrR3LfrR -> ffrR3LfR
ffrR3LfrR -> ffrR3LfrRf
ffrR3LfrR -> f
R2LffRr -> R4LffRr
R2LffRr -> R2LffRrf
R2LffRr -> R2LffRrr
R2LffRr -> R2LfRr
R2LffRr -> R2LRr
R7LfRr -> R7LRr
R7LRr -> R7LR
R7LrR -> f
fR7LrR -> f
fr -> R2LRfr
fr -> frf
fr -> fR2LRr
fr -> f
fr -> R2LR
R2LRfr -> R2LR
R2LRfr -> R2LRfrf
R2LR2LRfrR -> R2LR2LRR
R2LR2LRR -> R2LR2LfrRR
R2LR2LRR -> R2LR2LfRR
R2LR2LRR -> R2LR
R2LR2LRR -> R2LR2LRR2LRR
R2LR2LfrRR -> R2LR2LfRR
R2LR2LfRR -> R2LR2LfRrR
R2LR2LfRR -> R2LR2LfRRf
R2LR2LfRR -> R2LR
R2LR2LfRR -> R2LR2LffRR
R2LR2LRfR -> R2LR2LRR
fR4LR2LfRrR -> fR4LR
fR4LrR -> fR4LrfR
fR4LrR -> fR4LfrR
fR4LrR -> fR4LrRf
fR4LrfR -> fR4LrR
fR4LrfR -> fR4LrfRf
fR4LrfR -> fR4LrrfR
R2LfRrR2LRr -> R2LfRrR2LR
R10LfRrfr -> R10LfrRrfr
R10LfrRrfr -> R10LfrR
R10LrfR -> R10LR
R10LrR -> R10LR
R10LfrsR -> R10LfrslR
R10LfrsR -> R10LfrsrR
R10LfrsR -> R10LfR
R10LfrsR -> R10LffrsR
R10LfrslR -> R10LfrslrR
R10LfrslR -> R10LfrsR
R10LfrslrR -> R10LfrslR
R10LfrsrR -> R10LfrsR
R10LffrsR -> R10LffR
R10LffrsR -> R10LffrR
R10LfrsfR -> R10LfrsR
R10LffrrfR -> R2LR
R2LRrfr -> R2LfRrfr
R2LfRR10LR -> R10LfRR10LR
R10LfRR10LR -> R10LfRR10LrR
R10LfRR10LrR -> R3LfRR10LrR
R3LfRR10LrR -> R3LfRR3LrR
R3LfRR3LrR -> R2LfRR3LrR
R2LfRR3LrR -> R2LfRR2LrR
R2LfRR3LrR -> R2LfRfR3LrR
R2LfRR2LrRf -> R2LfRR2LrR
R2LfRR2LrfRR2LR -> R2LfRR2LrfR
R2LfRR2LrfRr -> R3LfRR2LrfRr
R2LfRR2LrfRr -> R2LfRR2LrfR
R3LfRR2LrfRr -> R10LfRR2LrfRr
R10LfRR2LrfRr -> R10LfR
R10LfRf -> R10LfR
R9LffrfrR -> R9LffR
R9LffR -> R9LfrfrfR
fR2LRf -> fR2LRfl
fR2LRf -> fR2LRfr
fR2LRfl -> fR2LRf
fR2LRfr -> fR10LRfr
fR2LRfr -> fR2LR
fR10LRfr -> fR10LR
fR10LR -> fR10LfrR
fR10LR -> fR10LrR
fR10LR -> fR10LffR
fR10LfrR -> fR4LfrR
fR10LfrR -> fR9LfrR
R2LRfrf -> R2LfRfrf
R2LfRfrf -> R2LfRfr
R2LfRfr -> R2LfRf
R2LfRf -> R2LfR
R2LfRf -> R2LffRf
R2LRr -> fR2LRr
R2LRr -> R2LR
R2LRr -> ffR2LRr
R2LRrf -> R2LR
R5LfffR -> R5LfffRf
R5LfffR -> R5LffrR
R5LfffRf -> f
fR2LfrRR2LfR -> fR4LfrRR2LfR
R5LfRf -> R5LRf
R5LfRf -> R5LfrRf
fR5LfRf -> fR5LfrRf
fR5LfRf -> fR5LrfRf
R2LfRR2LlR -> R2LfRR2LR
R2LfRR2LlR -> R2LfRR2LlRR2LR
R2LfRR3LrfR -> R2LfRR4LrfR
R2LfRR3LrfR -> R2LfRR3LrfRr
R2LfRR3LrfR -> R2LfRR3LrfRR2LR
fR2LfrRR2LfrR -> fR2LfrRR2LfrRR2LfrR
fR2LfrRR2LfrR -> fR2LfrR
fR2LfrRR2LfrRR2LfrR -> fR2LfrRR2LfrRR2LfrRR2LfrR
fR2LfrRR2LfrRR2LfrR -> fR2LfrRR2LfrR
fR2LfrRR2LfrRR2LfrRR2LfrR -> fR2LfrRR2LfrRR2LfrR
R2LfRrR2LRf -> R2LfRrR2LR
R2LfRrR2LRf -> R2LfRr
R2LfRrR2LfrRR2LfrR -> R2LfRrR2LfrR
fR3LfrR -> fR3LfrRf
fR3LfrR -> fR6LfrR
fR3LfrR -> fR3LfrRR2LR
fR3LfrR -> fR5LfrR
fR3LfrR -> fR4LfrR
fR3LfrRf -> fR4LfrRf
R2LR2LfRRf -> R5LR2LfRRf
R5LR2LfRRf -> R5LR2LfRrRf
R5LR2LfRRf -> R5LR2LfrRRf
R5LR2LfRrRf -> R5LR2LfRRf
R5LR2LfRrRf -> R5LRf
R5LR2LfrRRf -> R5LRf
fR2LfRr -> f
fR5LR -> fR5LR2LfRrR
fR5LR -> fR5LffrR
fR5LR -> fR5LfrR
fR5LR2LfRrR -> fR5LR2LfRrRf
fR5LR2LfRrRf -> f
fR2LffrRf -> fR2LfRf
fR2LfRf -> fR2LfrRf
R2LffRrf -> R2LffRrfrf
R2LffRrf -> R2LffRr
R2LffRrfrf -> R2LffRrf
R2LffRrr -> R2LfRrr
R2LfRrr -> R2LfRr
R2LfRrfrfr -> R2LRrfrfr
R2LfRrfrfr -> R2LfRrfrfrR2LR
R2LfRrfrfr -> R2LfR
R2LRrfrfr -> R2LfRrfrfr
R2LfRrfrfrR2LR -> R2LfRrfrfr
R2LfrfrfrR -> R2LfR
ss -> ssr
ssr -> ssrf
ssrf -> R2LRssrf
R2LRssrf -> R2LRs
R2LRs -> R2LR
R2LsrfR -> R2LR
R2LRsrf -> R2LssrfR
R2LssrfR -> R2LssrfrR
R2LssrfrR -> R2LssR
R2LssrfrR -> R2LR
R2LfffrR -> R2LffR
R2LfffrR -> R2LffffR
R3LffrfR -> R2LffrfR
R2LffrfsR -> R5LffrfsR
R5LffrfsR -> R4LffrfsR
R4LffrfsR -> f
fR5LfrRl -> fR4LfrRl
fR4LfrRl -> fR4LfrRll
fR4LfrRl -> fR4LfrR
fR4LfrRll -> fR4LfrRl
R2LRff -> R2LR
R2LRff -> f
fR2LfrRR2LR -> fR4LfrRR2LR
fR2LfrRR2LR -> fR2LfrRR2LfR
R2LfRrR2LrR -> R2LfRrR2LR
R2LfR2LRR -> R2LfR
R2LfR2LRR -> R2LfR2LfRR
R2LfRR6LR -> R2LfRR6LlR
R2LfRR6LrfRf -> R2LfRR6LrfR
R2LfRR6LrfRf -> R2LfRR4LrfRf
R2LfRR6LrffR -> R2LfR
R2LfRR6LrffR -> R2LfRR6LrfR
R2LfRlfl -> R2LfRlflf
R2LfRlflf -> R2LfRlfrf
R2LfRlflf -> R2LfR
R2LfRlfrf -> R2LfRrfrf
R2LfRR2LRrf -> R2LfRR2LR
R2LfRR3LrfRr -> R2LfRR3LrfRf
R2LfRR3LrfRr -> R2LfRR3LrfR
R2LfRR3LrfRR2LR -> R2LfRR3LrfR
R9LffrR -> R9LfR
R9LfR -> R9LfrR
R9LfrR -> R9LR
R9LR -> R3LR
R3LR -> fR3LR
fR3LR -> fR3LfR
fR3LfR -> fR3LfrR
fR6LfrR -> fR4LfrR
fR6LfrR -> fR5LfrR
fR4LfrR2LRR -> fR4LfrR
R2LfRlR2LR -> R2LfRlR2LfR
R2LfRlR2LfR -> R2LfRlR2LR
R2LfRlR2LfR -> R2LfRlR2LfRl
R2LfRlR2LfR -> R2LfRlR2LfRf
R2LfRlR2LfRl -> R2LfRlR2LfR
R2LfRlR2LfRf -> R2LfR
R2LfRrR2LfRf -> R2LfRrR2LRf
frf -> frfr
frfr -> frfrf
frfrf -> frfrfr
frfrfr -> ffrfrr
ffrfrr -> R2LR
R6LffrR -> R5LffrR
R6LffrR -> R6LffrrR
R5LfrfR -> R5LfffR
fR4LrfRf -> fR4LrfR
fR4LrfRf -> ffR4LrfRf
fR4LfrRR2LRf -> fR4LfrRR2LR
R2LfRls -> R2LfRlsl
R2LfRls -> R2LfRl
R2LfRlsl -> R2LfRlsls
R2LfRlsl -> R2LfRls
R2LfRlsls -> R2LfRlsl
R2LfRR2LlRR2LR -> R2LfRR2LlRR2LsR
R2LfRR2LlRR2LsR -> R2LfRR2LrRR2LsR
R2LfRR2LrRR2LsR -> R2LfRR2LrR
R2LfRR2LRr -> R2LfR
R2LfRR2LRr -> R2LfRR2LsRr
R2LfRR2LsRr -> R2LfRR2LsRrR2LR
R2LfRR2LsRr -> R2LfRR2LsRrs
R2LfRR2LsRrR2LR -> R2LfRR2LsRr
R2LfRR2LsRrs -> R2LfRR10LsRrs
R2LfRR10LsRrs -> R2LfRR10LRrs
R2LfRR10LRrs -> R2LfRR10LlRrs
R2LfRR10LlRrs -> R2LfRR10LrRrs
R2LfRR10LrRrs -> R2LfRR10LrR
R2LfRR10LrR -> R2LfR
R2LsRl -> R2LsRlR2LR
R2LsRlR2LR -> R2LsRlR2LsR
R2LsRlR2LsR -> R2LsRlR2LsRl
R2LsRlR2LsRl -> R2LsRrR2LsRl
R2LsRrR2LsRl -> R2LsRrR2LsRr
R2LsRrR2LsRr -> R2LsRrR2LRr
R2LsRrR2LRr -> R2LsRr
R2LsRr -> R2LsRrs
R2LsRr -> R2LRr
R2LsRrs -> R2LsRrsr
R2LsRrsr -> R2LsRr
R10LssrR -> R6LssrR
R6LssrR -> R5LssrR
R5LssrR -> R5LR
sR5LsrR -> sR4LsrR
fR3LfrRR2LR -> fR3LfrRR2LfR
fR3LfrRR2LfR -> fR4LfrRR2LfR
R5LfrRf -> fR5LfrRf
R5LfrRf -> R5LfRf
R5LfrRf -> R5LfrR
R5LfrRf -> R5LffrRf
fR4LfrRs -> fR4LfrRss
R2LRR2LfRl -> R2LR
R2LR2LfRlR -> R6LR2LfRlR
R6LR2LfRlR -> R6LR2LfRR
R6LR2LfRR -> R6LR2LfRrR
R6LR2LfRrR -> R6LR2LfRR
R6LR2LfRrR -> R6LR
R6LR -> R2LfRr
R2LfRrR6LfrR -> R2LfRr
R2LfRrR4LfrRl -> R2LfRr
R5LffRl -> R5LRl
R5LRl -> l
ffrffrff -> ffrffrffr
ffrffrffr -> ffrffrffrf
ffrffrffrf -> ffrffrffrff
ffrffrffrff -> R2LR
ffR5LfrR -> f
R2LsRR4LrR -> R2LsRR2LrR
R2LsRR2LrRR2LR -> R2LsRR2LrRR2LfR
R2LsRR2LrRR2LR -> R2LsRR2LrRR2LsR
R2LsRR2LrRR2LfR -> R2LsRR2LrRR2LR
R2LsRR2LrRR2LsR -> R2LsRR2LrRR8LsR
R2LsRR2LrRR8LsR -> R2LsRR3LrRR8LsR
R2LsRR3LrRR8LsR -> R2LsRR3LrRR6LsR
R2LsRR3LrRR6LsR -> R2LsRR3LrR
R2LsRR3LrR -> R2LsR
R2LfrR2LfrRR -> R2LfrR
R2LfrRR2LfrR -> R2LfrR
lR2LR -> lR2LlR
lR2LlR -> l
fR2LlR -> fR2LlRf
fR2LlRf -> fR4LlRf
fR4LlRf -> fR4LlR
fR4LlR -> fR4LlfR
fR4LlfR -> f
fl -> f
fl -> fr
ffrfrR2LR -> ffrfr
R2LRrR2LfRr -> R2LfRrR2LfRr
R10LfRR2LfR -> R5LfRR2LfR
R5LfRR2LfR -> R5LfRR5LfR
R5LfRR5LfR -> R5LfR
R4LRf -> f
R4LRf -> R4LfRf
fR4LfRf -> fR4LfR
fR4LrRf -> f
ffR4LrRf -> ffR4LrR
ffR4LrRf -> ffR4LrRff
ffR4LrRf -> fffR4LrRf
ffR4LrR -> ffR4LrRR2LR
ffR4LrR -> ffR4LrRf
ffR4LrR -> R2LR
ffR4LrRR2LR -> ffR4LrRR2LfR
ffR4LrRR2LfR -> ffR4LrR
ffR4LrRff -> ffR4LrRf
fffR4LrRf -> ff
R2LfRfR3LrR -> R2LfR
R2LfR3LrRfR -> R2LR
fR5LfR -> fR5LfrR
fR5LfR -> fR5LffrR
ffR2LrfRR2LR -> ffR4LrfRR2LR
ffR4LrfRR2LR -> ffR4LrfR
R2LRrfrf -> R2LfRrfrf
rfR2LR -> r
r -> fR2LRr
r -> rR2LffR
R7LffrrR -> R7LffrR
R7LffR -> R7LfrfR
R7LfrfR -> R7LfffR
R7LfffR -> R7LffrR
R2LrffR -> R2LR
R2LfrfrR -> R2LfrfrfR
R2LfrfrR -> R2LfffrR
R2LfrfrfR -> R2LfffrfR
R2LfffrfR -> R2LffrrfR
R2LffrrfR -> R2LfR
R2LffrrfR -> R2LffrR
R2LfRrR4LR -> R2LfRrR4LfrR
R2LfRrR4LrrR -> R2LfRrR4LfrR
R2LfRrR5LfrR -> R2LfRfR5LfrR
R2LfRfR5LfrR -> R2LfRfR4LfrR
R2LfRfR4LfrR -> R2LfRfR4LrrR
R2LfRfR4LfrR -> R2LR
R2LfRfR4LrrR -> R2LfRfR4LrfR
R2LfRfR4LrfR -> R2LfRfR4LffR
R2LfRfR4LffR -> R2LfRfR4LfrR
R2LfRrR3LfR -> R2LfRrR3LfRr
R2LfRrR3LfR -> R2LfRrR3LfrR
R2LfRrR3LfRr -> R2LfRrR3LfR
R2LfRrR4LfR -> R2LfRrR4LfRr
R2LfRrR4LfR -> R2LfRrR4LfrR
R2LfRrR4LfRr -> R2LfRrR4LfR
R2LfrR3LfrRR -> R2LfrR
R2LfrRR3LfrR -> R2LR
R2LrrR -> R2LrrRf
R2LrrRf -> R2LfrRf
R4LfrRf -> R5LfrRf
R4LfrRf -> fR4LfrRf
ffR2LRr -> ffR2LfRr
ffR2LfRr -> ffR2LfR
ffR2LfR -> ffR2LrfR
fR5LffrR -> fR5LfR
fR5LffrR -> fR5LR
fR5LffrR -> fR5LffR
fR5LffrR -> fR5LfrR
fR5LffR -> fR5LfR
fR5LfrRff -> fR4LfrRff
fR4LrrfR -> fR4LR
fR4LffR -> fR4LffrR
fR4LffR -> fR4LfrfR
fR4LffrR -> fR4LffR
R2LR2LffRR -> R2LR2LffRrR
R2LR2LffRR -> rR2LR2LffRR
R2LR2LffRrR -> R2LR2LffRR
rR2LR2LffRR -> rR2LR
rR2LR -> r
rR2LffR -> f
fR6LR -> fR6LfR
fR6LfR -> fR6LfrR
R5LR2LfRrR -> R5LR2LfRrRf
R5LRR2LfRrf -> R5LRR2LRrf
R5LRR2LRrf -> R5LfRR2LRrf
R5LfRR2LRrf -> R5LfRR2LR
R5LfRR2LR -> R5LfrfRR2LR
R5LfRR2LR -> R5LfRR5LR
R5LfrfRR2LR -> R5LfrRR2LR
R5LfrRR2LR -> R5LfrR
R4LfrRR2LR -> R4LfrRR2LfR
R4LfrRR2LfR -> fr
fR4LrRR2LfR -> fR4LfrRR2LfR
fR5LffrRf -> fR5LfRf
fR5LrfRf -> fR5LRf
fR5LrfRf -> fR5LrRf
fR5LrRf -> fR5LfrRf
R2LR2LRR2LRR -> R2LR2LfRR2LRR
R2LR2LfRR2LRR -> R2LR2LfRR2LrRR
R2LR2LfRR2LrRR -> R2LR2LfRR
R2LfRrR2LRfr -> R2LfRrR2LR
R2LfRR3LfR -> R2LfRR3LrfR
R5LfRR5LR -> R5LfrRR5LR
R5LfrRR5LR -> R5LfrR
R5LffrfR -> R5LR
R5LffrfR -> R2LR
R5LffrfR -> R5LffrR
R2LRR2LRR2LR -> R2LRR2LRR2LRR2LR
R2LRR2LRR2LRR2LR -> R2LRR2LRR2LRR2LRR2LR
R2LRR2LRR2LRR2LRR2LR -> R2LRR2LRR2LRR2LRR2LRR2LR
R2LRR2LRR2LRR2LRR2LRR2LR -> R2LRR2LR
R2LfRR2LrfrfR -> R2LfRR2LR
R2LfRR2LrfrR -> R2LfrfrR
R2LfRR2LrfrR -> R2LfRR4LrfrR
R2LffffR -> R10LffffR
R10LffffR -> R10LfR
fR10LrR -> fR10LrfR
fR10LrfR -> fR10LR
fR10LffR -> fR10LflR
fR10LflR -> fR10LfrR
fR9LfrR -> fR8LfrR
fR8LfrR -> fR8LfrRf
fR8LfrR -> fR8LfrfR
fR8LfrR -> fR8LffrR
fR8LfrRf -> fR8LfrR
fR8LfrRf -> fR7LfrRf
fR8LfrfR -> fR9LfrfR
fR8LfrfR -> fR8LfrR
fR9LfrfR -> fR8LfrfR
fR8LffrR -> fR8LR
fR8LffrR -> fR8LfrR
fR8LR -> fR8LffrR
fR7LfrRf -> fR7LfRf
fR7LfRf -> fR7LfR
fR7LfR -> fR7LR
fR7LR -> f
R6LfrR -> R6LffrR
R2LffRf -> R2LffrRf
R4LfRf -> R4LfrRf
ffrR4LR -> ffrR4LfR
ffrR4LfR -> ffrR4LfrR
ffrR3LrfR -> ff
ffrR3LrfR -> ffr
ffR3LrfR -> ffR3LrfRf
ffR3LrfRf -> ffR4LrfRf
R2LRffr -> R5LRffr
R2LRffr -> R2LRffrR2LR
R2LRffr -> f
R2LRffr -> R4LRffr
R5LRffr -> R5LRffrr
R5LRffr -> R2LRffr
R5LRffr -> ffrR5LR
R5LRffr -> fR5LRffr
R5LRffrr -> R5LRffr
R2LRffrR2LR -> R2LRffr
ffR2LRffr -> f
R4LRffr -> R5LRffr
ffrR5LR -> ffr
ffrR5LR -> f
ffrR5LR -> ffrR4LR
fR2LRfrf -> fR2LR
fR5LRfr -> fR5LR
R2LfRR2LRrfr -> R2LfRR2LR
ffrfR2LR -> R2LR
fR5LRffr -> fR5LR
ffrR3LfrRf -> ffrR3LfrR
R2LfrrR -> R2LfR
R2LfR2LfRR -> R2LfR2LfrRR
R2LfR2LfrRR -> R2LfR
R2LfRR3LfrRf -> R2LfRR3LfrR
R2LfRR3LfrRf -> R2LfRR3LfRf
R2LfRR3LfrRR2LR -> R2LfRR3LfrR
R2LfRR3LfRf -> R2LfRR3LRf
R2LfRR3LRf -> R2LfRR3LrRf
R2LfRR3LrRf -> R2LfRR3LrfRf
}