digraph graph_name {
  graph [
    charset = "UTF-8";
    label = "sample graph",
    labelloc = "t",
    labeljust = "c",
    bgcolor = "#ffffff",
    fontcolor = white,
    fontsize = 18,
    style = "filled",
    rankdir = TB,
    margin = 0.2,
    splines = spline,
    ranksep = 1.0,
    nodesep = 0.9
  ];

  node [
    colorscheme = "rdylgn11"
    style = "solid,filled",
    fontsize = 16,
    fontcolor = 6,
    fontname = "Migu 1M",
    color = 5,
    fillcolor = 11,
    fixedsize = true,
    height = 1.0,
    width = 1.0
  ];

  edge [
    style = solid,
    fontsize = 14,
    fontcolor = black,
    fontname = "Migu 1M",
    color = black,
    labelfloat = true,
    labeldistance = 2.5,
    labelangle = 70
  ];
  start [label="", shape = square, fillcolor="#0000ff"]
R2LlsR [label="", shape = square, fillcolor="#906f00"]
R2LlR [label="", shape = square, fillcolor="#8c7300"]
R2LR [label="", shape = square, fillcolor="#55aa00"]
R2LlRs [label="", shape = square, fillcolor="#b34c00"]
R2LlRsR2LR [label="", shape = square, fillcolor="#af5000"]
R2LlRsR2LrR [label="", shape = square, fillcolor="#ab5400"]
R2LlRsR2LrRR2LrR [label="", shape = square, fillcolor="#a25d00"]
R2LlRsR2LrRR2LlR [label="", shape = square, fillcolor="#8d7200"]
R2LlRsR2LrRR2LlRs [label="", shape = square, fillcolor="#916e00"]
R2LlRsR2LrRR2LlRf [label="", shape = square, fillcolor="#817e00"]
R2LRR2LlRsR2LrRR2LlRf [label="", shape = square, fillcolor="#7d8200"]
R2LR2LlRsR2LrRR2LlRfR [label="", shape = square, fillcolor="#0ff00"]
R2LR2LlRsR2LrRR2LlRfRs [label="", shape = square, fillcolor="#ff00ff"]
f [label="", shape = square, fillcolor="#619e00"]
ff [label="", shape = square, fillcolor="#5ca300"]
fff [label="", shape = square, fillcolor="#58a700"]
ffff [label="", shape = square, fillcolor="#53ac00"]
fffff [label="", shape = square, fillcolor="#4fb000"]
R10LR [label="", shape = square, fillcolor="#53ac00"]
R10LfR [label="", shape = square, fillcolor="#4fb000"]
R5LR [label="", shape = square, fillcolor="#926d00"]
R5LfR [label="", shape = square, fillcolor="#8e7100"]
R5LfRl [label="", shape = square, fillcolor="#a25d00"]
R5LfRls [label="", shape = square, fillcolor="#9e6100"]
R5LfRlsl [label="", shape = square, fillcolor="#9a6500"]
R2LR5LfRlslR [label="", shape = square, fillcolor="#5ea100"]
R5LfRlslR5LfR [label="", shape = square, fillcolor="#ea1500"]
R5LfRlslR5LfRR2LR [label="", shape = square, fillcolor="#e71800"]
R5LfRlslR5LfRR2LlR [label="", shape = square, fillcolor="#e41b00"]
R5LfRlslR5LfRR2LlRf [label="", shape = square, fillcolor="#ea1500"]
R5LfRlslR5LfRR3LlRf [label="", shape = square, fillcolor="#ea1500"]
R5LfRlslR5LfRR3LlR [label="", shape = square, fillcolor="#e71800"]
R5LfRlslR5LfRR2LlRILR [label="", shape = square, fillcolor="#f2d00"]
R5LfRlslR5LfRR2LlRILfR [label="", shape = square, fillcolor="#f5a00"]
R5LfRlslR5LfRR2LlRR2LR [label="", shape = square, fillcolor="#ef1000"]
R5LfRlslR5LfRR2LlRR2LfR [label="", shape = square, fillcolor="#ec1300"]
R2LR5LfRR [label="", shape = square, fillcolor="#817e00"]
R2LR5LfRILRR [label="", shape = square, fillcolor="#af5000"]
R2LR5LfRIx_EQ_1LRR [label="", shape = square, fillcolor="#ab5400"]
R2LR5LfRIx_EQ_2LRR [label="", shape = square, fillcolor="#a75800"]
R2LR5LfRIx_EQ_2LlslRR [label="", shape = square, fillcolor="#996600"]
R2LR5LfRILROLRR [label="", shape = square, fillcolor="#4fb000"]
R2LR5LfRIx_EQ_2LROLRR [label="", shape = square, fillcolor="#4ab500"]
R2LR5LfRIx_EQ_2LlslROLRR [label="", shape = square, fillcolor="#3bc400"]
R2LR5LfRIx_EQ_2LlslROLR5LfRR2LlRRR [label="", shape = square, fillcolor="#4fb000"]
R2LR5LfRIx_EQ_2LlslROLR2LlRRR [label="", shape = square, fillcolor="#9f600"]
R2LR5LfRIx_EQ_2LlslROLR2LlRfRR [label="", shape = square, fillcolor="#3fc00"]
R2LR5LfRIx_EQ_3LlslROLR2LlRfRR [label="", shape = square, fillcolor="#0ff00"]
R2LR5LfRIx_EQ_3LROLR2LlRfRR [label="", shape = square, fillcolor="#0ff00"]
R2LR5LfRIx_EQ_3LlROLR2LlRfRR [label="", shape = square, fillcolor="#0ff00"]
R2LR5LfRlIx_EQ_3LROLR2LlRfRR [label="", shape = square, fillcolor="#0ff00"]
R2LR5LfRlIx_EQ_3LslROLR2LlRfRR [label="", shape = square, fillcolor="#0ff00"]
R2LR5LfRlIx_EQ_3LslROLRR [label="", shape = square, fillcolor="#0ff00"]
R2LR5LfRlIx_EQ_3LslROLlRR [label="", shape = square, fillcolor="#0ff00"]
R2LR5LfRlIx_EQ_3LslROLlR2LfRRR [label="", shape = square, fillcolor="#0ff00"]
R2LR5LfRlIx_EQ_2LslROLlR2LfRRR [label="", shape = square, fillcolor="#ff00ff"]
R2LR5LfRlR [label="", shape = square, fillcolor="#0ff00"]
R2LR5LfRlILROLRR [label="", shape = square, fillcolor="#0ff00"]
R2LR5LfRlIx_EQ_1LROLRR [label="", shape = square, fillcolor="#0ff00"]
R2LR5LfRlIx_EQ_3LROLRR [label="", shape = square, fillcolor="#0ff00"]
R2LR5LfRlIx_EQ_3LsROLRR [label="", shape = square, fillcolor="#0ff00"]
R2LR5LfRlIx_EQ_3LsROLlRR [label="", shape = square, fillcolor="#0ff00"]
R2LR5LfRlIx_EQ_3LsROLlRlR [label="", shape = square, fillcolor="#0ff00"]
R2LR5LfRlIx_EQ_2LsROLlRlR [label="", shape = square, fillcolor="#0ff00"]
R2LR5LfRlIx_EQ_2LsROLlRR [label="", shape = square, fillcolor="#0ff00"]
R2LR5LfRlIx_EQ_2LsROLlRILROLRR [label="", shape = square, fillcolor="#0ff00"]
R2LR5LfRlIx_EQ_2LsROLlRIx_EQ_1LROLRR [label="", shape = square, fillcolor="#0ff00"]
R2LR5LfRlIx_EQ_2LslROLlRIx_EQ_1LROLRR [label="", shape = square, fillcolor="#0ff00"]
R2LR5LfRlIx_EQ_2LslROLlfRIx_EQ_1LROLRR [label="", shape = square, fillcolor="#0ff00"]
R2LR5LfRlIx_EQ_2LslROLlfRR [label="", shape = square, fillcolor="#0ff00"]
R2LR5LfRlIx_EQ_2LslROLlffRR [label="", shape = square, fillcolor="#ff00ff"]
R2LR5LfRlIx_EQ_2LsRlR [label="", shape = square, fillcolor="#0ff00"]
R2LR5LfRlIx_EQ_2LsRlRR2LR [label="", shape = square, fillcolor="#0ff00"]
R2LR5LfRlIx_EQ_2LsRlRR2LfR [label="", shape = square, fillcolor="#ff00ff"]
start -> R2LR
R2LlsR -> R2LlR
R2LlR -> R2LlsR
R2LlR -> R2LR
R2LlR -> R2LlRs
R2LR -> R2LR5LfRlslR
R2LlRs -> R2LlRsR2LR
R2LlRsR2LR -> R2LlRsR2LrR
R2LlRsR2LrR -> R2LlRsR2LrRR2LrR
R2LlRsR2LrRR2LrR -> R2LlRsR2LrR
R2LlRsR2LrRR2LrR -> R2LlRsR2LrRR2LlR
R2LlRsR2LrRR2LlR -> R2LlRsR2LrRR2LlRs
R2LlRsR2LrRR2LlR -> R2LlRsR2LrRR2LlRf
R2LlRsR2LrRR2LlRs -> R2LlRsR2LrRR2LlR
R2LlRsR2LrRR2LlRf -> R2LRR2LlRsR2LrRR2LlRf
R2LRR2LlRsR2LrRR2LlRf -> R2LR
R2LR2LlRsR2LrRR2LlRfR -> R2LR2LlRsR2LrRR2LlRfRs
f -> ff
ff -> fff
fff -> ffff
ffff -> fffff
R10LR -> R10LfR
R5LR -> R5LfR
R5LfR -> R5LfRl
R5LfR -> R2LR
R5LfRl -> R5LfRls
R5LfRls -> R5LfRlsl
R5LfRlsl -> R2LR
R5LfRlsl -> R5LfRlslR5LfR
R5LfRlsl -> R5LfR
R2LR5LfRlslR -> R5LfRlsl
R2LR5LfRlslR -> R2LR5LfRR
R2LR5LfRlslR -> R2LR
R2LR5LfRlslR -> R2LR5LfRlR
R5LfRlslR5LfR -> R5LfRlslR5LfRR2LR
R5LfRlslR5LfRR2LR -> R5LfRlslR5LfRR2LlR
R5LfRlslR5LfRR2LlR -> R5LfRlslR5LfRR2LlRf
R5LfRlslR5LfRR2LlRf -> R5LfRlslR5LfRR3LlRf
R5LfRlslR5LfRR2LlRf -> R5LfRlslR5LfRR2LlR
R5LfRlslR5LfRR3LlRf -> R5LfRlslR5LfRR3LlR
R5LfRlslR5LfRR3LlR -> R5LfRlslR5LfRR2LlR
R5LfRlslR5LfRR2LlRILR -> R5LfRlslR5LfRR2LlRILfR
R5LfRlslR5LfRR2LlRILR -> R5LfRlslR5LfRR2LlR
R5LfRlslR5LfRR2LlRILfR -> R5LfRlslR5LfRR2LlRILR
R5LfRlslR5LfRR2LlRR2LR -> R5LfRlslR5LfRR2LlRR2LfR
R5LfRlslR5LfRR2LlRR2LfR -> R5LfRlslR5LfRR2LlR
R2LR5LfRR -> R2LR5LfRlslR
R2LR5LfRR -> R2LR5LfRILRR
R2LR5LfRR -> R2LR5LfRILROLRR
R2LR5LfRILRR -> R2LR5LfRIx_EQ_1LRR
R2LR5LfRIx_EQ_1LRR -> R2LR5LfRIx_EQ_2LRR
R2LR5LfRIx_EQ_2LRR -> R2LR5LfRIx_EQ_2LlslRR
R2LR5LfRIx_EQ_2LlslRR -> R2LR5LfRR
R2LR5LfRILROLRR -> R2LR5LfRIx_EQ_2LROLRR
R2LR5LfRIx_EQ_2LROLRR -> R2LR5LfRIx_EQ_2LlslROLRR
R2LR5LfRIx_EQ_2LlslROLRR -> R2LR5LfRIx_EQ_2LlslROLR5LfRR2LlRRR
R2LR5LfRIx_EQ_2LlslROLRR -> R2LR5LfRIx_EQ_2LlslROLR2LlRRR
R2LR5LfRIx_EQ_2LlslROLR5LfRR2LlRRR -> R2LR5LfRIx_EQ_2LlslROLRR
R2LR5LfRIx_EQ_2LlslROLR2LlRRR -> R2LR5LfRIx_EQ_2LlslROLR2LlRfRR
R2LR5LfRIx_EQ_2LlslROLR2LlRfRR -> R2LR5LfRIx_EQ_3LlslROLR2LlRfRR
R2LR5LfRIx_EQ_3LlslROLR2LlRfRR -> R2LR5LfRIx_EQ_3LROLR2LlRfRR
R2LR5LfRIx_EQ_3LlslROLR2LlRfRR -> R2LR5LfRIx_EQ_3LlROLR2LlRfRR
R2LR5LfRIx_EQ_3LROLR2LlRfRR -> R2LR5LfRIx_EQ_3LlslROLR2LlRfRR
R2LR5LfRIx_EQ_3LROLR2LlRfRR -> R2LR5LfRlIx_EQ_3LROLR2LlRfRR
R2LR5LfRIx_EQ_3LlROLR2LlRfRR -> R2LR5LfRIx_EQ_3LROLR2LlRfRR
R2LR5LfRlIx_EQ_3LROLR2LlRfRR -> R2LR5LfRlIx_EQ_3LslROLR2LlRfRR
R2LR5LfRlIx_EQ_3LslROLR2LlRfRR -> R2LR5LfRlIx_EQ_3LslROLRR
R2LR5LfRlIx_EQ_3LslROLRR -> R2LR5LfRlIx_EQ_3LslROLlRR
R2LR5LfRlIx_EQ_3LslROLRR -> R2LR5LfRlIx_EQ_3LsROLRR
R2LR5LfRlIx_EQ_3LslROLlRR -> R2LR5LfRlIx_EQ_3LslROLlR2LfRRR
R2LR5LfRlIx_EQ_3LslROLlR2LfRRR -> R2LR5LfRlIx_EQ_2LslROLlR2LfRRR
R2LR5LfRlR -> R2LR5LfRlILROLRR
R2LR5LfRlILROLRR -> R2LR5LfRlIx_EQ_1LROLRR
R2LR5LfRlIx_EQ_1LROLRR -> R2LR5LfRlIx_EQ_3LROLRR
R2LR5LfRlIx_EQ_3LROLRR -> R2LR5LfRlIx_EQ_3LslROLRR
R2LR5LfRlIx_EQ_3LsROLRR -> R2LR5LfRlIx_EQ_3LsROLlRR
R2LR5LfRlIx_EQ_3LsROLlRR -> R2LR5LfRlIx_EQ_3LsROLlRlR
R2LR5LfRlIx_EQ_3LsROLlRlR -> R2LR5LfRlIx_EQ_2LsROLlRlR
R2LR5LfRlIx_EQ_2LsROLlRlR -> R2LR5LfRlIx_EQ_2LsROLlRR
R2LR5LfRlIx_EQ_2LsROLlRR -> R2LR5LfRlIx_EQ_2LsROLlRILROLRR
R2LR5LfRlIx_EQ_2LsROLlRILROLRR -> R2LR5LfRlIx_EQ_2LsROLlRIx_EQ_1LROLRR
R2LR5LfRlIx_EQ_2LsROLlRIx_EQ_1LROLRR -> R2LR5LfRlIx_EQ_2LslROLlRIx_EQ_1LROLRR
R2LR5LfRlIx_EQ_2LslROLlRIx_EQ_1LROLRR -> R2LR5LfRlIx_EQ_2LslROLlfRIx_EQ_1LROLRR
R2LR5LfRlIx_EQ_2LslROLlfRIx_EQ_1LROLRR -> R2LR5LfRlIx_EQ_2LslROLlfRR
R2LR5LfRlIx_EQ_2LslROLlfRR -> R2LR5LfRlIx_EQ_2LslROLlffRR
R2LR5LfRlIx_EQ_2LsRlR -> R2LR5LfRlIx_EQ_2LsRlRR2LR
R2LR5LfRlIx_EQ_2LsRlRR2LR -> R2LR5LfRlIx_EQ_2LsRlRR2LfR
}