digraph graph_name {
  graph [
    charset = "UTF-8";
    label = "sample graph",
    labelloc = "t",
    labeljust = "c",
    bgcolor = "#ffffff",
    fontcolor = white,
    fontsize = 18,
    style = "filled",
    rankdir = TB,
    margin = 0.2,
    splines = spline,
    ranksep = 1.0,
    nodesep = 0.9
  ];

  node [
    colorscheme = "rdylgn11"
    style = "solid,filled",
    fontsize = 16,
    fontcolor = 6,
    fontname = "Migu 1M",
    color = 5,
    fillcolor = 11,
    fixedsize = true,
    height = 1.0,
    width = 1.0
  ];

  edge [
    style = solid,
    fontsize = 14,
    fontcolor = black,
    fontname = "Migu 1M",
    color = black,
    labelfloat = true,
    labeldistance = 2.5,
    labelangle = 70
  ];
  start [label="", shape = square, fillcolor="#0000ff"]
f [label="", shape = square, fillcolor="#619e00"]
ff [label="", shape = square, fillcolor="#5ba400"]
fff [label="", shape = square, fillcolor="#ff00ff"]
ffff [label="", shape = square, fillcolor="#5ea100"]
fl [label="", shape = square, fillcolor="#5ea100"]
flr [label="", shape = square, fillcolor="#ff00ff"]
r [label="", shape = square, fillcolor="#649b00"]
rr [label="", shape = square, fillcolor="#5ea100"]
rrl [label="", shape = square, fillcolor="#ff00ff"]
flrf [label="", shape = square, fillcolor="#5ba400"]
l [label="", shape = square, fillcolor="#718e00"]
lr [label="", shape = square, fillcolor="#5ba400"]
lrf [label="", shape = square, fillcolor="#ff00ff"]
ll [label="", shape = square, fillcolor="#857a00"]
llr [label="", shape = square, fillcolor="#a95600"]
llrr [label="", shape = square, fillcolor="#a55a00"]
llrrr [label="", shape = square, fillcolor="#a05f00"]
rff [label="", shape = square, fillcolor="#ff00ff"]
rfff [label="", shape = square, fillcolor="#5ba400"]
lrl [label="", shape = square, fillcolor="#ff00ff"]
fr [label="", shape = square, fillcolor="#619e00"]
ffr [label="", shape = square, fillcolor="#ff00ff"]
ffrr [label="", shape = square, fillcolor="#669900"]
ffrrf [label="", shape = square, fillcolor="#619e00"]
ffrf [label="", shape = square, fillcolor="#5ba400"]
fffff [label="", shape = square, fillcolor="#639c00"]
frf [label="", shape = square, fillcolor="#ff00ff"]
frfl [label="", shape = square, fillcolor="#689700"]
frflf [label="", shape = square, fillcolor="#619e00"]
fflf [label="", shape = square, fillcolor="#6f9000"]
ffl [label="", shape = square, fillcolor="#ff00ff"]
rrr [label="", shape = square, fillcolor="#639c00"]
rrf [label="", shape = square, fillcolor="#ff00ff"]
rrfl [label="", shape = square, fillcolor="#ff000"]
rrflf [label="", shape = square, fillcolor="#ff000"]
rrflfr [label="", shape = square, fillcolor="#fc300"]
rrflfrf [label="", shape = square, fillcolor="#f9600"]
rrflfrfr [label="", shape = square, fillcolor="#f5a00"]
rrflfrfrf [label="", shape = square, fillcolor="#f1e00"]
rrflfrfrff [label="", shape = square, fillcolor="#ed1200"]
rrflfrfrfff [label="", shape = square, fillcolor="#e91600"]
rrflfrfrffff [label="", shape = square, fillcolor="#e51a00"]
rrflfrfrfffff [label="", shape = square, fillcolor="#e21d00"]
rrflfrfrffffff [label="", shape = square, fillcolor="#de2100"]
rrflfrfrfffffff [label="", shape = square, fillcolor="#da2500"]
rrfflfrfrfffffff [label="", shape = square, fillcolor="#d52a00"]
rfrfflfrfrfffffff [label="", shape = square, fillcolor="#d12e00"]
rlfrfflfrfrfffffff [label="", shape = square, fillcolor="#cd3200"]
rflfrfflfrfrfffffff [label="", shape = square, fillcolor="#c93600"]
rfflfrfflfrfrfffffff [label="", shape = square, fillcolor="#c53a00"]
rffflfrfflfrfrfffffff [label="", shape = square, fillcolor="#c13e00"]
lrffflfrfflfrfrfffffff [label="", shape = square, fillcolor="#bc4300"]
lrffflfrfflf [label="", shape = square, fillcolor="#8f7000"]
lrr [label="", shape = square, fillcolor="#ff00ff"]
llf [label="", shape = square, fillcolor="#ff00ff"]
flf [label="", shape = square, fillcolor="#ff00ff"]
rf [label="", shape = square, fillcolor="#5ba400"]
fflfr [label="", shape = square, fillcolor="#7f8000"]
fflfrf [label="", shape = square, fillcolor="#7a8500"]
start -> f
f -> ff
ff -> fff
fff -> ffff
ffff -> fff
fl -> flr
flr -> flrf
r -> rr
r -> f
rr -> rrl
rr -> rrf
flrf -> flr
l -> lr
l -> ll
lr -> lrf
lr -> lrl
lr -> lrr
lrf -> lrffflfrfflfrfrfffffff
ll -> llr
ll -> llf
llr -> llrr
llrr -> llrrr
rff -> rfff
rfff -> rff
fr -> f
fr -> frf
ffr -> ffrr
ffr -> ffrf
ffrr -> ffrrf
ffrrf -> ffr
ffrf -> ffr
fffff -> ffff
frf -> frfl
frfl -> frflf
frfl -> fr
frflf -> frf
fflf -> fflfr
fflf -> ffl
ffl -> fflf
ffl -> ff
rrr -> rr
rrf -> rrfl
rrfl -> rrflf
rrflf -> rrflfr
rrflfr -> rrflfrf
rrflfrf -> rrflfrfr
rrflfrfr -> rrflfrfrf
rrflfrfrf -> rrflfrfrff
rrflfrfrff -> rrflfrfrfff
rrflfrfrfff -> rrflfrfrffff
rrflfrfrffff -> rrflfrfrfffff
rrflfrfrfffff -> rrflfrfrffffff
rrflfrfrffffff -> rrflfrfrfffffff
rrflfrfrfffffff -> rrfflfrfrfffffff
rrfflfrfrfffffff -> rfrfflfrfrfffffff
rfrfflfrfrfffffff -> rlfrfflfrfrfffffff
rlfrfflfrfrfffffff -> rflfrfflfrfrfffffff
rflfrfflfrfrfffffff -> rfflfrfflfrfrfffffff
rfflfrfflfrfrfffffff -> rffflfrfflfrfrfffffff
rffflfrfflfrfrfffffff -> lrffflfrfflfrfrfffffff
lrffflfrfflfrfrfffffff -> lrf
lrffflfrfflfrfrfffffff -> lrffflfrfflf
lrffflfrfflf -> lr
rf -> rff
fflfr -> fflfrf
fflfrf -> fflf
}