digraph graph_name {
  graph [
    charset = "UTF-8";
    label = "sample graph",
    labelloc = "t",
    labeljust = "c",
    bgcolor = "#ffffff",
    fontcolor = white,
    fontsize = 18,
    style = "filled",
    rankdir = TB,
    margin = 0.2,
    splines = spline,
    ranksep = 1.0,
    nodesep = 0.9
  ];

  node [
    colorscheme = "rdylgn11"
    style = "solid,filled",
    fontsize = 16,
    fontcolor = 6,
    fontname = "Migu 1M",
    color = 5,
    fillcolor = 11,
    fixedsize = true,
    height = 1.0,
    width = 1.0
  ];

  edge [
    style = solid,
    fontsize = 14,
    fontcolor = black,
    fontname = "Migu 1M",
    color = black,
    labelfloat = true,
    labeldistance = 2.5,
    labelangle = 70
  ];
  start [label="", shape = square, fillcolor="#0000ff"]
R2LR [label="", shape = square, fillcolor="#847b00"]
R2LlR [label="", shape = square, fillcolor="#53ac00"]
ILR [label="", shape = square, fillcolor="#aa5500"]
Ix_EQ_1LR [label="", shape = square, fillcolor="#c83700"]
Ix_EQ_1LfR [label="", shape = square, fillcolor="#9c6300"]
IxN_EQ_1LfR [label="", shape = square, fillcolor="#9a6500"]
IxN_EQ_2LfR [label="", shape = square, fillcolor="#996600"]
IxN_EQ_4LfR [label="", shape = square, fillcolor="#976800"]
IxN_EQ_3LfR [label="", shape = square, fillcolor="#956a00"]
Ix_GT_3LfR [label="", shape = square, fillcolor="#946b00"]
Ix_LT_3LfR [label="", shape = square, fillcolor="#926d00"]
Ix_LT_3LlR [label="", shape = square, fillcolor="#906f00"]
R2LR2LlRR [label="", shape = square, fillcolor="#ae5100"]
R2LR2LlRrR [label="", shape = square, fillcolor="#bb4400"]
ILrR [label="", shape = square, fillcolor="#718e00"]
INbLrR [label="", shape = square, fillcolor="#6f9000"]
WLRINbLrR [label="", shape = square, fillcolor="#6d9200"]
WLR [label="", shape = square, fillcolor="#619e00"]
WLINbLrRR [label="", shape = square, fillcolor="#669900"]
WNbLINbLrRR [label="", shape = square, fillcolor="#639c00"]
WNbLR [label="", shape = square, fillcolor="#57a800"]
WNbLrR [label="", shape = square, fillcolor="#bf400"]
WNbLfR [label="", shape = square, fillcolor="#0ff00"]
WLfR [label="", shape = square, fillcolor="#0ff00"]
f [label="", shape = square, fillcolor="#0ff00"]
fR2LR [label="", shape = square, fillcolor="#0ff00"]
fR2LfR [label="", shape = square, fillcolor="#0ff00"]
R2LIx_EQ_3LlRlIx_EQ_2LrRR [label="", shape = square, fillcolor="#0ff00"]
R2LlWx_EQ_2LrRR [label="", shape = square, fillcolor="#0ff00"]
R2LlWx_EQ_2LrRRR2LR [label="", shape = square, fillcolor="#0ff00"]
R2LlR2LrRR [label="", shape = square, fillcolor="#0ff00"]
R2LlR2LRR [label="", shape = square, fillcolor="#0ff00"]
R2LrlR2LRR [label="", shape = square, fillcolor="#9e6100"]
R2LrR [label="", shape = square, fillcolor="#976800"]
R2LrR2LlRR [label="", shape = square, fillcolor="#906f00"]
Ix_EQ_4LR2LlRR [label="", shape = square, fillcolor="#0ff00"]
Ix_EQ_4LR2LlRRILR [label="", shape = square, fillcolor="#0ff00"]
l [label="", shape = square, fillcolor="#5fa000"]
Ix_EQ_3LR [label="", shape = square, fillcolor="#689700"]
Ix_EQ_3LlR [label="", shape = square, fillcolor="#669900"]
lIx_EQ_3LlR [label="", shape = square, fillcolor="#9e6100"]
lIx_EQ_3LlRr [label="", shape = square, fillcolor="#9c6300"]
R2LRlIx_EQ_3LlRr [label="", shape = square, fillcolor="#9b6400"]
R2LlIx_EQ_3LlRrR [label="", shape = square, fillcolor="#9b6400"]
R2LllR [label="", shape = square, fillcolor="#25da00"]
R2LllrR [label="", shape = square, fillcolor="#22dd00"]
R2LR2LRR [label="", shape = square, fillcolor="#b04f00"]
R2LR2LlRrlR [label="", shape = square, fillcolor="#b94600"]
R2LR2LlrRR [label="", shape = square, fillcolor="#b04f00"]
R2LR2LlRrRl [label="", shape = square, fillcolor="#b94600"]
R2LR2LlRrRWx_EQ_1LlR [label="", shape = square, fillcolor="#ff000"]
R2LR2LlRrRWx_EQ_1LR [label="", shape = square, fillcolor="#ff000"]
ls [label="", shape = square, fillcolor="#6e9100"]
lss [label="", shape = square, fillcolor="#6c9300"]
R2LlRR2LrR [label="", shape = square, fillcolor="#5aa500"]
R2LlRr [label="", shape = square, fillcolor="#798600"]
R2LRR2LlRr [label="", shape = square, fillcolor="#906f00"]
R3LR2LlRrR [label="", shape = square, fillcolor="#c33c00"]
R2LR2LlRrRlr [label="", shape = square, fillcolor="#bb4400"]
R2LRl [label="", shape = square, fillcolor="#867900"]
WNbLR2LlRrR [label="", shape = square, fillcolor="#976800"]
WNbLlrR [label="", shape = square, fillcolor="#609f00"]
WNbLllrR [label="", shape = square, fillcolor="#42bd00"]
WNbLlR [label="", shape = square, fillcolor="#19e600"]
ILWNbLR2LlRrRR [label="", shape = square, fillcolor="#bd4200"]
INbLWNbLR2LlRrRR [label="", shape = square, fillcolor="#bf4000"]
WNbLR2LlRrR2LRR [label="", shape = square, fillcolor="#897600"]
WNbLR2LlRrR2LrRR [label="", shape = square, fillcolor="#8b7400"]
WNbLR2LlRrR2LILRRR [label="", shape = square, fillcolor="#906f00"]
R2LlRrR2LR [label="", shape = square, fillcolor="#8b7400"]
WNbLR2LlRrRr [label="", shape = square, fillcolor="#996600"]
WLR2LlRrR [label="", shape = square, fillcolor="#b54a00"]
Wx_EQ_1LR2LlRrR [label="", shape = square, fillcolor="#b44b00"]
Wx_GT_1LR2LlRrR [label="", shape = square, fillcolor="#b24d00"]
Wx_GT_1LR2LRrR [label="", shape = square, fillcolor="#b14e00"]
Wx_GT_1LR [label="", shape = square, fillcolor="#aa5500"]
Wx_GT_1LlR [label="", shape = square, fillcolor="#a95600"]
Wx_GT_1LlrR [label="", shape = square, fillcolor="#8e7100"]
Wx_GT_2LlrR [label="", shape = square, fillcolor="#8c7300"]
Wx_GT_2LlR [label="", shape = square, fillcolor="#8a7500"]
Wx_GT_2LR [label="", shape = square, fillcolor="#897600"]
Wx_GT_2LR2LlRR [label="", shape = square, fillcolor="#a85700"]
Wx_GT_2LR2LlRrR [label="", shape = square, fillcolor="#a65900"]
Wx_GT_2LR2LlRrRr [label="", shape = square, fillcolor="#a85700"]
Wx_GT_2LR2LlRrRl [label="", shape = square, fillcolor="#a25d00"]
Wx_GT_2LR2LlRrRlr [label="", shape = square, fillcolor="#a15e00"]
Wx_GT_2LR10LlRrRlr [label="", shape = square, fillcolor="#9f6000"]
Wx_GT_2LR10LlRrRl [label="", shape = square, fillcolor="#9d6200"]
Wx_GT_2LR9LlRrRl [label="", shape = square, fillcolor="#9c6300"]
Wx_GT_2LR3LlRrRl [label="", shape = square, fillcolor="#9a6500"]
Wx_GT_2LR3LlRrRlr [label="", shape = square, fillcolor="#9c6300"]
R3LR [label="", shape = square, fillcolor="#867900"]
WLrR [label="", shape = square, fillcolor="#48b700"]
Ix_EQ_2LR2LlrRR [label="", shape = square, fillcolor="#708f00"]
lIx_EQ_2LR2LlrRR [label="", shape = square, fillcolor="#758a00"]
Wx_EQ_1LR [label="", shape = square, fillcolor="#a15e00"]
Wx_GT_1LllR [label="", shape = square, fillcolor="#916e00"]
Wx_GT_1LllrR [label="", shape = square, fillcolor="#906f00"]
Wx_GT_2LllrR [label="", shape = square, fillcolor="#8e7100"]
Wx_GT_2LllR [label="", shape = square, fillcolor="#8c7300"]
WLIx_GT_1LlRR [label="", shape = square, fillcolor="#0ff00"]
WLIx_GT_1LlRrR [label="", shape = square, fillcolor="#0ff00"]
WNbLIx_GT_1LlRrR [label="", shape = square, fillcolor="#0ff00"]
WNbLR2LRR [label="", shape = square, fillcolor="#6a9500"]
WNbLR2LILRRR [label="", shape = square, fillcolor="#768900"]
WNbLR2LIx_EQ_1LRRR [label="", shape = square, fillcolor="#748b00"]
WNbLR2LIx_GT_1LRRR [label="", shape = square, fillcolor="#728d00"]
WNbLR2LIx_GT_1LlRRR [label="", shape = square, fillcolor="#708f00"]
WNbLR2LIx_GT_1LlRrRR [label="", shape = square, fillcolor="#6e9100"]
WNbLlIx_GT_1LlRrR [label="", shape = square, fillcolor="#ff00ff"]
WNbLILRR [label="", shape = square, fillcolor="#48b700"]
WNbLILRlR [label="", shape = square, fillcolor="#7b8400"]
WNbLILrRlR [label="", shape = square, fillcolor="#798600"]
WNbLIx_EQ_1LrRlR [label="", shape = square, fillcolor="#778800"]
WxN_EQ_1LR [label="", shape = square, fillcolor="#966900"]
WxN_EQ_1LlR [label="", shape = square, fillcolor="#a45b00"]
WxN_EQ_1LllR [label="", shape = square, fillcolor="#a35c00"]
WxN_EQ_2LllR [label="", shape = square, fillcolor="#a15e00"]
WxN_EQ_2LlR [label="", shape = square, fillcolor="#9f6000"]
WxN_EQ_2LlRr [label="", shape = square, fillcolor="#ae5100"]
WxN_EQ_2LlRrWLR [label="", shape = square, fillcolor="#af5000"]
WxN_EQ_2LlRrWx_EQ_1LR [label="", shape = square, fillcolor="#ae5100"]
WxN_EQ_2LlRrWxN_EQ_1LR [label="", shape = square, fillcolor="#ad5200"]
WxN_EQ_2LlRrWxN_EQ_1LlR [label="", shape = square, fillcolor="#ab5400"]
WxN_EQ_2LlRILR [label="", shape = square, fillcolor="#a75800"]
WxN_EQ_2LlRIx_EQ_1LR [label="", shape = square, fillcolor="#a65900"]
WxN_EQ_2LlRIx_EQ_2LR [label="", shape = square, fillcolor="#a75800"]
WxN_EQ_2LlRIx_EQ_1LrR [label="", shape = square, fillcolor="#a15e00"]
WxN_EQ_2LlRIx_EQ_1LrRl [label="", shape = square, fillcolor="#a05f00"]
R2LlrR [label="", shape = square, fillcolor="#35ca00"]
R3LllrR [label="", shape = square, fillcolor="#0ff00"]
R3LlILRlrR [label="", shape = square, fillcolor="#0ff00"]
R3LlIx_EQ_1LRlrR [label="", shape = square, fillcolor="#0ff00"]
R3LlIxN_EQ_1LRlrR [label="", shape = square, fillcolor="#0ff00"]
R3LlIxN_EQ_1LRR [label="", shape = square, fillcolor="#0ff00"]
R3LlIxN_EQ_1LlrRR [label="", shape = square, fillcolor="#0ff00"]
R3LlIxN_EQ_1LlRR [label="", shape = square, fillcolor="#0ff00"]
R3LlIxN_EQ_1LlRrR [label="", shape = square, fillcolor="#ff00ff"]
Ix_GT_1LR [label="", shape = square, fillcolor="#f1e00"]
Ix_GT_1LlR [label="", shape = square, fillcolor="#f1e00"]
Ix_GT_1LlRILR [label="", shape = square, fillcolor="#ff000"]
Ix_GT_1LlRlILR [label="", shape = square, fillcolor="#ff000"]
Ix_GT_1LlRlIx_EQ_1LR [label="", shape = square, fillcolor="#ff000"]
Ix_GT_1LlRlIx_LT__EQ_1LR [label="", shape = square, fillcolor="#ff000"]
Ix_GT_1LlRlIx_LT__EQ_1LlR [label="", shape = square, fillcolor="#ff000"]
Ix_GT_1LlRrIx_LT__EQ_1LlR [label="", shape = square, fillcolor="#ff000"]
ILlR [label="", shape = square, fillcolor="#b74800"]
Wx_GT_1LRILlR [label="", shape = square, fillcolor="#b64900"]
Wx_GT_1LlRrIx_LT__EQ_1LlR [label="", shape = square, fillcolor="#c83700"]
Wx_GT_1LlRr [label="", shape = square, fillcolor="#bc4300"]
Wx_GT_1LlRrWLR [label="", shape = square, fillcolor="#bb4400"]
Wx_GT_1LlRrWx_LT__EQ_1LR [label="", shape = square, fillcolor="#ba4500"]
Wx_GT_1LlRrWx_LT__EQ_1LlR [label="", shape = square, fillcolor="#b94600"]
Wx_GT__EQ_1LlRrWx_LT__EQ_1LlR [label="", shape = square, fillcolor="#b74800"]
Wx_GT__EQ_2LlRrWx_LT__EQ_1LlR [label="", shape = square, fillcolor="#b64900"]
Wx_GT__EQ_2LlR [label="", shape = square, fillcolor="#c23d00"]
Wx_GT__EQ_2LlRrWx_GT__EQ_1LlR [label="", shape = square, fillcolor="#9e6100"]
Wx_GT_2LlRrWx_GT__EQ_1LlR [label="", shape = square, fillcolor="#9c6300"]
Wx_GT_2LlRrWx_GT_1LlR [label="", shape = square, fillcolor="#9b6400"]
WNbLILRILRR [label="", shape = square, fillcolor="#807f00"]
WNbLIx_EQ_1LRILRR [label="", shape = square, fillcolor="#7e8100"]
WNbLIx_GT_1LRILRR [label="", shape = square, fillcolor="#7c8300"]
WNbLIx_GT_2LRILRR [label="", shape = square, fillcolor="#7a8500"]
WNbLIx_GT_2LlRILRR [label="", shape = square, fillcolor="#798600"]
WNbLIx_GT_2LlRIx_EQ_1LRR [label="", shape = square, fillcolor="#778800"]
WNbLIx_GT_2LlRIx_GT_1LRR [label="", shape = square, fillcolor="#758a00"]
WNbLIx_GT_2LlRIx_GT_1LlRR [label="", shape = square, fillcolor="#738c00"]
R2LllrRlr [label="", shape = square, fillcolor="#7d8200"]
WNbLR2LllrRR [label="", shape = square, fillcolor="#47b800"]
WNbLWLRR [label="", shape = square, fillcolor="#798600"]
WNbLWx_EQ_1LRR [label="", shape = square, fillcolor="#778800"]
WNbLWxN_EQ_1LRR [label="", shape = square, fillcolor="#758a00"]
WNbLWxN_EQ_1LllrRR [label="", shape = square, fillcolor="#699600"]
WxN_EQ_1LllrRWNbLR [label="", shape = square, fillcolor="#996600"]
WxN_EQ_1LllrR [label="", shape = square, fillcolor="#976800"]
WxN_EQ_2LllrR [label="", shape = square, fillcolor="#966900"]
WxN_EQ_2LllrRr [label="", shape = square, fillcolor="#976800"]
WxN_EQ_2LllrRR2LR [label="", shape = square, fillcolor="#976800"]
WxN_EQ_2LllrRR2LfR [label="", shape = square, fillcolor="#887700"]
WxN_EQ_2LR2LllRrRR2LfR [label="", shape = square, fillcolor="#877800"]
WxN_EQ_2LR2LlRrRR2LfR [label="", shape = square, fillcolor="#857a00"]
WxN_EQ_2LR2LlRrR [label="", shape = square, fillcolor="#7e8100"]
WxN_EQ_2LR2LlRrRf [label="", shape = square, fillcolor="#7c8300"]
WNbLR2LlRrRf [label="", shape = square, fillcolor="#b64900"]
WNbLRf [label="", shape = square, fillcolor="#aa5500"]
WLRWNbLRf [label="", shape = square, fillcolor="#a95600"]
Wx_EQ_1LRWNbLRf [label="", shape = square, fillcolor="#a75800"]
Wx_EQ_1LRf [label="", shape = square, fillcolor="#8c7300"]
Wx_EQ_1LR2LlRrRf [label="", shape = square, fillcolor="#807f00"]
WxN_EQ_1LR2LlRrRf [label="", shape = square, fillcolor="#7e8100"]
R2LllrRl [label="", shape = square, fillcolor="#52ad00"]
R2LWLRR [label="", shape = square, fillcolor="#0ff00"]
R2LlWLRR [label="", shape = square, fillcolor="#0ff00"]
R2LlWNbLRR [label="", shape = square, fillcolor="#0ff00"]
lILR [label="", shape = square, fillcolor="#0ff00"]
lIx_EQ_1LR [label="", shape = square, fillcolor="#0ff00"]
lIx_EQ_1LrR [label="", shape = square, fillcolor="#0ff00"]
WLlIx_EQ_1LrRR [label="", shape = square, fillcolor="#0ff00"]
WNbLlIx_EQ_1LrRR [label="", shape = square, fillcolor="#0ff00"]
WNbLlIx_EQ_2LrRR [label="", shape = square, fillcolor="#0ff00"]
WxN_EQ_2LR [label="", shape = square, fillcolor="#857a00"]
WxN_EQ_2LlRrR2LR [label="", shape = square, fillcolor="#a65900"]
R2LlRrWLR [label="", shape = square, fillcolor="#7d8200"]
R2LlRrWx_EQ_1LR [label="", shape = square, fillcolor="#7b8400"]
R2LlRWNbLR [label="", shape = square, fillcolor="#748b00"]
R2LlRWNbLWx_EQ_1LRR [label="", shape = square, fillcolor="#768900"]
R2LlRWNbLILRR [label="", shape = square, fillcolor="#699600"]
R2LlRWNbLIx_EQ_1LRR [label="", shape = square, fillcolor="#679800"]
R2LlRWNbLIx_EQ_1LrRR [label="", shape = square, fillcolor="#649b00"]
WNbLIx_EQ_1LrRR [label="", shape = square, fillcolor="#1ce300"]
WNbLIxN_EQ_1LrRR [label="", shape = square, fillcolor="#0ff00"]
WNbLIxN_EQ_1LRR [label="", shape = square, fillcolor="#0ff00"]
WNbLIxN_EQ_1LRrR [label="", shape = square, fillcolor="#0ff00"]
WNbLIxN_EQ_1LlRrR [label="", shape = square, fillcolor="#0ff00"]
R2LRWNbLlrR [label="", shape = square, fillcolor="#798600"]
R2LlRWNbLlrR [label="", shape = square, fillcolor="#778800"]
WNbLR2LrRR [label="", shape = square, fillcolor="#55aa00"]
WNbLR2LrrRR [label="", shape = square, fillcolor="#53ac00"]
WNbLR2LrrlRR [label="", shape = square, fillcolor="#51ae00"]
WNbLR2LlrlRR [label="", shape = square, fillcolor="#4eb100"]
WNbLIx_EQ_1LRR [label="", shape = square, fillcolor="#0ff00"]
WNbLIxN_EQ_1LR2LlRrRR [label="", shape = square, fillcolor="#0ff00"]
WNbLIxN_EQ_1LR2LlRRR [label="", shape = square, fillcolor="#0ff00"]
WNbLIxN_EQ_1LR2LlRRrR [label="", shape = square, fillcolor="#0ff00"]
WNbLIxN_EQ_1LlRlrR [label="", shape = square, fillcolor="#0ff00"]
WNbLIxN_EQ_1LlRR [label="", shape = square, fillcolor="#0ff00"]
WNbLlIxN_EQ_1LlRR [label="", shape = square, fillcolor="#0ff00"]
WNbLlIxN_EQ_1LlRrR [label="", shape = square, fillcolor="#ff00ff"]
R2LR2LlRrRILR [label="", shape = square, fillcolor="#c03f00"]
R2LR2LlRrRIx_EQ_1LR [label="", shape = square, fillcolor="#bf4000"]
R2LR2LlRRIx_EQ_1LR [label="", shape = square, fillcolor="#bb4400"]
R2LR2LlRRIx_EQ_1LrR [label="", shape = square, fillcolor="#ba4500"]
R2LR2LlRIx_EQ_1LrRR [label="", shape = square, fillcolor="#8c7300"]
R3LR2LlRIx_EQ_1LrRR [label="", shape = square, fillcolor="#d32c00"]
R3LR2LlRIxN_EQ_1LrRR [label="", shape = square, fillcolor="#d22d00"]
R3LR2LlRIxN_EQ_1LRR [label="", shape = square, fillcolor="#ce3100"]
R3LR2LlRrIxN_EQ_1LRR [label="", shape = square, fillcolor="#c93600"]
R3LR2LlRIxN_EQ_1LRrR [label="", shape = square, fillcolor="#d02f00"]
R3LR2LlRIxN_EQ_2LrRR [label="", shape = square, fillcolor="#d32c00"]
R3LR2LlRIx_EQ_2LrRR [label="", shape = square, fillcolor="#d22d00"]
R3LR2LlRILrRR [label="", shape = square, fillcolor="#d12e00"]
R3LR2LlRR [label="", shape = square, fillcolor="#c63900"]
R3LR2LlrRR [label="", shape = square, fillcolor="#c73800"]
R2LR2LlRRWx_EQ_1LR [label="", shape = square, fillcolor="#b04f00"]
Wx_EQ_1LR2LR2LlRRR [label="", shape = square, fillcolor="#b04f00"]
R2LWx_EQ_1LRR2LlRR [label="", shape = square, fillcolor="#9a6500"]
R2LWx_EQ_1LRR [label="", shape = square, fillcolor="#946b00"]
R2LWx_EQ_1LR2LlRRR [label="", shape = square, fillcolor="#9a6500"]
R2LR2LlRIx_EQ_1LRrR [label="", shape = square, fillcolor="#906f00"]
R2LR2LlRIx_EQ_1LRR [label="", shape = square, fillcolor="#8e7100"]
R2LR2LlRIxN_EQ_1LrRR [label="", shape = square, fillcolor="#a65900"]
R2LR2LlRILrRR [label="", shape = square, fillcolor="#a75800"]
R2LR2LRIx_EQ_1LrRR [label="", shape = square, fillcolor="#59a600"]
R2LlR2LRIx_EQ_1LrRR [label="", shape = square, fillcolor="#22dd00"]
R2LlIx_EQ_1LrRR2LRR [label="", shape = square, fillcolor="#0ff00"]
R2LlIx_EQ_1LrRR [label="", shape = square, fillcolor="#0ff00"]
R2LlIxN_EQ_1LrRR [label="", shape = square, fillcolor="#0ff00"]
R2LlIxN_EQ_1LRR [label="", shape = square, fillcolor="#0ff00"]
R2LlIxN_EQ_1LRrR [label="", shape = square, fillcolor="#0ff00"]
R2LlIxN_EQ_1LlRrR [label="", shape = square, fillcolor="#0ff00"]
WLlWxN_EQ_1LlrRR [label="", shape = square, fillcolor="#2ed100"]
WNbLlWxN_EQ_1LlrRR [label="", shape = square, fillcolor="#2bd400"]
WNbLlWxN_EQ_1LlRR [label="", shape = square, fillcolor="#28d700"]
WNbLlWxN_EQ_1LlRrR [label="", shape = square, fillcolor="#26d900"]
WNbLlRILR [label="", shape = square, fillcolor="#33cc00"]
WNbLlRIxN_EQ_1LR [label="", shape = square, fillcolor="#30cf00"]
WNbLlRIxN_EQ_1LlR [label="", shape = square, fillcolor="#2ed100"]
WNbLlRIxN_EQ_1LlrR [label="", shape = square, fillcolor="#2bd400"]
WNbLlIxN_EQ_1LlrRR [label="", shape = square, fillcolor="#0ff00"]
WNbLWx_GT_1LlRrR [label="", shape = square, fillcolor="#609f00"]
WNbLWx_GT_2LlRrR [label="", shape = square, fillcolor="#5ea100"]
WNbLWx_GT_2LRrR [label="", shape = square, fillcolor="#5ba400"]
WNbLWx_GT_2LRR [label="", shape = square, fillcolor="#59a600"]
WNbLlILRR [label="", shape = square, fillcolor="#0ff00"]
WNbLlILRrR [label="", shape = square, fillcolor="#0ff00"]
WNbLlILlRrR [label="", shape = square, fillcolor="#0ff00"]
WNbLlIx_GT_2LlRrR [label="", shape = square, fillcolor="#0ff00"]
WNbLlIx_GT__EQ_2LlRrR [label="", shape = square, fillcolor="#ff00ff"]
WLlR [label="", shape = square, fillcolor="#1ce300"]
WNbLlRr [label="", shape = square, fillcolor="#38c700"]
WNbLlRrIx_EQ_1LrR [label="", shape = square, fillcolor="#2bd400"]
WNbLlrIx_EQ_1LrRR [label="", shape = square, fillcolor="#728d00"]
WNbLlrIx_GT_1LrRR [label="", shape = square, fillcolor="#708f00"]
WNbLlrIx_GT_3LrRR [label="", shape = square, fillcolor="#6e9100"]
WNbLlIx_GT_3LlrRR [label="", shape = square, fillcolor="#768900"]
WNbLlIx_GT_3LrrRR [label="", shape = square, fillcolor="#748b00"]
WNbLlIx_GT_3LrlRR [label="", shape = square, fillcolor="#728d00"]
WNbLlIx_LT_3LrlRR [label="", shape = square, fillcolor="#708f00"]
WLlIx_LT_3LrlRR [label="", shape = square, fillcolor="#b44b00"]
Wx_EQ_1LlIx_LT_3LrlRR [label="", shape = square, fillcolor="#b34c00"]
WxN_EQ_1LlIx_LT_3LrlRR [label="", shape = square, fillcolor="#b24d00"]
WxN_EQ_2LlIx_LT_3LrlRR [label="", shape = square, fillcolor="#b04f00"]
R2LlIx_LT_3LrlRR [label="", shape = square, fillcolor="#ff000"]
R3LlIx_LT_3LrlRR [label="", shape = square, fillcolor="#ff000"]
R4LlIx_LT_3LrlRR [label="", shape = square, fillcolor="#ff000"]
R4LlIx_LT_2LrlRR [label="", shape = square, fillcolor="#ff000"]
R4LR [label="", shape = square, fillcolor="#ff000"]
Ix_LT_3LR2LrlRR [label="", shape = square, fillcolor="#ff000"]
Ix_LT_3LR2LrlRRr [label="", shape = square, fillcolor="#ff000"]
Ix_LT_4LR2LrlRRr [label="", shape = square, fillcolor="#ff000"]
Ix_LT_4LR2LllRRr [label="", shape = square, fillcolor="#ff000"]
Ix_LT_4LR2LlrRRr [label="", shape = square, fillcolor="#ff000"]
Ix_LT_4LR2LlrRR [label="", shape = square, fillcolor="#ff000"]
Ix_LT_5LR2LlrRR [label="", shape = square, fillcolor="#ff000"]
Ix_LT_5LR [label="", shape = square, fillcolor="#ff000"]
R2LIx_LT_3LrlRrR [label="", shape = square, fillcolor="#ff000"]
R2LIx_LT_3LrlRR [label="", shape = square, fillcolor="#ff000"]
R2LrIx_LT_3LrlRR [label="", shape = square, fillcolor="#ff000"]
R2LllrR2LRR [label="", shape = square, fillcolor="#25da00"]
R2LllrrR [label="", shape = square, fillcolor="#25da00"]
R2LllrRr [label="", shape = square, fillcolor="#54ab00"]
R2LllrRWLR [label="", shape = square, fillcolor="#0ff00"]
R2LllrRWx_EQ_1LR [label="", shape = square, fillcolor="#0ff00"]
R2LllRWx_EQ_1LR [label="", shape = square, fillcolor="#0ff00"]
R2LllRWx_EQ_1LrR [label="", shape = square, fillcolor="#0ff00"]
start -> R2LR
start -> WLR
R2LR -> R2LlR
R2LlR -> R2LlRr
ILR -> Ix_EQ_1LR
ILR -> ILrR
ILR -> WNbLR2LlRrR2LRR
Ix_EQ_1LR -> Ix_EQ_1LfR
Ix_EQ_1LR -> Ix_GT_1LR
Ix_EQ_1LfR -> IxN_EQ_1LfR
IxN_EQ_1LfR -> IxN_EQ_2LfR
IxN_EQ_2LfR -> IxN_EQ_4LfR
IxN_EQ_4LfR -> IxN_EQ_3LfR
IxN_EQ_3LfR -> Ix_GT_3LfR
Ix_GT_3LfR -> Ix_LT_3LfR
Ix_LT_3LfR -> Ix_LT_3LlR
Ix_LT_3LlR -> R2LR
R2LR2LlRR -> R2LR2LlRrR
R2LR2LlRrR -> R2LR2LlRrRl
ILrR -> INbLrR
INbLrR -> WLRINbLrR
WLRINbLrR -> WLR
WLR -> WNbLR
WLINbLrRR -> WNbLINbLrRR
WNbLINbLrRR -> WNbLR
WNbLrR -> WNbLfR
WNbLrR -> WNbLlrR
WNbLrR -> WLrR
WNbLfR -> WLfR
f -> fR2LR
fR2LR -> fR2LfR
R2LIx_EQ_3LlRlIx_EQ_2LrRR -> R2LlWx_EQ_2LrRR
R2LlWx_EQ_2LrRR -> R2LlWx_EQ_2LrRRR2LR
R2LlWx_EQ_2LrRR -> R2LlR2LrRR
R2LlWx_EQ_2LrRRR2LR -> R2LlWx_EQ_2LrRR
R2LlR2LrRR -> R2LlR2LRR
R2LlR2LRR -> R2LrlR2LRR
R2LlR2LRR -> R2LlIx_EQ_1LrRR2LRR
R2LrlR2LRR -> R2LrR
R2LrR -> R2LrR2LlRR
R2LrR2LlRR -> R2LR
Ix_EQ_4LR2LlRR -> Ix_EQ_4LR2LlRRILR
Ix_EQ_3LR -> Ix_EQ_3LlR
Ix_EQ_3LlR -> l
lIx_EQ_3LlR -> lIx_EQ_3LlRr
lIx_EQ_3LlRr -> R2LRlIx_EQ_3LlRr
R2LRlIx_EQ_3LlRr -> R2LR
R2LlIx_EQ_3LlRrR -> R2LR
R2LllR -> R2LllrR
R2LR2LRR -> R2LR2LlRR
R2LR2LlRrlR -> R2LR2LlRR
R2LR2LlRrlR -> R2LR2LlRrR
R2LR2LlrRR -> R2LR2LlRR
R2LR2LlRrRl -> R2LR2LlRrR
R2LR2LlRrRWx_EQ_1LlR -> R2LR2LlRrRWx_EQ_1LR
R2LR2LlRrRWx_EQ_1LR -> R2LR2LlRrRWx_EQ_1LlR
ls -> lss
lss -> R2LlRR2LrR
R2LlRR2LrR -> R2LlR
R2LlRr -> R2LRR2LlRr
R2LlRr -> R2LlR
R2LRR2LlRr -> R2LR
R3LR2LlRrR -> R2LR2LlRrR
R3LR2LlRrR -> R3LR2LlRIxN_EQ_1LRrR
R2LR2LlRrRlr -> R2LR2LlRrRl
R2LRl -> R2LR
WNbLR2LlRrR -> WNbLR
WNbLlrR -> WNbLllrR
WNbLlrR -> R2LRWNbLlrR
WNbLllrR -> WNbLR
WNbLllrR -> WNbLlR
ILWNbLR2LlRrRR -> INbLWNbLR2LlRrRR
ILWNbLR2LlRrRR -> ILR
INbLWNbLR2LlRrRR -> ILWNbLR2LlRrRR
WNbLR2LlRrR2LRR -> WNbLR2LlRrR2LrRR
WNbLR2LlRrR2LRR -> WNbLR2LlRrR2LILRRR
WNbLR2LlRrR2LRR -> WNbLR
WNbLR2LlRrR2LRR -> WNbLR2LlRrR
WNbLR2LlRrR2LrRR -> WNbLR2LlRrR2LRR
WNbLR2LlRrR2LILRRR -> WNbLR2LlRrR2LRR
R2LlRrR2LR -> WNbLR2LlRrR2LRR
WNbLR2LlRrRr -> WNbLR2LlRrR
WLR2LlRrR -> Wx_EQ_1LR2LlRrR
Wx_EQ_1LR2LlRrR -> Wx_GT_1LR2LlRrR
Wx_GT_1LR2LlRrR -> Wx_GT_1LR2LRrR
Wx_GT_1LR2LRrR -> Wx_GT_1LR
Wx_GT_1LR -> Wx_GT_1LlR
Wx_GT_1LlR -> Wx_GT_1LlrR
Wx_GT_1LlR -> Wx_GT_1LllR
Wx_GT_1LlR -> Wx_GT_1LlRrIx_LT__EQ_1LlR
Wx_GT_1LlrR -> Wx_GT_2LlrR
Wx_GT_2LlrR -> Wx_GT_2LlR
Wx_GT_2LlR -> Wx_GT_2LR
Wx_GT_2LR -> Wx_GT_2LR2LlRR
Wx_GT_2LR -> WLR
Wx_GT_2LR2LlRR -> Wx_GT_2LR2LlRrR
Wx_GT_2LR2LlRrR -> Wx_GT_2LR2LlRrRr
Wx_GT_2LR2LlRrR -> Wx_GT_2LR2LlRrRl
Wx_GT_2LR2LlRrRr -> Wx_GT_2LR2LlRrR
Wx_GT_2LR2LlRrRl -> Wx_GT_2LR2LlRrRlr
Wx_GT_2LR2LlRrRlr -> Wx_GT_2LR10LlRrRlr
Wx_GT_2LR10LlRrRlr -> Wx_GT_2LR10LlRrRl
Wx_GT_2LR10LlRrRl -> Wx_GT_2LR9LlRrRl
Wx_GT_2LR9LlRrRl -> Wx_GT_2LR3LlRrRl
Wx_GT_2LR3LlRrRl -> Wx_GT_2LR3LlRrRlr
Wx_GT_2LR3LlRrRl -> R3LR
Wx_GT_2LR3LlRrRlr -> Wx_GT_2LR3LlRrRl
R3LR -> R2LR
WLrR -> WNbLrR
WLrR -> Ix_EQ_2LR2LlrRR
Ix_EQ_2LR2LlrRR -> l
lIx_EQ_2LR2LlrRR -> l
Wx_EQ_1LR -> WxN_EQ_1LR
Wx_GT_1LllR -> Wx_GT_1LllrR
Wx_GT_1LllrR -> Wx_GT_2LllrR
Wx_GT_2LllrR -> Wx_GT_2LllR
Wx_GT_2LllR -> Wx_GT_2LlR
WLIx_GT_1LlRR -> WLIx_GT_1LlRrR
WLIx_GT_1LlRrR -> WNbLIx_GT_1LlRrR
WNbLIx_GT_1LlRrR -> WLR
WNbLIx_GT_1LlRrR -> WNbLlIx_GT_1LlRrR
WNbLIx_GT_1LlRrR -> WNbLR
WNbLR2LRR -> WNbLR2LILRRR
WNbLR2LRR -> WNbLR2LrRR
WNbLR2LILRRR -> WNbLR2LIx_EQ_1LRRR
WNbLR2LIx_EQ_1LRRR -> WNbLR2LIx_GT_1LRRR
WNbLR2LIx_GT_1LRRR -> WNbLR2LIx_GT_1LlRRR
WNbLR2LIx_GT_1LlRRR -> WNbLR2LIx_GT_1LlRrRR
WNbLR2LIx_GT_1LlRrRR -> WNbLR
WNbLILRR -> WNbLILRlR
WNbLILRR -> WNbLILRILRR
WNbLILRR -> WNbLIx_EQ_1LRR
WNbLILRlR -> WNbLILrRlR
WNbLILrRlR -> WNbLIx_EQ_1LrRlR
WNbLIx_EQ_1LrRlR -> WLR
WxN_EQ_1LR -> WxN_EQ_1LlR
WxN_EQ_1LR -> WxN_EQ_2LR
WxN_EQ_1LlR -> WxN_EQ_1LllR
WxN_EQ_1LllR -> WxN_EQ_2LllR
WxN_EQ_2LllR -> WxN_EQ_2LlR
WxN_EQ_2LlR -> WxN_EQ_2LlRr
WxN_EQ_2LlRr -> WxN_EQ_2LlRrWLR
WxN_EQ_2LlRr -> WxN_EQ_2LlRrR2LR
WxN_EQ_2LlRrWLR -> WxN_EQ_2LlRrWx_EQ_1LR
WxN_EQ_2LlRrWLR -> WxN_EQ_2LlRr
WxN_EQ_2LlRrWx_EQ_1LR -> WxN_EQ_2LlRrWxN_EQ_1LR
WxN_EQ_2LlRrWxN_EQ_1LR -> WxN_EQ_2LlRrWxN_EQ_1LlR
WxN_EQ_2LlRrWxN_EQ_1LlR -> WxN_EQ_2LlR
WxN_EQ_2LlRILR -> WxN_EQ_2LlRIx_EQ_1LR
WxN_EQ_2LlRIx_EQ_1LR -> WxN_EQ_2LlRIx_EQ_2LR
WxN_EQ_2LlRIx_EQ_1LR -> WxN_EQ_2LlRIx_EQ_1LrR
WxN_EQ_2LlRIx_EQ_2LR -> WxN_EQ_2LlRIx_EQ_1LR
WxN_EQ_2LlRIx_EQ_1LrR -> WxN_EQ_2LlRIx_EQ_1LrRl
WxN_EQ_2LlRIx_EQ_1LrRl -> R2LR
R2LlrR -> R2LllrR
R2LlrR -> R2LlR
R3LllrR -> R3LlILRlrR
R3LllrR -> l
R3LlILRlrR -> R3LlIx_EQ_1LRlrR
R3LlIx_EQ_1LRlrR -> R3LlIxN_EQ_1LRlrR
R3LlIxN_EQ_1LRlrR -> R3LlIxN_EQ_1LRR
R3LlIxN_EQ_1LRR -> R3LlIxN_EQ_1LlrRR
R3LlIxN_EQ_1LlrRR -> R3LlIxN_EQ_1LlRR
R3LlIxN_EQ_1LlRR -> R3LlIxN_EQ_1LlRrR
Ix_GT_1LR -> Ix_GT_1LlR
Ix_GT_1LlR -> Ix_GT_1LlRILR
Ix_GT_1LlR -> Ix_GT_1LlRrIx_LT__EQ_1LlR
Ix_GT_1LlR -> ILlR
Ix_GT_1LlRILR -> Ix_GT_1LlRlILR
Ix_GT_1LlRlILR -> Ix_GT_1LlRlIx_EQ_1LR
Ix_GT_1LlRlIx_EQ_1LR -> Ix_GT_1LlRlIx_LT__EQ_1LR
Ix_GT_1LlRlIx_LT__EQ_1LR -> Ix_GT_1LlRlIx_LT__EQ_1LlR
Ix_GT_1LlRlIx_LT__EQ_1LlR -> Ix_GT_1LlRrIx_LT__EQ_1LlR
Ix_GT_1LlRrIx_LT__EQ_1LlR -> Ix_GT_1LlR
ILlR -> Wx_GT_1LRILlR
Wx_GT_1LRILlR -> Wx_GT_1LR
Wx_GT_1LlRrIx_LT__EQ_1LlR -> Wx_GT_1LlRr
Wx_GT_1LlRr -> Wx_GT_1LlRrWLR
Wx_GT_1LlRrWLR -> Wx_GT_1LlRrWx_LT__EQ_1LR
Wx_GT_1LlRrWx_LT__EQ_1LR -> Wx_GT_1LlRrWx_LT__EQ_1LlR
Wx_GT_1LlRrWx_LT__EQ_1LlR -> Wx_GT__EQ_1LlRrWx_LT__EQ_1LlR
Wx_GT__EQ_1LlRrWx_LT__EQ_1LlR -> Wx_GT__EQ_2LlRrWx_LT__EQ_1LlR
Wx_GT__EQ_2LlRrWx_LT__EQ_1LlR -> Wx_GT__EQ_2LlR
Wx_GT__EQ_2LlRrWx_LT__EQ_1LlR -> Wx_GT__EQ_2LlRrWx_GT__EQ_1LlR
Wx_GT__EQ_2LlR -> Wx_GT__EQ_2LlRrWx_LT__EQ_1LlR
Wx_GT__EQ_2LlRrWx_GT__EQ_1LlR -> Wx_GT_2LlRrWx_GT__EQ_1LlR
Wx_GT_2LlRrWx_GT__EQ_1LlR -> Wx_GT_2LlRrWx_GT_1LlR
Wx_GT_2LlRrWx_GT_1LlR -> R2LR
WNbLILRILRR -> WNbLIx_EQ_1LRILRR
WNbLIx_EQ_1LRILRR -> WNbLIx_GT_1LRILRR
WNbLIx_GT_1LRILRR -> WNbLIx_GT_2LRILRR
WNbLIx_GT_2LRILRR -> WNbLIx_GT_2LlRILRR
WNbLIx_GT_2LlRILRR -> WNbLIx_GT_2LlRIx_EQ_1LRR
WNbLIx_GT_2LlRIx_EQ_1LRR -> WNbLIx_GT_2LlRIx_GT_1LRR
WNbLIx_GT_2LlRIx_GT_1LRR -> WNbLIx_GT_2LlRIx_GT_1LlRR
WNbLIx_GT_2LlRIx_GT_1LlRR -> WNbLR
R2LllrRlr -> WLR
WNbLR2LllrRR -> WNbLR
WNbLR2LllrRR -> R2LllrR
WNbLWLRR -> WNbLWx_EQ_1LRR
WNbLWx_EQ_1LRR -> WNbLWxN_EQ_1LRR
WNbLWxN_EQ_1LRR -> WNbLWxN_EQ_1LllrRR
WNbLWxN_EQ_1LllrRR -> WNbLR
WxN_EQ_1LllrRWNbLR -> WxN_EQ_1LllrR
WxN_EQ_1LllrR -> WxN_EQ_2LllrR
WxN_EQ_2LllrR -> WxN_EQ_2LllrRr
WxN_EQ_2LllrR -> WxN_EQ_2LllrRR2LR
WxN_EQ_2LllrR -> WxN_EQ_2LllrRR2LfR
WxN_EQ_2LllrRr -> WxN_EQ_2LllrR
WxN_EQ_2LllrRR2LR -> WxN_EQ_2LllrR
WxN_EQ_2LllrRR2LfR -> WxN_EQ_2LR2LllRrRR2LfR
WxN_EQ_2LR2LllRrRR2LfR -> WxN_EQ_2LR2LlRrRR2LfR
WxN_EQ_2LR2LlRrRR2LfR -> WxN_EQ_2LR2LlRrR
WxN_EQ_2LR2LlRrR -> WxN_EQ_2LR2LlRrRf
WxN_EQ_2LR2LlRrRf -> WLR
WxN_EQ_2LR2LlRrRf -> R2LlRr
WNbLR2LlRrRf -> WNbLRf
WNbLRf -> WLRWNbLRf
WLRWNbLRf -> Wx_EQ_1LRWNbLRf
Wx_EQ_1LRWNbLRf -> Wx_EQ_1LR
Wx_EQ_1LRf -> Wx_EQ_1LR2LlRrRf
Wx_EQ_1LR2LlRrRf -> WxN_EQ_1LR2LlRrRf
WxN_EQ_1LR2LlRrRf -> WxN_EQ_2LR2LlRrRf
R2LllrRl -> R2LllrRlr
R2LllrRl -> R2LllrR
R2LWLRR -> R2LlWLRR
R2LlWLRR -> R2LlWNbLRR
lILR -> lIx_EQ_1LR
lIx_EQ_1LR -> lIx_EQ_1LrR
lIx_EQ_1LrR -> WLlIx_EQ_1LrRR
WLlIx_EQ_1LrRR -> WNbLlIx_EQ_1LrRR
WNbLlIx_EQ_1LrRR -> WNbLlIx_EQ_2LrRR
WxN_EQ_2LR -> WxN_EQ_2LlR
WxN_EQ_2LR -> WLR
WxN_EQ_2LR -> R2LR
WxN_EQ_2LlRrR2LR -> WxN_EQ_2LlR
R2LlRrWLR -> R2LlRrWx_EQ_1LR
R2LlRrWx_EQ_1LR -> R2LlRr
R2LlRWNbLR -> R2LlRWNbLWx_EQ_1LRR
R2LlRWNbLR -> R2LlRWNbLILRR
R2LlRWNbLWx_EQ_1LRR -> R2LlRWNbLR
R2LlRWNbLILRR -> R2LlRWNbLIx_EQ_1LRR
R2LlRWNbLIx_EQ_1LRR -> R2LlRWNbLIx_EQ_1LrRR
R2LlRWNbLIx_EQ_1LrRR -> R2LlR
WNbLIx_EQ_1LrRR -> R2LlR
WNbLIx_EQ_1LrRR -> WNbLIxN_EQ_1LrRR
WNbLIxN_EQ_1LrRR -> WNbLIxN_EQ_1LRR
WNbLIxN_EQ_1LRR -> WNbLIxN_EQ_1LRrR
WNbLIxN_EQ_1LRR -> WNbLIxN_EQ_1LR2LlRrRR
WNbLIxN_EQ_1LRrR -> WNbLIxN_EQ_1LlRrR
WNbLIxN_EQ_1LRrR -> WNbLIxN_EQ_1LR2LlRRrR
WNbLIxN_EQ_1LlRrR -> WNbLR
WNbLIxN_EQ_1LlRrR -> WNbLIxN_EQ_1LRrR
WNbLIxN_EQ_1LlRrR -> WNbLIxN_EQ_1LlRlrR
R2LRWNbLlrR -> R2LlRWNbLlrR
R2LlRWNbLlrR -> WLR
WNbLR2LrRR -> WNbLR2LrrRR
WNbLR2LrrRR -> WNbLR2LrrlRR
WNbLR2LrrlRR -> WNbLR2LlrlRR
WNbLR2LlrlRR -> WNbLR2LllrRR
WNbLIx_EQ_1LRR -> WNbLIxN_EQ_1LRR
WNbLIxN_EQ_1LR2LlRrRR -> WNbLIxN_EQ_1LR2LlRRR
WNbLIxN_EQ_1LR2LlRRR -> WNbLIxN_EQ_1LR2LlRRrR
WNbLIxN_EQ_1LR2LlRRrR -> WNbLIxN_EQ_1LRrR
WNbLIxN_EQ_1LlRlrR -> WNbLIxN_EQ_1LlRR
WNbLIxN_EQ_1LlRR -> WNbLlIxN_EQ_1LlRR
WNbLlIxN_EQ_1LlRR -> WNbLlIxN_EQ_1LlRrR
R2LR2LlRrRILR -> R2LR2LlRrRIx_EQ_1LR
R2LR2LlRrRIx_EQ_1LR -> R2LR2LlRRIx_EQ_1LR
R2LR2LlRrRIx_EQ_1LR -> R2LR2LlRrR
R2LR2LlRRIx_EQ_1LR -> R2LR2LlRRIx_EQ_1LrR
R2LR2LlRRIx_EQ_1LrR -> R2LR2LlRR
R2LR2LlRIx_EQ_1LrRR -> R3LR2LlRIx_EQ_1LrRR
R2LR2LlRIx_EQ_1LrRR -> R2LR2LlRIxN_EQ_1LrRR
R2LR2LlRIx_EQ_1LrRR -> R2LR2LRIx_EQ_1LrRR
R3LR2LlRIx_EQ_1LrRR -> R3LR2LlRIxN_EQ_1LrRR
R3LR2LlRIxN_EQ_1LrRR -> R3LR2LlRIxN_EQ_1LRR
R3LR2LlRIxN_EQ_1LrRR -> R3LR2LlRIxN_EQ_2LrRR
R3LR2LlRIxN_EQ_1LRR -> R3LR2LlRrIxN_EQ_1LRR
R3LR2LlRIxN_EQ_1LRR -> R3LR2LlRIxN_EQ_1LrRR
R3LR2LlRrIxN_EQ_1LRR -> R3LR2LlRrR
R3LR2LlRIxN_EQ_1LRrR -> R3LR2LlRIxN_EQ_1LRR
R3LR2LlRIxN_EQ_2LrRR -> R3LR2LlRIx_EQ_2LrRR
R3LR2LlRIx_EQ_2LrRR -> R3LR2LlRILrRR
R3LR2LlRILrRR -> R3LR2LlRR
R3LR2LlRR -> R3LR2LlrRR
R3LR2LlRR -> R3LR2LlRrR
R3LR2LlrRR -> R3LR2LlRR
R2LR2LlRRWx_EQ_1LR -> R2LR2LlRR
Wx_EQ_1LR2LR2LlRRR -> R2LR2LlRR
R2LWx_EQ_1LRR2LlRR -> R2LWx_EQ_1LRR
R2LWx_EQ_1LRR -> R2LWx_EQ_1LR2LlRRR
R2LWx_EQ_1LRR -> R2LR
R2LWx_EQ_1LR2LlRRR -> R2LWx_EQ_1LRR
R2LR2LlRIx_EQ_1LRrR -> R2LR2LlRIx_EQ_1LRR
R2LR2LlRIx_EQ_1LRR -> R2LR2LlRIx_EQ_1LrRR
R2LR2LlRIxN_EQ_1LrRR -> R2LR2LlRR
R2LR2LlRIxN_EQ_1LrRR -> R2LR2LlRILrRR
R2LR2LlRIxN_EQ_1LrRR -> R2LR2LlRIx_EQ_1LrRR
R2LR2LlRILrRR -> R2LR2LlRIxN_EQ_1LrRR
R2LR2LRIx_EQ_1LrRR -> R2LR2LlRIx_EQ_1LrRR
R2LR2LRIx_EQ_1LrRR -> R2LlR2LRIx_EQ_1LrRR
R2LlR2LRIx_EQ_1LrRR -> R2LlR
R2LlR2LRIx_EQ_1LrRR -> R2LlR2LRR
R2LlIx_EQ_1LrRR2LRR -> R2LlIx_EQ_1LrRR
R2LlIx_EQ_1LrRR -> R2LlIxN_EQ_1LrRR
R2LlIxN_EQ_1LrRR -> R2LlIxN_EQ_1LRR
R2LlIxN_EQ_1LRR -> R2LlIxN_EQ_1LRrR
R2LlIxN_EQ_1LRrR -> R2LlIxN_EQ_1LlRrR
R2LlIxN_EQ_1LlRrR -> R3LlIxN_EQ_1LlRrR
WLlWxN_EQ_1LlrRR -> WNbLlWxN_EQ_1LlrRR
WNbLlWxN_EQ_1LlrRR -> WNbLlWxN_EQ_1LlRR
WNbLlWxN_EQ_1LlRR -> WNbLlWxN_EQ_1LlRrR
WNbLlWxN_EQ_1LlRrR -> WNbLlR
WNbLlRILR -> WNbLlRIxN_EQ_1LR
WNbLlRIxN_EQ_1LR -> WNbLlRIxN_EQ_1LlR
WNbLlRIxN_EQ_1LlR -> WNbLlRIxN_EQ_1LlrR
WNbLlRIxN_EQ_1LlrR -> WNbLlR
WNbLlIxN_EQ_1LlrRR -> WNbLlIxN_EQ_1LlRR
WNbLWx_GT_1LlRrR -> WNbLWx_GT_2LlRrR
WNbLWx_GT_2LlRrR -> WNbLWx_GT_2LRrR
WNbLWx_GT_2LRrR -> WNbLWx_GT_2LRR
WNbLWx_GT_2LRR -> WNbLR
WNbLlILRR -> WNbLlILRrR
WNbLlILRrR -> WNbLlILlRrR
WNbLlILlRrR -> WNbLlIx_GT_2LlRrR
WNbLlIx_GT_2LlRrR -> WNbLlIx_GT__EQ_2LlRrR
WLlR -> WNbLlR
WNbLlRr -> WNbLlRrIx_EQ_1LrR
WNbLlRrIx_EQ_1LrR -> WNbLlR
WNbLlrIx_EQ_1LrRR -> WNbLlrIx_GT_1LrRR
WNbLlrIx_GT_1LrRR -> WNbLlrIx_GT_3LrRR
WNbLlrIx_GT_3LrRR -> WNbLR
WNbLlIx_GT_3LlrRR -> WNbLlIx_GT_3LrrRR
WNbLlIx_GT_3LrrRR -> WNbLlIx_GT_3LrlRR
WNbLlIx_GT_3LrlRR -> WNbLlIx_LT_3LrlRR
WNbLlIx_LT_3LrlRR -> WNbLlR
WNbLlIx_LT_3LrlRR -> WLlIx_LT_3LrlRR
WLlIx_LT_3LrlRR -> Wx_EQ_1LlIx_LT_3LrlRR
Wx_EQ_1LlIx_LT_3LrlRR -> WxN_EQ_1LlIx_LT_3LrlRR
WxN_EQ_1LlIx_LT_3LrlRR -> WxN_EQ_2LlIx_LT_3LrlRR
WxN_EQ_2LlIx_LT_3LrlRR -> WxN_EQ_2LlR
R2LlIx_LT_3LrlRR -> R3LlIx_LT_3LrlRR
R3LlIx_LT_3LrlRR -> R4LlIx_LT_3LrlRR
R4LlIx_LT_3LrlRR -> R4LlIx_LT_2LrlRR
R4LlIx_LT_3LrlRR -> R4LR
R4LlIx_LT_2LrlRR -> R4LlIx_LT_3LrlRR
R4LR -> Ix_LT_3LR2LrlRR
Ix_LT_3LR2LrlRR -> Ix_LT_3LR2LrlRRr
Ix_LT_3LR2LrlRRr -> Ix_LT_4LR2LrlRRr
Ix_LT_4LR2LrlRRr -> Ix_LT_4LR2LllRRr
Ix_LT_4LR2LllRRr -> Ix_LT_4LR2LlrRRr
Ix_LT_4LR2LlrRRr -> Ix_LT_4LR2LlrRR
Ix_LT_4LR2LlrRR -> Ix_LT_5LR2LlrRR
Ix_LT_5LR2LlrRR -> Ix_LT_5LR
Ix_LT_5LR -> R2LIx_LT_3LrlRrR
R2LIx_LT_3LrlRrR -> R2LIx_LT_3LrlRR
R2LIx_LT_3LrlRR -> R2LrIx_LT_3LrlRR
R2LrIx_LT_3LrlRR -> R2LlIx_LT_3LrlRR
R2LllrR2LRR -> R2LllrR
R2LllrrR -> R2LllrR
R2LllrRr -> R2LllrRl
R2LllrRWLR -> R2LllrRWx_EQ_1LR
R2LllrRWx_EQ_1LR -> R2LllRWx_EQ_1LR
R2LllRWx_EQ_1LR -> R2LllrRWx_EQ_1LR
R2LllRWx_EQ_1LR -> R2LllRWx_EQ_1LrR
}